# mid-IR sky transmission 6 - 28 um
# 1.6mm H2O, sec z = 1.5
#  
# Modification of original spectrum from 
# ATRANS via Tom Geballe
# 14Dec99 - converted to units of nm from um 
#                        Phil Puxley
#
#  Wavelength   Transmission
#  (nm)  
6000      2.47E-03
6005      2.12E-03
6010      7.91E-04
6015      3.19E-04
6020      1.46E-03
6025      3.20E-03
6030      2.52E-03
6035      7.59E-04
6040      8.34E-05
6045      2.49E-06
6050             0
6055             0
6060             0
6065             0
6070      2.24E-07
6075      1.15E-05
6080      1.33E-04
6085      6.61E-04
6090      1.71E-03
6095      1.73E-03
6100      6.90E-04
6105      1.48E-04
6110      1.40E-05
6115      1.89E-05
6120      3.62E-04
6125      2.63E-03
6130      7.46E-03
6135      7.65E-03
6140      2.70E-03
6145      4.29E-04
6150      2.30E-04
6155      1.09E-04
6160      2.87E-05
6165      9.15E-05
6170      2.22E-04
6175      1.91E-04
6180      5.22E-05
6185      2.23E-05
6190      4.43E-04
6195      4.12E-03
6200      1.71E-02
6205      3.09E-02
6210      2.30E-02
6215      1.47E-02
6220      2.74E-02
6225      8.56E-02
6230      0.141239
6235      9.36E-02
6240      5.49E-02
6245      0.105195
6250       0.24308
6255      0.326704
6260      0.246896
6265      0.105727
6270      5.78E-02
6275      0.105688
6280      0.129669
6285      0.108678
6290      0.137995
6295      0.246362
6300      0.306763
6305      0.297479
6310      0.247299
6315      0.159191
6320      8.80E-02
6325      4.90E-02
6330      1.82E-02
6335      3.29E-03
6340      2.52E-04
6345      7.15E-06
6350      1.18E-05
6355      6.90E-05
6360      1.27E-04
6365      6.93E-05
6370      1.65E-05
6375      6.28E-05
6380      1.87E-04
6385      1.58E-04
6390      3.79E-05
6395      2.55E-06
6400      2.97E-08
6405             0
6410             0
6415             0
6420             0
6425      6.21E-10
6430      8.43E-08
6435      2.05E-06
6440      1.50E-05
6445      3.44E-05
6450      7.41E-05
6455      3.41E-04
6460      7.06E-04
6465      5.06E-04
6470      1.17E-04
6475      8.26E-06
6480      1.41E-07
6485             0
6490             0
6495             0
6500             0
6505             0
6510             0
6515      7.52E-09
6520      2.01E-06
6525      4.77E-05
6530      3.20E-04
6535      6.19E-04
6540      3.46E-04
6545      5.55E-05
6550      2.51E-06
6555      1.37E-08
6560             0
6565             0
6570             0
6575             0
6580             0
6585             0
6590      2.11E-07
6595      7.49E-06
6600      7.19E-05
6605      1.87E-04
6610      1.31E-04
6615      2.47E-05
6620      1.24E-06
6625      1.09E-08
6630             0
6635      8.48E-10
6640      1.44E-07
6645      3.54E-06
6650      2.42E-05
6655      4.89E-05
6660      3.88E-05
6665      1.92E-05
6670      4.29E-06
6675      3.58E-07
6680      7.61E-06
6685      1.62E-04
6690      1.06E-03
6695      2.40E-03
6700      2.11E-03
6705      7.13E-04
6710      8.15E-05
6715      4.23E-06
6720      9.18E-05
6725      1.74E-03
6730      1.22E-02
6735      4.09E-02
6740      7.35E-02
6745      6.15E-02
6750      2.83E-02
6755      4.44E-02
6760      7.21E-02
6765      4.88E-02
6770      1.36E-02
6775      1.50E-03
6780      5.80E-05
6785      6.50E-07
6790      8.67E-06
6795      2.55E-04
6800      2.68E-03
6805      1.07E-02
6810      1.64E-02
6815      9.75E-03
6820      2.49E-03
6825      3.49E-04
6830      9.51E-04
6835      4.27E-03
6840      7.53E-03
6845      5.20E-03
6850      1.35E-03
6855      1.27E-04
6860      4.12E-06
6865      5.62E-06
6870      1.58E-04
6875      1.47E-03
6880      4.90E-03
6885      1.05E-02
6890      2.76E-02
6895      4.36E-02
6900      2.89E-02
6905      8.11E-03
6910      1.52E-02
6915      7.07E-02
6920      0.174455
6925      0.267514
6930      0.278452
6935      0.243017
6940      0.180372
6945       0.10569
6950      3.92E-02
6955      7.29E-03
6960      7.27E-04
6965      1.96E-03
6970      7.34E-03
6975      1.54E-02
6980      2.53E-02
6985      2.12E-02
6990      8.96E-03
6995      8.57E-03
7000      4.37E-02
7005      0.118738
7010      0.149092
7015      9.86E-02
7020      3.25E-02
7025      9.69E-03
7030      1.52E-02
7035      1.25E-02
7040      3.42E-03
7045      3.31E-04
7050      3.28E-04
7055      3.65E-03
7060      2.31E-02
7065      8.32E-02
7070      0.196803
7075      0.284934
7080      0.218894
7085      0.174752
7090       0.22524
7095      0.295796
7100      0.363664
7105      0.329267
7110      0.186397
7115      5.57E-02
7120      3.64E-02
7125      0.111646
7130      0.193916
7135       0.17039
7140      7.18E-02
7145      1.28E-02
7150      2.28E-03
7155      6.17E-03
7160      7.55E-03
7165      2.68E-03
7170      3.34E-03
7175      2.83E-02
7180      9.93E-02
7185      0.152156
7190      0.135162
7195      0.129914
7200      9.00E-02
7205      2.57E-02
7210      2.11E-02
7215      0.113573
7220      0.292859
7225      0.402942
7230       0.43419
7235      0.473325
7240      0.466363
7245      0.309761
7250      0.193259
7255      0.184523
7260      0.220238
7265      0.175439
7270      5.90E-02
7275      8.26E-03
7280      1.33E-02
7285      7.47E-02
7290      0.209563
7295      0.301171
7300      0.229256
7305      0.118619
7310      0.210129
7315       0.39806
7320      0.425169
7325      0.328007
7330      0.159464
7335      3.62E-02
7340      1.07E-02
7345      3.10E-02
7350      0.131619
7355      0.290631
7360      0.357126
7365      0.418082
7370      0.414916
7375      0.262139
7380      0.187581
7385      0.342377
7390      0.466029
7395      0.468971
7400      0.408537
7405      0.336103
7410      0.241103
7415      0.286432
7420      0.337766
7425      0.349188
7430      0.507343
7435      0.627712
7440      0.573401
7445      0.392035
7450      0.200774
7455      8.69E-02
7460      2.48E-02
7465      4.24E-03
7470      1.08E-02
7475      4.00E-02
7480      0.110872
7485      0.308343
7490      0.542812
7495      0.599486
7500      0.455498
7505      0.359107
7510      0.554794
7515      0.645049
7520      0.572383
7525      0.600452
7530      0.483128
7535      0.405153
7540      0.594279
7545      0.735043
7550      0.693199
7555       0.56302
7560      0.481782
7565      0.425591
7570      0.310473
7575       0.13479
7580      6.97E-02
7585      0.134435
7590       0.17904
7595      0.238872
7600      0.374216
7605      0.343872
7610      0.219058
7615      0.135804
7620      0.195913
7625      0.378728
7630      0.538559
7635      0.563929
7640      0.443078
7645      0.324884
7650      0.298716
7655      0.152433
7660      3.93E-02
7665      2.94E-02
7670      5.16E-02
7675      1.01E-01
7680      0.152811
7685      0.223103
7690      0.263965
7695      0.304396
7700      0.349882
7705       0.25544
7710      0.191747
7715      0.250477
7720      0.297668
7725      0.319195
7730      0.376382
7735      0.411043
7740      0.478162
7745      0.495087
7750      0.445782
7755      0.378721
7760      0.225401
7765      0.178767
7770      0.360796
7775       0.57117
7780       0.66602
7785      0.557029
7790      0.370531
7795      0.324605
7800      0.412131
7805      0.453957
7810      0.438329
7815      0.477833
7820      0.537798
7825      0.459961
7830       0.36898
7835      0.402605
7840      0.394436
7845      0.415277
7850       0.46793
7855      0.402504
7860      0.237848
7865      0.137842
7870      0.173064
7875       0.20684
7880      0.214882
7885      0.229066
7890      0.352594
7895      0.407286
7900      0.356748
7905      0.429408
7910      0.503755
7915      0.478635
7920      0.474449
7925      0.428919
7930      0.292303
7935      0.184612
7940      0.329215
7945      0.547635
7950       0.67756
7955      0.688903
7960      0.689038
7965       0.68673
7970      0.621422
7975      0.549565
7980      0.603938
7985      0.724231
7990      0.782422
7995      0.795693
8000       0.75799
8005      0.766429
8010       0.74318
8015      0.705272
8020      0.743421
8025      0.714278
8030      0.642812
8035      0.539568
8040      0.546343
8045      0.681033
8050      0.763916
8055      0.799098
8060      0.831275
8065      0.856866
8070      0.829943
8075      0.817186
8080      0.787346
8085      0.753272
8090       0.79431
8095      0.893827
8100      0.944498
8105      0.929723
8110      0.930122
8115       0.95408
8120      0.954924
8125       0.90697
8130      0.842101
8135      0.840191
8140      0.895775
8145      0.942135
8150      0.927459
8155      0.821045
8160      0.635381
8165      0.658868
8170       0.83949
8175      0.899197
8180      0.891925
8185       0.88161
8190      0.876724
8195      0.877517
8200      0.844308
8205       0.75645
8210      0.796626
8215      0.907252
8220      0.928961
8225      0.928087
8230      0.938302
8235      0.948928
8240      0.913726
8245      0.749265
8250      0.595939
8255      0.662824
8260       0.81917
8265      0.922753
8270       0.95232
8275      0.959469
8280      0.963171
8285      0.959255
8290      0.946755
8295      0.953523
8300      0.965823
8305      0.964782
8310      0.960432
8315      0.959201
8320      0.958676
8325      0.958954
8330      0.961167
8335       0.94756
8340       0.86477
8345      0.741518
8350      0.808397
8355      0.924182
8360      0.952046
8365      0.956738
8370      0.957721
8375      0.951688
8380      0.944384
8385      0.944314
8390      0.938387
8395      0.928806
8400      0.934205
8405      0.942271
8410      0.939591
8415      0.905957
8420      0.774252
8425      0.675922
8430        0.8034
8435      0.907432
8440      0.928681
8445      0.931552
8450      0.934286
8455      0.934787
8460      0.931179
8465      0.920737
8470      0.916265
8475      0.925401
8480      0.926809
8485      0.923695
8490      0.924765
8495      0.924692
8500      0.919653
8505      0.880522
8510      0.726042
8515      0.615002
8520      0.746345
8525      0.883431
8530      0.931186
8535      0.940749
8540      0.944684
8545      0.947576
8550      0.950695
8555      0.955775
8560      0.959995
8565      0.957538
8570      0.937709
8575      0.871785
8580        0.7943
8585      0.828647
8590      0.908774
8595      0.933494
8600      0.935416
8605      0.934433
8610      0.933638
8615      0.931587
8620      0.929665
8625      0.928751
8630      0.928011
8635      0.928203
8640      0.926858
8645      0.925516
8650      0.924767
8655      0.925657
8660      0.924695
8665      0.923615
8670      0.910364
8675      0.872005
8680      0.857656
8685      0.880011
8690      0.903951
8695      0.875399
8700      0.842942
8705      0.888319
8710      0.925034
8715      0.932763
8720      0.933944
8725      0.937867
8730      0.939518
8735      0.938917
8740      0.937365
8745      0.935661
8750      0.942867
8755      0.945712
8760      0.944101
8765      0.946956
8770       0.94819
8775      0.948391
8780      0.941071
8785      0.912875
8790      0.851613
8795      0.839693
8800      0.795908
8805      0.715713
8810      0.818892
8815      0.916356
8820      0.935953
8825      0.941521
8830      0.941593
8835      0.937367
8840      0.930233
8845      0.931013
8850      0.937323
8855         0.939
8860      0.942569
8865      0.940781
8870      0.937863
8875       0.94302
8880      0.936998
8885      0.930819
8890      0.927204
8895      0.922913
8900      0.934766
8905      0.940736
8910      0.922183
8915      0.868453
8920      0.826395
8925      0.891291
8930      0.935423
8935      0.927852
8940      0.933275
8945       0.94258
8950      0.940525
8955      0.940358
8960      0.949957
8965      0.947282
8970      0.945931
8975       0.94936
8980      0.948494
8985      0.947633
8990      0.928577
8995      0.873859
9000      0.880333
9005      0.935015
9010      0.956529
9015      0.959283
9020      0.955313
9025      0.946353
9030      0.911363
9035      0.867119
9040      0.901842
9045      0.943836
9050      0.953776
9055      0.953414
9060      0.952146
9065       0.95532
9070       0.94331
9075      0.906702
9080      0.895441
9085      0.924276
9090      0.919012
9095      0.912924
9100      0.935665
9105      0.947891
9110      0.952523
9115      0.953552
9120      0.952458
9125      0.951837
9130      0.943314
9135      0.934732
9140      0.937924
9145      0.942881
9150      0.944004
9155      0.941271
9160      0.920699
9165      0.905211
9170      0.928089
9175      0.939846
9180      0.939962
9185       0.93723
9190      0.929226
9195      0.922732
9200      0.928595
9205      0.934323
9210      0.931705
9215      0.934359
9220      0.934395
9225      0.935968
9230       0.93522
9235       0.93461
9240      0.926708
9245      0.907366
9250      0.896087
9255      0.916683
9260      0.924701
9265      0.932478
9270      0.928534
9275      0.929038
9280      0.924612
9285      0.925121
9290      0.924914
9295      0.913581
9300       0.88845
9305      0.854327
9310      0.885491
9315      0.915023
9320      0.922687
9325      0.924971
9330      0.917312
9335      0.918299
9340      0.903988
9345      0.898346
9350      0.879881
9355      0.833427
9360      0.822452
9365      0.814871
9370      0.785789
9375      0.724176
9380       0.66554
9385      0.675614
9390      0.665162
9395       0.63049
9400      0.588264
9405       0.54864
9410      0.511899
9415      0.471355
9420      0.440974
9425      0.412851
9430      0.386269
9435      0.382585
9440      0.396333
9445      0.385075
9450      0.379957
9455      0.378348
9460      0.354853
9465      0.324808
9470      0.306025
9475      0.332477
9480      0.325229
9485      0.312676
9490      0.285861
9495      0.284076
9500      0.289816
9505       0.30005
9510      0.333799
9515      0.303934
9520      0.302846
9525      0.361549
9530      0.371435
9535      0.387365
9540      0.372748
9545      0.376844
9550      0.448776
9555      0.485399
9560       0.54347
9565        0.6287
9570      0.652966
9575      0.717289
9580      0.804031
9585      0.817612
9590      0.789723
9595      0.654464
9600      0.412728
9605       0.28133
9610       0.26458
9615      0.266521
9620      0.265165
9625      0.278973
9630      0.296912
9635      0.327654
9640      0.336951
9645      0.342666
9650      0.370309
9655      0.393835
9660      0.381779
9665      0.386697
9670      0.438697
9675      0.459077
9680      0.441571
9685       0.46551
9690      0.483392
9695      0.463642
9700      0.469129
9705      0.503079
9710      0.496275
9715      0.462328
9720      0.453916
9725      0.474102
9730      0.480153
9735      0.461368
9740      0.465307
9745      0.489002
9750      0.488677
9755      0.465569
9760      0.467084
9765      0.487491
9770      0.491985
9775      0.477224
9780      0.488549
9785      0.510226
9790       0.50479
9795      0.483942
9800      0.493054
9805      0.522056
9810      0.533792
9815      0.507106
9820      0.514753
9825      0.536425
9830       0.56343
9835      0.554348
9840      0.567665
9845      0.591101
9850      0.594752
9855      0.572775
9860      0.567655
9865      0.605212
9870      0.625164
9875      0.625197
9880      0.601701
9885      0.623176
9890      0.643228
9895      0.645896
9900       0.64365
9905      0.647534
9910      0.691097
9915      0.707097
9920      0.700537
9925      0.694555
9930      0.698854
9935       0.72401
9940      0.726289
9945      0.732366
9950      0.733938
9955      0.741402
9960      0.770693
9965      0.770868
9970      0.775002
9975       0.78208
9980      0.788812
9985       0.82266
9990      0.815433
9995       0.80785
10000      0.808687
10005      0.811206
10010      0.849342
10015      0.849659
10020      0.843805
10025      0.854987
10030      0.855808
10035      0.883336
10040      0.882512
10045      0.870001
10050      0.881461
10055      0.875766
10060      0.892742
10065      0.905946
10070      0.894211
10075      0.900756
10080      0.900996
10085      0.905349
10090      0.924031
10095      0.920944
10100      0.917509
10105      0.924496
10110      0.923743
10115      0.933544
10120      0.941357
10125      0.935346
10130      0.935516
10135      0.939322
10140      0.940956
10145      0.947907
10150       0.95132
10155      0.946151
10160      0.946182
10165      0.949516
10170      0.950774
10175      0.956865
10180      0.955189
10185      0.952225
10190      0.955009
10195       0.95471
10200      0.958481
10205      0.958704
10210      0.958922
10215      0.957457
10220      0.954622
10225      0.957881
10230      0.950789
10235      0.952734
10240      0.957587
10245        0.9435
10250        0.9504
10255      0.960586
10260      0.952228
10265      0.951156
10270       0.94689
10275      0.946792
10280      0.961705
10285      0.958979
10290       0.94915
10295       0.95486
10300      0.956164
10305        0.9565
10310      0.967099
10315      0.962775
10320      0.959518
10325      0.969242
10330      0.965619
10335      0.960666
10340       0.96646
10345      0.964151
10350      0.961095
10355      0.969539
10360      0.971963
10365      0.967677
10370      0.972552
10375      0.975755
10380      0.972637
10385      0.974318
10390      0.977617
10395      0.976814
10400      0.976672
10405      0.978265
10410      0.978724
10415      0.976831
10420      0.972226
10425      0.972108
10430      0.976418
10435      0.975024
10440      0.970166
10445      0.973642
10450       0.97611
10455      0.968558
10460      0.962128
10465      0.959356
10470      0.956286
10475      0.957689
10480      0.965513
10485      0.968588
10490      0.958844
10495      0.957087
10500      0.970106
10505      0.974456
10510      0.963906
10515      0.961245
10520      0.972775
10525       0.97297
10530      0.960882
10535       0.95985
10540      0.951166
10545      0.919395
10550      0.927999
10555      0.958597
10560      0.972224
10565      0.968439
10570      0.959269
10575       0.96545
10580      0.973503
10585      0.969054
10590      0.960376
10595      0.966678
10600      0.975709
10605      0.972919
10610      0.963353
10615      0.966993
10620      0.974833
10625      0.971875
10630      0.963927
10635       0.96679
10640      0.975398
10645      0.976056
10650      0.969379
10655      0.967683
10660      0.974772
10665      0.976814
10670      0.972433
10675      0.968481
10680      0.973659
10685      0.977376
10690       0.97546
10695      0.970642
10700      0.972624
10705      0.976986
10710      0.977171
10715      0.973766
10720      0.972203
10725      0.975878
10730      0.977635
10735      0.976232
10740       0.97335
10745      0.974801
10750      0.977315
10755      0.977422
10760      0.974966
10765      0.972738
10770      0.975357
10775      0.977645
10780      0.977296
10785      0.975399
10790      0.975564
10795      0.976953
10800      0.974674
10805      0.958619
10810      0.933476
10815      0.948115
10820      0.971778
10825      0.976903
10830      0.976209
10835      0.971644
10840       0.95245
10845      0.936897
10850      0.957186
10855      0.972001
10860      0.975466
10865      0.976624
10870      0.977117
10875      0.977242
10880      0.975731
10885      0.971943
10890      0.972224
10895      0.975987
10900      0.977024
10905      0.976933
10910      0.976805
10915      0.977019
10920      0.977049
10925      0.977027
10930      0.976724
10935      0.975397
10940      0.973233
10945      0.974414
10950      0.976464
10955      0.976902
10960      0.976747
10965      0.976589
10970      0.976571
10975      0.976411
10980      0.975619
10985      0.974478
10990      0.972709
10995      0.952856
11000      0.907777
11005      0.920653
11010        0.9633
11015      0.974782
11020       0.97588
11025      0.974953
11030      0.971577
11035      0.969353
11040       0.97274
11045      0.974899
11050      0.975865
11055      0.976296
11060      0.976199
11065      0.976071
11070      0.976193
11075      0.976076
11080      0.975747
11085      0.975675
11090       0.97603
11095      0.976179
11100      0.976016
11105      0.975766
11110      0.975849
11115      0.976052
11120      0.975963
11125      0.975647
11130      0.975283
11135      0.974301
11140      0.973453
11145      0.974481
11150       0.97488
11155      0.974751
11160      0.975034
11165      0.975306
11170       0.97535
11175      0.975418
11180      0.975542
11185      0.975534
11190      0.975372
11195      0.975258
11200      0.975339
11205      0.975338
11210      0.974675
11215      0.971236
11220      0.968394
11225      0.971508
11230      0.971899
11235      0.970493
11240      0.972517
11245      0.972322
11250       0.96562
11255      0.963596
11260      0.966695
11265      0.941088
11270      0.891392
11275      0.915544
11280      0.961999
11285      0.973013
11290      0.974008
11295      0.974151
11300      0.973819
11305      0.970035
11310      0.952532
11315      0.940429
11320      0.958133
11325      0.969676
11330      0.972913
11335      0.973811
11340      0.972628
11345        0.9657
11350       0.95938
11355      0.966787
11360      0.972719
11365      0.973561
11370      0.972872
11375      0.965965
11380      0.946306
11385      0.945406
11390      0.965032
11395      0.972517
11400      0.973367
11405      0.973421
11410      0.973123
11415      0.972541
11420      0.972775
11425      0.973248
11430      0.973331
11435      0.973262
11440      0.973162
11445      0.973102
11450      0.973035
11455      0.972909
11460      0.972627
11465      0.971169
11470      0.957197
11475       0.91382
11480      0.909748
11485      0.953799
11490      0.970528
11495      0.972255
11500      0.972404
11505       0.97243
11510      0.972426
11515      0.972406
11520      0.972384
11525      0.972333
11530      0.972248
11535      0.972077
11540      0.971695
11545      0.969257
11550      0.955881
11555      0.940756
11560      0.948976
11565      0.962624
11570      0.969588
11575      0.971202
11580      0.971531
11585      0.971617
11590       0.97154
11595      0.971432
11600      0.971459
11605      0.971466
11610      0.971399
11615      0.971315
11620      0.971244
11625      0.970955
11630      0.970171
11635      0.970054
11640      0.970049
11645      0.968249
11650       0.96811
11655      0.970015
11660      0.970576
11665      0.970531
11670      0.970439
11675      0.970285
11680      0.970038
11685      0.969574
11690      0.966872
11695      0.947457
11700      0.908236
11705      0.919872
11710      0.955324
11715      0.958113
11720      0.935263
11725      0.873635
11730      0.809764
11735      0.865473
11740      0.945598
11745      0.965543
11750      0.967502
11755      0.967606
11760      0.962684
11765      0.928493
11770      0.881453
11775      0.915531
11780      0.958906
11785      0.967723
11790      0.968489
11795      0.968582
11800      0.968609
11805      0.968577
11810      0.968416
11815      0.968333
11820      0.968221
11825      0.968125
11830       0.96832
11835      0.968359
11840      0.968264
11845      0.968206
11850      0.968159
11855      0.968042
11860      0.967835
11865      0.967282
11870      0.963346
11875      0.951634
11880      0.949983
11885      0.961379
11890       0.96543
11895       0.96092
11900      0.936717
11905      0.902922
11910      0.922877
11915      0.957422
11920      0.965944
11925      0.966423
11930      0.965831
11935      0.965777
11940      0.966371
11945      0.966557
11950      0.966469
11955      0.966325
11960      0.965372
11965      0.962532
11970      0.961861
11975       0.96464
11980      0.965823
11985      0.965842
11990      0.965855
11995      0.965755
12000      0.965643
12005      0.965405
12010      0.965299
12015      0.965293
12020      0.965209
12025       0.96506
12030      0.964786
12035      0.964707
12040       0.96466
12045        0.9646
12050      0.964199
12055       0.96388
12060      0.963659
12065      0.962496
12070      0.958003
12075       0.93619
12080      0.892367
12085      0.901124
12090       0.94132
12095       0.95717
12100      0.961286
12105      0.961978
12110      0.955256
12115      0.926343
12120      0.911747
12125      0.942468
12130      0.960116
12135      0.962345
12140      0.961653
12145      0.960635
12150      0.961195
12155      0.961424
12160      0.961253
12165      0.959943
12170      0.959599
12175      0.961074
12180      0.961443
12185       0.96022
12190      0.958202
12195      0.959198
12200      0.961098
12205      0.960814
12210      0.958175
12215      0.956188
12220      0.958693
12225      0.960406
12230      0.959089
12235      0.955007
12240       0.95454
12245       0.95804
12250      0.958691
12255       0.95573
12260      0.949792
12265      0.950447
12270      0.941878
12275      0.907201
12280      0.890366
12285      0.880051
12290      0.899188
12295      0.942548
12300      0.953569
12305      0.947444
12310      0.946776
12315      0.954443
12320      0.957174
12325      0.952887
12330      0.943823
12335      0.946374
12340      0.954381
12345      0.955438
12350      0.948038
12355      0.938515
12360       0.94132
12365      0.919973
12370      0.851448
12375      0.841903
12380      0.901921
12385      0.941714
12390      0.951698
12395      0.948158
12400      0.934296
12405      0.928844
12410      0.942258
12415      0.951175
12420      0.946779
12425      0.932505
12430      0.934482
12435      0.936096
12440      0.882594
12445      0.813022
12450      0.823918
12455      0.870261
12460      0.927482
12465      0.947374
12470       0.93988
12475      0.928035
12480      0.937806
12485      0.947823
12490      0.947141
12495      0.935369
12500      0.924048
12505      0.928499
12510      0.897537
12515      0.776568
12520      0.596259
12525      0.632154
12530      0.829905
12535      0.886723
12540      0.889797
12545      0.909958
12550       0.91579
12555      0.891662
12560      0.750682
12565      0.641161
12570      0.779482
12575      0.900457
12580      0.934044
12585      0.935216
12590      0.897068
12595      0.832192
12600      0.861845
12605      0.916835
12610      0.922304
12615      0.902511
12620      0.849392
12625      0.751855
12630      0.659808
12635       0.71505
12640      0.867305
12645      0.930581
12650       0.93913
12655      0.939614
12660      0.937271
12665      0.940275
12670      0.941158
12675      0.940523
12680      0.939323
12685      0.935514
12690      0.937326
12695      0.939104
12700      0.939194
12705      0.935961
12710       0.92983
12715      0.932967
12720      0.935975
12725      0.931754
12730      0.924399
12735      0.904248
12740      0.837676
12745      0.676637
12750      0.666819
12755      0.832123
12760      0.900213
12765      0.918127
12770      0.929749
12775      0.929734
12780      0.927826
12785      0.917342
12790      0.919261
12795      0.929871
12800      0.929507
12805      0.926863
12810      0.918717
12815      0.917934
12820      0.925043
12825      0.902811
12830      0.842638
12835      0.841562
12840      0.888322
12845       0.91523
12850      0.922115
12855      0.919131
12860      0.895401
12865       0.80117
12870      0.715057
12875      0.804309
12880      0.894803
12885      0.894207
12890      0.818791
12895      0.786202
12900      0.865668
12905      0.910476
12910      0.913597
12915      0.902127
12920      0.905564
12925      0.918628
12930      0.916249
12935      0.910955
12940      0.905635
12945      0.904046
12950      0.913962
12955      0.908825
12960       0.89678
12965      0.888821
12970      0.885495
12975      0.896201
12980      0.873197
12985      0.834132
12990      0.857131
12995      0.867037
13000      0.823407
13005      0.779842
13010      0.841142
13015      0.893455
13020      0.881905
13025      0.869645
13030      0.880732
13035      0.893775
13040      0.898861
13045      0.875967
13050      0.848661
13055      0.876127
13060      0.903033
13065      0.895713
13070      0.863317
13075      0.819349
13080      0.848069
13085      0.887923
13090      0.887847
13095      0.854848
13100      0.798973
13105      0.835881
13110      0.891986
13115      0.890829
13120      0.850281
13125      0.775412
13130      0.801687
13135      0.877789
13140      0.885643
13145      0.830845
13150      0.739077
13155        0.7534
13160      0.852081
13165      0.884491
13170      0.838392
13175      0.742511
13180      0.723924
13185        0.8205
13190      0.870427
13195      0.817789
13200       0.68828
13205      0.622833
13210      0.732854
13215      0.834014
13220      0.817635
13225      0.691688
13230      0.586064
13235      0.684394
13240      0.810224
13245      0.760188
13250      0.556639
13255      0.442891
13260      0.512928
13265      0.657709
13270      0.777054
13275      0.738892
13280      0.576592
13285       0.52996
13290      0.655658
13295       0.75085
13300      0.749335
13305      0.591785
13310      0.479735
13315      0.610077
13320      0.745768
13325      0.748509
13330      0.605054
13335      0.439123
13340      0.523326
13345      0.714764
13350      0.778587
13355      0.650045
13360      0.409811
13365      0.397983
13370      0.616592
13375      0.756905
13380      0.718621
13385       0.49694
13390      0.362619
13395      0.532873
13400      0.709769
13405      0.734524
13410      0.567965
13415      0.335927
13420      0.341537
13425       0.45939
13430      0.569347
13435      0.537053
13440      0.333813
13445      0.275997
13450      0.479145
13455      0.640821
13460      0.619754
13465      0.433453
13470      0.227628
13475       0.24172
13480       0.23473
13485      0.107499
13490      8.85E-02
13495      8.66E-02
13500      9.18E-02
13505       0.25043
13510      0.441656
13515      0.488692
13520      0.365369
13525      0.199176
13530      0.268719
13535      0.467309
13540      0.525978
13545      0.457141
13550      0.277337
13555      0.177881
13560      0.336899
13565      0.479076
13570      0.452524
13575      0.345068
13580      0.182632
13585      0.194802
13590      0.400056
13595       0.49905
13600      0.439234
13605      0.289771
13610      0.147872
13615      0.247173
13620      0.448734
13625      0.485734
13630      0.388024
13635      0.219388
13640      0.142023
13645      0.302951
13650      0.469539
13655      0.458505
13660      0.332579
13665      0.165356
13670      0.148095
13675      0.278639
13680      0.301799
13685      0.294144
13690      0.234579
13695      0.118962
13700      0.166104
13705      0.309902
13710      0.310788
13715      0.270924
13720      0.201664
13725      0.115153
13730      0.223714
13735      0.423021
13740      0.505311
13745      0.449357
13750      0.254132
13755        0.1382
13760      0.275326
13765      0.454211
13770      0.517346
13775      0.468686
13780      0.275642
13785      0.173345
13790      0.318039
13795      0.470926
13800      0.512088
13805      0.460252
13810      0.280111
13815      0.192034
13820      0.300808
13825      0.393092
13830      0.396526
13835      0.364437
13840      0.253393
13845      0.190378
13850       0.21317
13855      0.163586
13860      6.69E-02
13865      1.32E-02
13870      1.51E-03
13875      1.12E-04
13880      3.55E-06
13885      2.44E-08
13890      5.12E-07
13895      2.15E-05
13900      3.40E-04
13905      2.20E-03
13910      6.26E-03
13915      1.00E-02
13920      2.41E-02
13925      7.96E-02
13930      0.185672
13935      0.269397
13940      0.258573
13945      0.149093
13950      7.75E-02
13955      0.107581
13960      0.187314
13965      0.299836
13970      0.316504
13975      0.189906
13980      8.40E-02
13985      9.33E-02
13990      0.117047
13995      0.207359
14000      0.280965
14005      0.186926
14010      6.24E-02
14015      4.44E-02
14020      6.28E-02
14025      0.109401
14030      0.207898
14035      0.190849
14040      8.24E-02
14045      6.53E-02
14050      8.27E-02
14055      6.11E-02
14060      8.72E-02
14065      0.113283
14070      6.96E-02
14075      4.32E-02
14080      6.16E-02
14085      4.78E-02
14090      5.41E-02
14095      8.26E-02
14100      5.66E-02
14105      2.80E-02
14110      3.50E-02
14115      3.33E-02
14120      2.26E-02
14125      4.33E-02
14130      4.77E-02
14135      2.16E-02
14140      1.95E-02
14145      2.21E-02
14150      1.17E-02
14155      1.45E-02
14160      3.21E-02
14165      2.61E-02
14170      1.13E-02
14175      6.53E-03
14180      2.17E-03
14185      1.91E-03
14190      8.66E-03
14195      1.40E-02
14200      9.62E-03
14205      8.91E-03
14210      5.75E-03
14215      1.26E-03
14220      7.56E-04
14225      2.42E-03
14230      2.67E-03
14235      1.50E-03
14240      1.12E-03
14245      4.77E-04
14250      1.12E-04
14255      4.05E-04
14260      1.06E-03
14265      1.49E-03
14270      1.49E-03
14275      5.64E-04
14280      6.08E-05
14285      1.80E-05
14290      1.10E-04
14295      3.71E-04
14300      8.23E-04
14305      7.19E-04
14310      1.88E-04
14315      1.40E-05
14320      8.20E-07
14325      1.37E-05
14330      9.77E-05
14335      1.96E-04
14340      1.14E-04
14345      1.92E-05
14350      9.37E-07
14355      2.95E-07
14360      4.68E-06
14365      2.08E-05
14370      2.53E-05
14375      8.43E-06
14380      7.63E-07
14385      1.86E-08
14390             0
14395             0
14400             0
14405             0
14410             0
14415             0
14420             0
14425             0
14430             0
14435             0
14440             0
14445             0
14450             0
14455             0
14460             0
14465             0
14470             0
14475             0
14480             0
14485             0
14490             0
14495             0
14500             0
14505             0
14510             0
14515             0
14520             0
14525             0
14530             0
14535             0
14540             0
14545             0
14550             0
14555             0
14560             0
14565             0
14570             0
14575             0
14580             0
14585             0
14590             0
14595             0
14600             0
14605             0
14610             0
14615             0
14620             0
14625             0
14630             0
14635             0
14640             0
14645             0
14650             0
14655             0
14660             0
14665             0
14670             0
14675             0
14680             0
14685             0
14690             0
14695             0
14700             0
14705             0
14710             0
14715             0
14720             0
14725             0
14730             0
14735             0
14740             0
14745             0
14750             0
14755             0
14760             0
14765             0
14770             0
14775             0
14780             0
14785             0
14790             0
14795             0
14800             0
14805             0
14810             0
14815             0
14820             0
14825             0
14830             0
14835             0
14840             0
14845             0
14850             0
14855             0
14860             0
14865             0
14870             0
14875             0
14880             0
14885             0
14890             0
14895             0
14900             0
14905             0
14910             0
14915             0
14920             0
14925             0
14930             0
14935             0
14940             0
14945             0
14950             0
14955             0
14960             0
14965             0
14970             0
14975             0
14980             0
14985             0
14990             0
14995             0
15000             0
15005             0
15010             0
15015             0
15020             0
15025             0
15030             0
15035             0
15040             0
15045             0
15050             0
15055             0
15060             0
15065             0
15070             0
15075             0
15080             0
15085             0
15090             0
15095             0
15100             0
15105             0
15110             0
15115             0
15120             0
15125             0
15130             0
15135             0
15140             0
15145             0
15150             0
15155             0
15160             0
15165             0
15170             0
15175             0
15180             0
15185             0
15190             0
15195             0
15200             0
15205             0
15210             0
15215             0
15220             0
15225             0
15230             0
15235             0
15240             0
15245             0
15250             0
15255             0
15260             0
15265             0
15270             0
15275             0
15280             0
15285             0
15290             0
15295             0
15300             0
15305             0
15310             0
15315             0
15320             0
15325             0
15330             0
15335             0
15340             0
15345             0
15350             0
15355             0
15360             0
15365             0
15370             0
15375             0
15380             0
15385             0
15390             0
15395             0
15400             0
15405             0
15410             0
15415             0
15420             0
15425             0
15430             0
15435             0
15440             0
15445             0
15450             0
15455             0
15460             0
15465             0
15470             0
15475             0
15480             0
15485             0
15490             0
15495             0
15500             0
15505             0
15510             0
15515             0
15520             0
15525             0
15530             0
15535             0
15540             0
15545             0
15550             0
15555             0
15560             0
15565             0
15570             0
15575             0
15580             0
15585             0
15590             0
15595      1.17E-09
15600      1.17E-07
15605      2.52E-06
15610      1.43E-05
15615      2.13E-05
15620      8.44E-06
15625      8.83E-07
15630      2.43E-08
15635      5.28E-08
15640      1.79E-06
15645      1.57E-05
15650      3.61E-05
15655      2.16E-05
15660      3.35E-06
15665      1.35E-07
15670      8.81E-10
15675      1.44E-07
15680      4.70E-06
15685      4.03E-05
15690      9.24E-05
15695      5.78E-05
15700      1.07E-05
15705      1.19E-05
15710      6.94E-05
15715      1.45E-04
15720      1.99E-04
15725      3.95E-04
15730      3.29E-04
15735      7.93E-05
15740      3.78E-05
15745      3.40E-04
15750      1.02E-03
15755      9.56E-04
15760      6.08E-04
15765      8.04E-04
15770      5.27E-04
15775      1.20E-04
15780      2.20E-04
15785      1.10E-03
15790      1.65E-03
15795      9.79E-04
15800      1.16E-03
15805      1.56E-03
15810      6.85E-04
15815      1.71E-04
15820      1.18E-03
15825      5.27E-03
15830      7.25E-03
15835      4.40E-03
15840      4.62E-03
15845      3.69E-03
15850      1.42E-03
15855      1.51E-03
15860      3.58E-03
15865      8.93E-03
15870      9.05E-03
15875      7.51E-03
15880      9.91E-03
15885      7.03E-03
15890      8.54E-03
15895      1.14E-02
15900      8.34E-03
15905      1.13E-02
15910      1.15E-02
15915      1.32E-02
15920      1.69E-02
15925      2.58E-02
15930      5.23E-02
15935      4.30E-02
15940      1.77E-02
15945      1.66E-02
15950      1.44E-02
15955      1.62E-02
15960      2.07E-02
15965      5.02E-02
15970      9.04E-02
15975      5.94E-02
15980      1.64E-02
15985      6.93E-03
15990      3.20E-03
15995      8.28E-03
16000      5.55E-02
16005      0.146965
16010      0.167089
16015      8.47E-02
16020      2.55E-02
16025      2.06E-02
16030      3.29E-02
16035      8.41E-02
16040      0.219814
16045      0.335023
16050      0.291666
16055      0.139903
16060      4.10E-02
16065      2.87E-02
16070      5.70E-02
16075      0.167774
16080      0.343352
16085      0.421638
16090      0.359775
16095      0.193252
16100      5.99E-02
16105      2.60E-02
16110      3.15E-02
16115      0.111075
16120      0.278078
16125      0.380664
16130      0.359436
16135      0.238585
16140      9.69E-02
16145      4.65E-02
16150      8.96E-02
16155      0.141543
16160      0.119516
16165      6.22E-02
16170      1.96E-02
16175      3.20E-03
16180      2.25E-04
16185      5.88E-06
16190      3.13E-08
16195      1.22E-09
16200      1.81E-07
16205      7.25E-06
16210      1.05E-04
16215      5.83E-04
16220      1.15E-03
16225      7.61E-04
16230      3.75E-04
16235      1.48E-03
16240      1.21E-02
16245      6.95E-02
16250      0.182176
16255      0.246535
16260      0.211775
16265      0.218656
16270      0.280053
16275      0.240858
16280      0.119723
16285      9.42E-02
16290      0.232405
16295      0.338219
16300       0.28167
16305      0.224712
16310      0.175306
16315      8.58E-02
16320      4.87E-02
16325      4.72E-02
16330      0.150695
16335      0.301663
16340      0.328326
16345      0.358614
16350      0.412008
16355      0.355802
16360      0.223541
16365      8.57E-02
16370      9.59E-02
16375      0.225691
16380      0.294416
16385      0.335155
16390      0.427948
16395      0.408941
16400      0.273857
16405       0.12091
16410      6.76E-02
16415      0.165447
16420      0.256285
16425      0.304952
16430      0.423686
16435      0.477679
16440      0.367946
16445       0.18423
16450      6.25E-02
16455      9.21E-02
16460      0.193458
16465      0.258869
16470      0.374261
16475       0.48351
16480      0.445529
16485      0.299653
16490      0.123455
16495      6.44E-02
16500      0.169126
16505      0.292545
16510      0.362544
16515       0.47464
16520      0.518622
16525      0.418489
16530      0.241168
16535      7.57E-02
16540      2.68E-02
16545      9.47E-02
16550      0.248933
16555      0.402383
16560      0.489544
16565      0.494094
16570      0.390313
16575      0.198135
16580      8.17E-02
16585      0.168326
16590      0.330101
16595      0.451953
16600      0.537851
16605      0.527273
16610      0.491151
16615      0.366769
16620      0.159096
16625      8.97E-02
16630      0.221389
16635      0.385046
16640      0.508925
16645      0.549812
16650      0.457334
16655      0.303232
16660      0.131445
16665      3.75E-02
16670      8.11E-02
16675      0.221993
16680      0.394371
16685      0.541264
16690      0.598058
16695      0.560233
16700       0.46103
16705      0.296121
16710      0.133771
16715      0.179906
16720      0.328926
16725      0.465063
16730       0.53658
16735      0.409888
16740      0.168307
16745      4.93E-02
16750      2.89E-02
16755      3.34E-02
16760      1.01E-01
16765      0.210323
16770      0.339505
16775       0.47023
16780      0.524808
16785       0.49488
16790      0.394333
16795      0.210168
16800      6.05E-02
16805      2.00E-02
16810      7.36E-02
16815       0.24226
16820      0.451259
16825      0.556706
16830      0.550456
16835      0.484919
16840      0.293398
16845      0.164102
16850       0.28176
16855      0.476344
16860      0.557193
16865      0.532703
16870      0.471925
16875      0.356129
16880      0.215434
16885      7.91E-02
16890      1.29E-02
16895      8.85E-04
16900      2.74E-03
16905      2.67E-02
16910      0.111362
16915      0.242644
16920      0.363396
16925      0.429877
16930      0.335961
16935      0.202629
16940      0.290766
16945      0.464086
16950      0.509174
16955      0.440365
16960      0.318562
16965      0.195051
16970      1.04E-01
16975      4.39E-02
16980      4.50E-02
16985      0.206953
16990      0.502267
16995      0.696325
17000      0.752912
17005       0.75019
17010      0.708052
17015      0.691253
17020      0.612086
17025      0.402407
17030      0.410229
17035      0.624748
17040      0.714272
17045      0.706071
17050      0.744096
17055      0.725128
17060      0.685669
17065      0.654033
17070      0.478993
17075      0.405623
17080      0.569163
17085      0.679437
17090      0.641908
17095      0.452207
17100      0.199831
17105      0.171306
17110      0.371336
17115      0.452914
17120      0.420381
17125      0.561617
17130      0.698526
17135       0.76444
17140       0.81075
17145      0.807574
17150      0.730796
17155      0.646992
17160      0.610979
17165      0.495861
17170      0.521873
17175      0.656438
17180      0.686169
17185         0.693
17190      0.646172
17195      0.529126
17200      0.324065
17205      0.113394
17210      2.16E-02
17215      8.12E-03
17220      5.64E-03
17225      2.80E-02
17230      0.153726
17235      0.386602
17240       0.57395
17245      0.636293
17250      0.608054
17255        0.5638
17260      0.525638
17265      0.613602
17270      0.739415
17275      0.754153
17280      0.731625
17285      0.750246
17290      0.774585
17295      0.759196
17300      0.678662
17305      0.605671
17310      0.622775
17315      0.716185
17320       0.74956
17325      0.696692
17330      0.633164
17335      0.594217
17340      0.493938
17345      0.310939
17350      0.119616
17355      2.37E-02
17360      2.44E-02
17365      0.119447
17370      0.296489
17375      0.444933
17380      0.544969
17385      0.659331
17390      0.733037
17395      0.712445
17400      0.594186
17405      0.576563
17410      0.719816
17415      0.812582
17420      0.826088
17425      0.790409
17430       0.76468
17435      0.808347
17440      0.836219
17445      0.802071
17450      0.721693
17455      0.709579
17460      0.786891
17465      0.835103
17470      0.832399
17475      0.792403
17480      0.755487
17485      0.769602
17490      0.749094
17495      0.609592
17500      0.356632
17505      0.239169
17510      0.436251
17515      0.653878
17520      0.726779
17525      0.715197
17530      0.673684
17535      0.654116
17540      0.617155
17545       0.51967
17550      0.371913
17555      0.191016
17560      5.68E-02
17565      9.37E-03
17570      1.70E-02
17575      8.73E-02
17580      0.228985
17585      0.389907
17590      0.507559
17595      0.565329
17600      0.575329
17605      0.526287
17610      0.450868
17615       0.33539
17620      0.168349
17625      4.51E-02
17630      1.02E-02
17635      4.54E-02
17640      0.173677
17645      0.365456
17650      0.526456
17655      0.611227
17660      0.661957
17665       0.72731
17670      0.772078
17675      0.790915
17680      0.792578
17685      0.785451
17690      0.802686
17695      0.826965
17700      0.834231
17705      0.820239
17710      0.788755
17715      0.768023
17720      0.776057
17725      0.791055
17730       0.77654
17735      0.715576
17740      0.604707
17745      0.405811
17750      0.164725
17755      8.38E-02
17760      0.232922
17765      0.477117
17770      0.660609
17775      0.757707
17780      0.805596
17785      0.822323
17790      0.828311
17795      0.852467
17800      0.871023
17805      0.876452
17810      0.870225
17815      0.859279
17820      0.864795
17825      0.870726
17830      0.868005
17835      0.853525
17840      0.835966
17845      0.849201
17850      0.873858
17855        0.8601
17860      0.824447
17865      0.831572
17870      0.860197
17875      0.870509
17880      0.874276
17885      0.878772
17890      0.849851
17895      0.811794
17900      0.841821
17905      0.882798
17910      0.892443
17915      0.885884
17920      0.871629
17925      0.861557
17930      0.831739
17935      0.789791
17940      0.732885
17945      0.556139
17950      0.498447
17955      0.701348
17960      0.840557
17965      0.871299
17970      0.870028
17975      0.860588
17980      0.844634
17985      0.836752
17990      0.844654
17995      0.839685
18000      0.818743
18005      0.787428
18010      0.726215
18015      0.599465
18020       0.37899
18025      0.143778
18030      5.46E-02
18035      0.165809
18040      0.407217
18045      0.615635
18050      0.730173
18055      0.789141
18060      0.825131
18065      0.846222
18070      0.857664
18075      0.861272
18080      0.855652
18085      0.851849
18090      0.859893
18095      0.845796
18100      0.740791
18105      0.595397
18110      0.673759
18115      0.820677
18120      0.865906
18125      0.870876
18130      0.864577
18135       0.85213
18140      0.848309
18145      0.845619
18150      0.820345
18155      0.742829
18160      0.661144
18165       0.62505
18170      0.480348
18175      0.226994
18180      6.79E-02
18185      0.121559
18190      0.347991
18195      0.579007
18200      0.710057
18205      0.769875
18210      0.796148
18215      0.803941
18220       0.80072
18225      0.794471
18230      0.776499
18235      0.728519
18240      0.618542
18245      0.407975
18250      0.166971
18255      8.47E-02
18260      0.231134
18265      0.459406
18270       0.59363
18275      0.625937
18280      0.594588
18285       0.50696
18290      0.355903
18295      0.172027
18300      4.54E-02
18305      1.01E-02
18310      3.97E-02
18315      0.130558
18320      0.214261
18325       0.19649
18330      9.84E-02
18335      2.41E-02
18340      1.34E-02
18345      7.30E-02
18350      0.219484
18355      0.387723
18360       0.50684
18365      0.573443
18370      0.616404
18375      0.679303
18380      0.757017
18385        0.7997
18390       0.81436
18395      0.827927
18400      0.833344
18405      0.822381
18410      0.829857
18415      0.853029
18420      0.861809
18425      0.858058
18430       0.83797
18435      0.820787
18440      0.838751
18445      0.853436
18450      0.849498
18455      0.835278
18460      0.805536
18465      0.738778
18470       0.58405
18475      0.320019
18480      0.122557
18485       0.19887
18490      0.452363
18495       0.63334
18500      0.732312
18505      0.809334
18510       0.84592
18515       0.85968
18520      0.864625
18525       0.83883
18530        0.7477
18535       0.73364
18540      0.832353
18545      0.877341
18550      0.883972
18555      0.884886
18560      0.884574
18565      0.883365
18570      0.880883
18575      0.873496
18580      0.849856
18585      0.815392
18590      0.817004
18595       0.84372
18600      0.847269
18605      0.835387
18610      0.814905
18615      0.773087
18620      0.679683
18625      0.585032
18630      0.516133
18635      0.357075
18640      0.153759
18645      3.49E-02
18650      2.40E-02
18655      0.117397
18660      0.311399
18665      0.496819
18670      0.601649
18675      0.687429
18680      0.764983
18685      0.802025
18690      0.810123
18695      0.806454
18700      0.819248
18705      0.837376
18710      0.787996
18715      0.647214
18720      0.646065
18725      0.766212
18730      0.790538
18735      0.824622
18740      0.863222
18745      0.865575
18750      0.860948
18755      0.853302
18760      0.861363
18765      0.877073
18770      0.862751
18775      0.807443
18780      0.786489
18785      0.843575
18790      0.879669
18795      0.881084
18800      0.877461
18805      0.881339
18810      0.881926
18815      0.883999
18820      0.887857
18825      0.888792
18830      0.888287
18835      0.887393
18840      0.886038
18845      0.882695
18850      0.874618
18855       0.87087
18860      0.875853
18865      0.877249
18870      0.874578
18875      0.866635
18880      0.848095
18885      0.832128
18890      0.831579
18895      0.841084
18900      0.836407
18905      0.778119
18910      0.664889
18915      0.670277
18920      0.773514
18925      0.811951
18930      0.810583
18935      0.800816
18940      0.787291
18945      0.769361
18950      0.741522
18955       0.69446
18960      0.651269
18965      0.629601
18970      0.588889
18975      0.524019
18980      0.444955
18985      0.341719
18990      0.217912
18995      9.90E-02
19000      2.53E-02
19005      3.02E-03
19010      1.78E-04
19015      2.51E-04
19020      3.94E-03
19025      2.70E-02
19030      9.43E-02
19035      0.203719
19040      0.320679
19045      0.408696
19050      0.476739
19055      0.562229
19060      0.630909
19065      0.670841
19070      0.690853
19075      0.667945
19080      0.565852
19085      0.562491
19090      0.700094
19095      0.773504
19100      0.791078
19105      0.788539
19110      0.780263
19115       0.79279
19120      0.806605
19125      0.805699
19130       0.80361
19135      0.811954
19140      0.818433
19145       0.81868
19150      0.816559
19155      0.813094
19160      0.808377
19165      0.802299
19170      0.794454
19175      0.783525
19180      0.769173
19185       0.75458
19190      0.737022
19195      0.713921
19200      0.682714
19205      0.640018
19210      0.581049
19215      0.495704
19220      0.365605
19225      0.192313
19230      5.93E-02
19235      1.42E-02
19240      3.30E-03
19245      5.77E-04
19250      4.16E-03
19255      3.03E-02
19260      0.106016
19265      0.217763
19270      0.319134
19275      0.383329
19280      0.402363
19285       0.36728
19290      0.303528
19295      0.233099
19300      0.132019
19305      4.37E-02
19310      6.99E-03
19315      1.40E-03
19320      8.39E-03
19325      2.89E-02
19330      4.35E-02
19335      3.11E-02
19340      1.05E-02
19345      1.57E-03
19350      2.35E-04
19355      2.82E-03
19360      2.23E-02
19365      8.54E-02
19370      0.192225
19375      0.295335
19380      0.344851
19385      0.413499
19390      0.536027
19395      0.614561
19400      0.650409
19405      0.643535
19410      0.528733
19415      0.380388
19420      0.422031
19425      0.506201
19430       0.56872
19435      0.650559
19440      0.565493
19445      0.495972
19450      0.654265
19455      0.762411
19460      0.783461
19465      0.808725
19470      0.827269
19475      0.833733
19480      0.836748
19485      0.838728
19490      0.838271
19495      0.833457
19500      0.830051
19505      0.832172
19510      0.829412
19515      0.817194
19520      0.779244
19525      0.649088
19530      0.407549
19535      0.302827
19540      0.481509
19545        0.6847
19550      0.711395
19555      0.645391
19560       0.66545
19565      0.710887
19570      0.665425
19575      0.509927
19580      0.259328
19585      7.23E-02
19590      7.66E-02
19595      0.279353
19600      0.537166
19605      0.681961
19610      0.738738
19615      0.761692
19620      0.770715
19625      0.772476
19630      0.769708
19635       0.76372
19640      0.754882
19645      0.742995
19650      0.726899
19655      0.707173
19660      0.685382
19665      0.658016
19670      0.622681
19675      0.576176
19680      0.501445
19685      0.379781
19690      0.292502
19695      0.259849
19700      0.189185
19705      1.01E-01
19710      3.60E-02
19715      7.44E-03
19720      7.47E-04
19725      3.24E-05
19730      7.81E-05
19735      1.46E-03
19740      1.18E-02
19745      4.86E-02
19750      0.121292
19755       0.21644
19760      0.312894
19765      0.398128
19770      0.468249
19775      0.522794
19780      0.562186
19785      0.594256
19790      0.623353
19795      0.642606
19800      0.650617
19805       0.64628
19810      0.618738
19815      0.528232
19820      0.331631
19825      0.155804
19830      0.226064
19835      0.433557
19840      0.552453
19845      0.586075
19850       0.58042
19855      0.552279
19860      0.534048
19865      0.505448
19870      0.450995
19875       0.37604
19880      0.284019
19885      0.182534
19890      8.98E-02
19895      2.91E-02
19900      5.20E-03
19905      4.30E-04
19910      2.41E-05
19915      3.28E-04
19920      3.95E-03
19925      1.96E-02
19930      4.17E-02
19935      5.58E-02
19940      0.134099
19945      0.291097
19950      0.420991
19955       0.49522
19960      0.505997
19965      0.442645
19970      0.380252
19975      0.436861
19980      0.596423
19985      0.703131
19990      0.738566
19995      0.748194
20000      0.746894
20005      0.698833
20010      0.569853
20015      0.576604
20020      0.725842
20025       0.79978
20030      0.818701
20035       0.82479
20040       0.82314
20045      0.821738
20050      0.831385
20055      0.840047
20060      0.843511
20065      0.846807
20070      0.847516
20075      0.846411
20080      0.849323
20085      0.854225
20090      0.858557
20095      0.860892
20100      0.862146
20105      0.862988
20110      0.863628
20115      0.864343
20120      0.864918
20125      0.865227
20130      0.865376
20135      0.865111
20140      0.862444
20145      0.856727
20150      0.857434
20155      0.861998
20160      0.863414
20165      0.863119
20170      0.862211
20175      0.861028
20180      0.859499
20185      0.857162
20190      0.854066
20195      0.851887
20200      0.849577
20205      0.845626
20210      0.839936
20215      0.831237
20220      0.814772
20225      0.768437
20230      0.618104
20235      0.377539
20240      0.382689
20245      0.611858
20250      0.737826
20255      0.763844
20260      0.760392
20265      0.746494
20270      0.724973
20275      0.694288
20280      0.649027
20285      0.589981
20290      0.523558
20295      0.433185
20300      0.310904
20305      0.174325
20310      6.47E-02
20315      1.30E-02
20320      1.18E-03
20325      3.14E-04
20330      1.34E-03
20335      3.45E-03
20340      2.33E-02
20345      0.117839
20350      0.292697
20355      0.453437
20360      0.558467
20365       0.62667
20370       0.67467
20375      0.709782
20380      0.735946
20385      0.755808
20390      0.770852
20395      0.781051
20400      0.787664
20405       0.79458
20410      0.796249
20415      0.771185
20420      0.653523
20425      0.504859
20430      0.594673
20435      0.754055
20440       0.80769
20445       0.81967
20450      0.822965
20455       0.81761
20460       0.80775
20465      0.811268
20470      0.819858
20475      0.822636
20480      0.822289
20485      0.820136
20490      0.807861
20495      0.774353
20500      0.763733
20505      0.790963
20510      0.801768
20515      0.798267
20520      0.790129
20525      0.776724
20530      0.760637
20535      0.749101
20540      0.737386
20545      0.713958
20550      0.670746
20555      0.587298
20560      0.423783
20565      0.198428
20570      7.05E-02
20575       0.14021
20580      0.302857
20585      0.418509
20590      0.497434
20595      0.530753
20600      0.520105
20605      0.487706
20610      0.441658
20615      0.383658
20620      0.314588
20625       0.23719
20630      0.157244
20635      8.52E-02
20640      3.38E-02
20645      8.55E-03
20650      1.17E-03
20655      7.44E-05
20660      1.86E-06
20665      5.53E-06
20670      1.70E-04
20675      2.14E-03
20680      1.30E-02
20685      4.49E-02
20690      1.03E-01
20695      0.178431
20700      0.259629
20705      0.336558
20710      0.404858
20715        0.4641
20720      0.514516
20725      0.556498
20730      0.590456
20735      0.612663
20740       0.61318
20745      0.615097
20750      0.653496
20755      0.688576
20760      0.703276
20765      0.706517
20770      0.693477
20775      0.635042
20780      0.479112
20785      0.253532
20790      0.219332
20795      0.426795
20800      0.585332
20805       0.65662
20810      0.654654
20815      0.550912
20820      0.543406
20825      0.679376
20830      0.763468
20835      0.787906
20840      0.796695
20845      0.802232
20850      0.805668
20855      0.807662
20860      0.808819
20865      0.809034
20870      0.806831
20875      0.799835
20880      0.778439
20885      0.750312
20890      0.766905
20895      0.797484
20900      0.805845
20905      0.805901
20910      0.804497
20915      0.802549
20920      0.800059
20925      0.797076
20930      0.793729
20935      0.789768
20940      0.784914
20945      0.778924
20950      0.771339
20955      0.761329
20960      0.747227
20965      0.725277
20970      0.686447
20975      0.606202
20980      0.436827
20985      0.201148
20990      8.85E-02
20995      0.211871
21000      0.435939
21005      0.582434
21010      0.642722
21015      0.664111
21020      0.669581
21025       0.66727
21030      0.660307
21035      0.650011
21040      0.636895
21045      0.621077
21050        0.6029
21055      0.582393
21060      0.558956
21065      0.532293
21070      0.502142
21075      0.468142
21080      0.429873
21085      0.386871
21090      0.338641
21095      0.284572
21100      0.223115
21105      0.150854
21110      7.30E-02
21115      2.22E-02
21120      1.15E-02
21125      9.33E-03
21130      3.87E-03
21135      7.72E-04
21140      7.26E-05
21145      2.83E-06
21150      3.37E-08
21155             0
21160             0
21165             0
21170             0
21175      7.08E-09
21180      1.25E-06
21185      4.74E-05
21190      6.93E-04
21195      4.78E-03
21200      1.85E-02
21205      4.67E-02
21210      8.37E-02
21215      0.113842
21220      0.148987
21225      0.212877
21230      0.281268
21235       0.32606
21240      0.340039
21245      0.289298
21250      0.163782
21255      0.112063
21260      0.189978
21265      0.297281
21270      0.438345
21275      0.529577
21280      0.551417
21285      0.506408
21290      0.453504
21295      0.515396
21300      0.587046
21305       0.59677
21310      0.561235
21315      0.487921
21320       0.39529
21325      0.247191
21330      8.98E-02
21335      5.95E-02
21340      0.179578
21345      0.332177
21350      0.389122
21355      0.332921
21360      0.197348
21365      6.63E-02
21370      1.26E-02
21375      2.96E-02
21380      0.130326
21385      0.297152
21390      0.446402
21395      0.542255
21400      0.581559
21405      0.538899
21410      0.455568
21415      0.386734
21420      0.238013
21425      0.226437
21430      0.446738
21435      0.623317
21440      0.690215
21445      0.713829
21450      0.701927
21455      0.612633
21460      0.444914
21465      0.431499
21470      0.602512
21475      0.712702
21480      0.744572
21485      0.758971
21490      0.769266
21495      0.773776
21500      0.775498
21505      0.776068
21510      0.775713
21515      0.773303
21520      0.768218
21525      0.762885
21530      0.752566
21535      0.750414
21540      0.759085
21545      0.759972
21550      0.753715
21555      0.739368
21560      0.696243
21565      0.564443
21570      0.391218
21575      0.422038
21580      0.571094
21585      0.664825
21590         0.701
21595      0.711148
21600      0.713791
21605       0.71007
21610      0.702532
21615      0.692757
21620      0.680726
21625      0.665428
21630      0.645972
21635      0.620524
21640      0.584774
21645      0.532073
21650      0.450674
21655      0.326186
21660      0.170319
21665      5.06E-02
21670      9.31E-03
21675      2.65E-02
21680      0.111195
21685      0.245259
21690      0.359058
21695      0.422865
21700      0.429552
21705      0.367613
21710      0.345707
21715      0.416894
21720      0.453004
21725      0.447839
21730      0.431034
21735      0.409361
21740      0.382981
21745      0.350859
21750      0.318557
21755      0.290199
21760       0.25839
21765      0.222292
21770      0.184451
21775      0.146112
21780      0.107507
21785      6.83E-02
21790      3.56E-02
21795      1.95E-02
21800      1.10E-02
21805      4.44E-03
21810      1.15E-03
21815      1.72E-04
21820      1.25E-05
21825      3.51E-07
21830      2.24E-09
21835             0
21840             0
21845             0
21850             0
21855             0
21860             0
21865             0
21870             0
21875             0
21880             0
21885      2.77E-08
21890      3.02E-06
21895      8.76E-05
21900      9.84E-04
21905      5.33E-03
21910      1.77E-02
21915      4.20E-02
21920      7.60E-02
21925      0.114798
21930      0.154997
21935      0.193893
21940      0.227218
21945      0.240139
21950      0.213384
21955      0.212347
21960      0.291131
21965      0.355315
21970      0.358705
21975      0.296058
21980      0.272999
21985      0.367283
21990      0.445673
21995       0.47457
22000      0.485852
22005      0.490416
22010      0.489846
22015      0.483179
22020      0.464715
22025       0.41931
22030      0.363074
22035        0.3525
22040      0.346754
22045      0.303304
22050      0.233778
22055      0.153603
22060      8.04E-02
22065      2.89E-02
22070      5.89E-03
22075      5.66E-04
22080      2.71E-05
22085      1.97E-04
22090      2.81E-03
22095      1.80E-02
22100      6.17E-02
22105      0.134071
22110       0.21602
22115      0.287052
22120       0.33015
22125       0.31834
22130      0.219285
22135      9.22E-02
22140      9.46E-02
22145      0.257657
22150      0.437111
22155      0.542657
22160      0.596959
22165      0.628761
22170      0.649797
22175      0.664314
22180      0.673582
22185      0.676353
22190      0.664677
22195      0.604487
22200      0.447255
22205      0.338125
22210      0.465892
22215      0.623387
22220      0.680275
22225        0.6703
22230      0.605422
22235      0.551012
22240      0.554881
22245      0.578292
22250      0.657985
22255       0.71705
22260      0.733492
22265      0.737557
22270      0.737826
22275       0.73252
22280      0.725468
22285       0.72732
22290      0.729342
22295      0.726097
22300      0.720138
22305      0.711737
22310      0.699527
22315      0.683334
22320      0.668216
22325      0.650302
22330      0.619906
22335       0.56373
22340      0.442718
22345      0.259128
22350      0.141847
22355      0.142145
22360       0.12268
22365      5.24E-02
22370      1.01E-02
22375      1.60E-03
22380      9.29E-03
22385      4.06E-02
22390      7.72E-02
22395      6.60E-02
22400      2.49E-02
22405      1.83E-02
22410      8.43E-02
22415      0.226195
22420      0.375572
22425      0.476479
22430      0.531674
22435      0.562684
22440      0.584976
22445      0.598935
22450      0.604457
22455       0.60421
22460      0.599144
22465      0.589929
22470      0.578117
22475      0.560605
22480       0.53415
22485      0.506936
22490      0.482001
22495      0.446334
22500      0.397311
22505       0.33523
22510      0.258601
22515      0.170916
22520      8.70E-02
22525      2.89E-02
22530      5.16E-03
22535      4.13E-04
22540      1.76E-04
22545      2.33E-03
22550      1.40E-02
22555      4.23E-02
22560      7.76E-02
22565      1.02E-01
22570      0.105544
22575      9.02E-02
22580      6.34E-02
22585      3.94E-02
22590      2.07E-02
22595      7.59E-03
22600      1.73E-03
22605      2.15E-04
22610      1.25E-05
22615      2.69E-07
22620      8.25E-10
22625             0
22630             0
22635      7.14E-09
22640      1.15E-06
22645      4.19E-05
22650      6.02E-04
22655      4.21E-03
22660      1.69E-02
22665      4.41E-02
22670      8.51E-02
22675      0.135116
22680      0.188744
22685      0.241961
22690      0.292411
22695      0.338875
22700      0.381006
22705      0.418813
22710      0.452465
22715      0.482355
22720      0.508835
22725      0.532227
22730      0.552479
22735      0.569239
22740      0.584265
22745      0.599479
22750      0.611978
22755      0.615872
22760      0.585336
22765      0.509239
22770      0.520732
22775      0.612083
22780      0.655613
22785      0.667699
22790      0.673089
22795      0.676079
22800       0.67652
22805      0.670692
22810      0.647358
22815      0.611286
22820      0.606238
22825      0.621218
22830      0.598452
22835      0.561565
22840      0.588606
22845      0.627114
22850      0.632677
22855       0.62135
22860      0.601847
22865       0.57389
22870      0.534465
22875      0.484277
22880      0.424214
22885      0.344398
22890      0.242263
22895      0.132977
22900      4.85E-02
22905      9.66E-03
22910      8.76E-04
22915      3.34E-04
22920      4.59E-03
22925      2.95E-02
22930      9.67E-02
22935      0.197457
22940      0.299832
22945      0.383268
22950      0.443752
22955       0.48327
22960       0.50348
22965       0.50303
22970      0.480845
22975      0.429667
22980      0.326047
22985      0.183972
22990      6.87E-02
22995      1.43E-02
23000      9.58E-03
23005      5.79E-02
23010      0.183246
23015      0.338773
23020      0.460522
23025      0.538799
23030      0.587635
23035      0.618099
23040      0.630608
23045      0.617499
23050      0.618238
23055      0.652308
23060      0.670456
23065      0.674288
23070      0.674688
23075      0.673182
23080      0.669944
23085      0.665321
23090      0.659379
23095      0.651762
23100      0.642295
23105      0.630809
23110      0.616604
23115      0.598514
23120      0.577522
23125      0.554714
23130      0.526158
23135      0.492768
23140      0.454495
23145      0.406931
23150      0.348976
23155      0.280644
23160      0.202042
23165      0.116402
23170      4.73E-02
23175      1.52E-02
23180      3.62E-03
23185      4.20E-04
23190      1.92E-05
23195      4.27E-06
23200      1.39E-04
23205      1.91E-03
23210      1.23E-02
23215      4.34E-02
23220      9.96E-02
23225      0.171271
23230      0.244168
23235      0.306832
23240      0.357114
23245      0.405037
23250      0.443865
23255      0.474736
23260      0.511465
23265      0.538945
23270      0.554254
23275      0.570491
23280      0.587574
23285      0.598633
23290      0.604092
23295      0.604019
23300      0.593698
23305       0.55389
23310      0.434593
23315      0.242368
23320      0.199483
23325       0.37823
23330      0.535692
23335      0.596593
23340      0.616297
23345      0.623235
23350      0.625069
23355      0.624291
23360      0.621634
23365      0.617216
23370      0.611771
23375      0.605334
23380      0.597214
23385      0.587256
23390      0.575247
23395      0.560649
23400      0.542483
23405      0.518357
23410      0.479876
23415      0.409139
23420      0.331388
23425      0.310571
23430      0.291744
23435      0.226515
23440      0.136957
23445      5.68E-02
23450      1.33E-02
23455      1.47E-03
23460      6.68E-04
23465      6.23E-03
23470      2.78E-02
23475      6.43E-02
23480      9.17E-02
23485      9.07E-02
23490      6.37E-02
23495      2.95E-02
23500      7.74E-03
23505      9.74E-04
23510      4.98E-05
23515      1.36E-05
23520      4.84E-04
23525      6.22E-03
23530      3.24E-02
23535      8.56E-02
23540       0.14668
23545      0.197643
23550      0.233745
23555      0.256857
23560      0.269317
23565      0.272395
23570       0.26739
23575      0.255204
23580      0.236364
23585      0.210799
23590      0.177391
23595      0.133411
23600      7.78E-02
23605      3.02E-02
23610      1.35E-02
23615      9.50E-03
23620      3.80E-03
23625      6.83E-04
23630      5.24E-05
23635      1.50E-06
23640      1.56E-08
23645      9.32E-07
23650      3.35E-05
23655      4.63E-04
23660      2.97E-03
23665      1.06E-02
23670      2.44E-02
23675      4.20E-02
23680      5.93E-02
23685      7.13E-02
23690      7.33E-02
23695      7.06E-02
23700      7.68E-02
23705      8.18E-02
23710      7.87E-02
23715      7.13E-02
23720      6.22E-02
23725      5.21E-02
23730      4.18E-02
23735      3.18E-02
23740      2.29E-02
23745      1.51E-02
23750      8.69E-03
23755      4.61E-03
23760      2.17E-03
23765      7.20E-04
23770      1.37E-04
23775      1.19E-05
23780      3.80E-07
23785      2.57E-09
23790             0
23795             0
23800             0
23805             0
23810             0
23815             0
23820             0
23825             0
23830             0
23835             0
23840             0
23845             0
23850             0
23855             0
23860             0
23865             0
23870             0
23875             0
23880             0
23885             0
23890             0
23895             0
23900             0
23905             0
23910             0
23915             0
23920             0
23925             0
23930             0
23935             0
23940             0
23945      1.83E-08
23950      1.22E-06
23955      2.55E-05
23960      2.22E-04
23965      1.03E-03
23970      3.10E-03
23975      6.80E-03
23980      1.17E-02
23985      1.58E-02
23990      1.41E-02
23995      8.78E-03
24000      1.33E-02
24005      3.20E-02
24010      5.55E-02
24015      7.79E-02
24020      0.110772
24025      0.143073
24030      0.167528
24035      0.188376
24040      0.207733
24045      0.225904
24050      0.242286
24055      0.256622
24060      0.271447
24065      0.285891
24070      0.296014
24075      0.299125
24080      0.287495
24085      0.240536
24090      0.142241
24095      4.77E-02
24100      3.66E-02
24105      0.105213
24110      0.151634
24115      0.160743
24120      0.260882
24125      0.370614
24130      0.421824
24135      0.449275
24140       0.46764
24145      0.481238
24150      0.492448
24155      0.501926
24160      0.508525
24165      0.506374
24170      0.495318
24175      0.504335
24180      0.530696
24185      0.546975
24190      0.555697
24195      0.562438
24200      0.568482
24205      0.574077
24210      0.579231
24215      0.584136
24220      0.589081
24225      0.593844
24230      0.598231
24235      0.602235
24240      0.605565
24245      0.606797
24250      0.604483
24255      0.605552
24260      0.614304
24265      0.621532
24270      0.624076
24275      0.623812
24280      0.627111
24285      0.633475
24290      0.637738
24295      0.640603
24300      0.643124
24305      0.645431
24310      0.647543
24315      0.649431
24320      0.650941
24325      0.652618
24330      0.654769
24335      0.656704
24340      0.658317
24345      0.659785
24350      0.661163
24355      0.662435
24360       0.66361
24365       0.66469
24370      0.665669
24375      0.666535
24380      0.667257
24385      0.667782
24390      0.668012
24395      0.667709
24400      0.666261
24405      0.661343
24410      0.644365
24415      0.603626
24420      0.575825
24425      0.610281
24430      0.650637
24435        0.6657
24440      0.670172
24445       0.67189
24450      0.672771
24455      0.673314
24460      0.673588
24465      0.673684
24470      0.673659
24475      0.673512
24480      0.673235
24485      0.672828
24490      0.672348
24495      0.671888
24500      0.671332
24505      0.670628
24510      0.669733
24515      0.668482
24520      0.665694
24525       0.65767
24530      0.645202
24535      0.641958
24540      0.641312
24545      0.643096
24550      0.651849
24555      0.655276
24560      0.655187
24565      0.654976
24570      0.654058
24575      0.652295
24580      0.650076
24585      0.647489
24590      0.644506
24595      0.641085
24600      0.637093
24605      0.632324
24610      0.626634
24615      0.619571
24620       0.61025
24625       0.59779
24630      0.580119
24635      0.552603
24640      0.506029
24645      0.421692
24650      0.280101
24655      0.117902
24660      3.22E-02
24665      6.37E-02
24670      0.197896
24675      0.351778
24680      0.452788
24685      0.508188
24690      0.538927
24695      0.555426
24700      0.564146
24705      0.568308
24710      0.569507
24715      0.569718
24720      0.569526
24725      0.568079
24730      0.565479
24735       0.56169
24740      0.555142
24745       0.54522
24750        0.5404
24755      0.541524
24760      0.539616
24765      0.534613
24770      0.528895
24775      0.523351
24780      0.517291
24785      0.510628
24790      0.503574
24795      0.496167
24800      0.488378
24805      0.480172
24810      0.471538
24815      0.462463
24820      0.452927
24825      0.442916
24830      0.432393
24835       0.42133
24840      0.409677
24845      0.397401
24850      0.384461
24855       0.37082
24860      0.356416
24865       0.34119
24870      0.325099
24875      0.308082
24880      0.290092
24885      0.271041
24890      0.250862
24895      0.229419
24900      0.206352
24905      0.179789
24910      0.147057
24915      0.118161
24920      1.01E-01
24925      8.22E-02
24930      5.96E-02
24935      3.81E-02
24940      2.03E-02
24945      7.93E-03
24950      2.12E-03
24955      3.96E-04
24960      4.26E-05
24965      1.90E-06
24970      2.54E-08
24975             0
24980             0
24985             0
24990      7.30E-10
24995      1.10E-07
25000      3.16E-06
25005      2.92E-05
25010      1.04E-04
25015      1.78E-04
25020      1.64E-04
25025      7.97E-05
25030      1.70E-05
25035      1.30E-06
25040      3.01E-08
25045             0
25050             0
25055             0
25060             0
25065             0
25070             0
25075             0
25080             0
25085             0
25090             0
25095             0
25100             0
25105             0
25110             0
25115             0
25120             0
25125             0
25130             0
25135             0
25140             0
25145             0
25150             0
25155             0
25160             0
25165             0
25170             0
25175             0
25180             0
25185             0
25190             0
25195             0
25200             0
25205             0
25210             0
25215             0
25220             0
25225             0
25230             0
25235             0
25240             0
25245      5.55E-10
25250      9.87E-08
25255      3.12E-06
25260      3.36E-05
25265      1.57E-04
25270      4.32E-04
25275      9.56E-04
25280      1.93E-03
25285      3.26E-03
25290      4.60E-03
25295      5.63E-03
25300      6.09E-03
25305      5.76E-03
25310      4.43E-03
25315      2.33E-03
25320      7.28E-04
25325      3.36E-04
25330      2.46E-04
25335      8.61E-05
25340      1.18E-05
25345      5.71E-07
25350      7.72E-09
25355             0
25360             0
25365             0
25370             0
25375             0
25380      1.11E-08
25385      8.68E-07
25390      2.04E-05
25395      1.98E-04
25400      1.02E-03
25405      3.42E-03
25410      8.40E-03
25415      1.63E-02
25420      2.76E-02
25425      4.25E-02
25430      5.85E-02
25435      7.71E-02
25440      1.00E-01
25445      0.122864
25450      0.143988
25455      0.164341
25460      0.183762
25465      0.202348
25470       0.22029
25475      0.237356
25480      0.253818
25485      0.269279
25490      0.283302
25495      0.295883
25500      0.307057
25505      0.312666
25510      0.291774
25515      0.232397
25520      0.237131
25525       0.31483
25530      0.357018
25535      0.370769
25540      0.381508
25545      0.390429
25550      0.397872
25555      0.406074
25560      0.413084
25565      0.418422
25570      0.423133
25575      0.427622
25580      0.431249
25585      0.435181
25590      0.439041
25595       0.44203
25600      0.444119
25605       0.44507
25610      0.446063
25615      0.447474
25620      0.447065
25625      0.443188
25630      0.434283
25635      0.421957
25640      0.393171
25645      0.302229
25650      0.160295
25655      0.140304
25660      0.274042
25665      0.382787
25670      0.423421
25675      0.436381
25680      0.440907
25685      0.442048
25690      0.441384
25695        0.4399
25700      0.437706
25705      0.434568
25710      0.430231
25715      0.423606
25720      0.410845
25725      0.393659
25730      0.392194
25735      0.400298
25740      0.400194
25745         0.395
25750      0.388345
25755      0.380943
25760      0.372902
25765      0.364248
25770      0.354902
25775      0.344532
25780       0.33232
25785      0.319365
25790      0.308885
25795      0.298644
25800      0.286388
25805      0.272794
25810      0.258352
25815      0.243159
25820      0.227235
25825      0.210625
25830      0.193381
25835      0.175598
25840      0.157371
25845      0.138853
25850      0.120206
25855      1.02E-01
25860      8.36E-02
25865      6.62E-02
25870      5.02E-02
25875      3.62E-02
25880      2.46E-02
25885      1.53E-02
25890      8.40E-03
25895      3.94E-03
25900      1.50E-03
25905      4.28E-04
25910      8.00E-05
25915      7.62E-06
25920      2.78E-07
25925      2.53E-09
25930             0
25935             0
25940             0
25945             0
25950             0
25955             0
25960             0
25965             0
25970             0
25975             0
25980             0
25985             0
25990             0
25995             0
26000             0
26005             0
26010             0
26015             0
26020             0
26025             0
26030             0
26035             0
26040             0
26045             0
26050             0
26055             0
26060      4.27E-09
26065      8.31E-07
26070      3.02E-05
26075      3.94E-04
26080      2.26E-03
26085      7.34E-03
26090      1.68E-02
26095      2.92E-02
26100      4.18E-02
26105      5.80E-02
26110      8.00E-02
26115      1.01E-01
26120      0.117963
26125      0.123919
26130      0.118799
26135       0.12751
26140      0.154669
26145      0.172359
26150      0.193252
26155      0.222781
26160      0.244021
26165      0.257996
26170      0.268974
26175      0.277897
26180      0.284022
26185      0.282692
26190      0.258837
26195      0.215988
26200      0.223917
26205      0.277426
26210      0.309131
26215      0.319114
26220      0.321133
26225      0.318765
26230      0.309669
26235      0.286603
26240      0.233479
26245      0.142291
26250      5.90E-02
26255      3.13E-02
26260      4.17E-02
26265      5.55E-02
26270      0.113763
26275      0.211079
26280      0.279235
26285      0.310804
26290      0.324662
26295      0.330913
26300      0.333352
26305       0.33355
26310      0.332196
26315      0.329654
26320      0.326108
26325      0.321533
26330      0.315595
26335      0.308272
26340      0.301254
26345      0.294884
26350      0.287137
26355      0.277564
26360      0.266375
26365      0.253358
26370      0.238013
26375      0.219978
26380      0.198567
26385      0.172032
26390      0.138801
26395      9.85E-02
26400      5.52E-02
26405      2.07E-02
26410      4.21E-03
26415      4.10E-04
26420      5.93E-04
26425      4.91E-03
26430      1.92E-02
26435      4.21E-02
26440      6.37E-02
26445      7.74E-02
26450      8.33E-02
26455      8.34E-02
26460      7.97E-02
26465      7.35E-02
26470      6.57E-02
26475      5.71E-02
26480      4.82E-02
26485      3.94E-02
26490      3.11E-02
26495      2.35E-02
26500      1.68E-02
26505      1.13E-02
26510      6.88E-03
26515      3.66E-03
26520      1.66E-03
26525      6.45E-04
26530      1.94E-04
26535      4.39E-05
26540      5.92E-06
26545      3.02E-07
26550      4.32E-09
26555             0
26560             0
26565             0
26570             0
26575             0
26580             0
26585             0
26590             0
26595             0
26600             0
26605             0
26610             0
26615             0
26620             0
26625             0
26630             0
26635             0
26640             0
26645             0
26650             0
26655             0
26660             0
26665             0
26670             0
26675             0
26680             0
26685             0
26690             0
26695             0
26700             0
26705             0
26710             0
26715             0
26720             0
26725             0
26730             0
26735             0
26740             0
26745      8.89E-10
26750      1.27E-07
26755      3.78E-06
26760      3.93E-05
26765      1.86E-04
26770      5.33E-04
26775      1.12E-03
26780      2.14E-03
26785      4.08E-03
26790      6.88E-03
26795      1.02E-02
26800      1.40E-02
26805      1.84E-02
26810      2.27E-02
26815      2.60E-02
26820      2.57E-02
26825      1.83E-02
26830      8.69E-03
26835      1.14E-02
26840      2.66E-02
26845      3.70E-02
26850      3.05E-02
26855      2.60E-02
26860      4.41E-02
26865      6.43E-02
26870      7.40E-02
26875      7.76E-02
26880      7.84E-02
26885      7.72E-02
26890      7.29E-02
26895      6.14E-02
26900      4.04E-02
26905      2.84E-02
26910      3.89E-02
26915      4.93E-02
26920      4.93E-02
26925      4.44E-02
26930      3.76E-02
26935      3.02E-02
26940      2.39E-02
26945      1.86E-02
26950      1.34E-02
26955      8.85E-03
26960      5.29E-03
26965      2.78E-03
26970      1.24E-03
26975      4.41E-04
26980      1.11E-04
26985      1.54E-05
26990      8.72E-07
26995      1.52E-08
27000             0
27005             0
27010             0
27015             0
27020             0
27025             0
27030             0
27035             0
27040             0
27045             0
27050             0
27055             0
27060             0
27065             0
27070             0
27075      2.10E-08
27080      1.37E-06
27085      2.77E-05
27090      2.29E-04
27095      9.61E-04
27100      2.39E-03
27105      4.29E-03
27110      7.77E-03
27115      1.46E-02
27120      2.48E-02
27125      3.40E-02
27130      4.12E-02
27135      5.43E-02
27140      7.25E-02
27145      8.88E-02
27150      1.02E-01
27155      0.113718
27160      0.121426
27165      0.120724
27170      1.01E-01
27175      5.81E-02
27180      3.19E-02
27185      6.23E-02
27190      0.122149
27195      0.171862
27200      0.203465
27205      0.223203
27210      0.237408
27215      0.248951
27220      0.258916
27225      0.267878
27230      0.276074
27235      0.283547
27240      0.290325
27245      0.296241
27250       0.30039
27255      0.301853
27260      0.305058
27265      0.313515
27270      0.321473
27275      0.326901
27280      0.331184
27285      0.334963
27290       0.33839
27295      0.341519
27300      0.344383
27305      0.347013
27310      0.349411
27315      0.351579
27320      0.353506
27325      0.355167
27330      0.356661
27335      0.358028
27340      0.358966
27345      0.359242
27350       0.35955
27355      0.360787
27360      0.362034
27365      0.362682
27370      0.362959
27375       0.36301
27380      0.362858
27385      0.362503
27390      0.361933
27395      0.361105
27400      0.359913
27405       0.35806
27410       0.35449
27415      0.345387
27420      0.326847
27425      0.314646
27430      0.320946
27435       0.32153
27440      0.322647
27445      0.335039
27450      0.341795
27455      0.341974
27460      0.340145
27465       0.33758
27470      0.334586
27475      0.331255
27480      0.327499
27485      0.323146
27490      0.317806
27495      0.310949
27500      0.301721
27505       0.28993
27510       0.28249
27515      0.278902
27520      0.270897
27525      0.257406
27530      0.238313
27535      0.213235
27540      0.181991
27545      0.140091
27550      8.78E-02
27555      3.83E-02
27560      9.51E-03
27565      1.17E-03
27570      1.46E-03
27575      1.09E-02
27580      3.97E-02
27585      8.44E-02
27590      0.127461
27595      0.159417
27600      0.180393
27605      0.193273
27610      0.200579
27615      0.203784
27620      0.203481
27625      0.200779
27630       0.19686
27635      0.190122
27640      0.178516
27645      0.158899
27650      0.124986
27655      7.44E-02
27660      2.82E-02
27665      1.70E-02
27670      4.33E-02
27675      8.49E-02
27680      0.118177
27685      0.134736
27690      0.139976
27695      0.139763
27700      0.136975
27705       0.13306
27710      0.128341
27715       0.12291
27720      0.116978
27725      0.110633
27730      1.04E-01
27735      9.73E-02
27740      9.00E-02
27745      8.28E-02
27750      7.61E-02
27755      7.02E-02
27760      6.47E-02
27765      5.87E-02
27770      5.25E-02
27775      4.64E-02
27780      4.05E-02
27785      3.49E-02
27790      2.95E-02
27795      2.45E-02
27800      1.99E-02
27805      1.58E-02
27810      1.21E-02
27815      8.90E-03
27820      6.26E-03
27825      4.15E-03
27830      2.56E-03
27835      1.43E-03
27840      7.01E-04
27845      2.82E-04
27850      8.77E-05
27855      1.71E-05
27860      1.42E-06
27865      3.72E-08
27870      5.18E-11
27875             0
27880             0
27885             0
27890             0
27895             0
27900             0
27905             0
27910             0
27915             0
27920             0
27925             0
27930             0
27935             0
27940             0
27945             0
27950             0
27955             0
27960             0
27965             0
27970             0
27975             0
27980             0
27985             0
27990             0
27995             0
28000             0
