%!PS-Adobe-3.0
%%BoundingBox: 0 0 612 792
%%Title: GMT v4.0b Document from psxy
%%Creator: GMT
%%For: braup
%%DocumentNeededResources: font Helvetica
%%CreationDate: Wed Mar 22 12:43:03 2006
%%LanguageLevel: 1
%%DocumentData: Clean7Bit
%%Orientation: Landscape
%%Pages: 1
%%EndComments

%%BeginProlog

% Begin pslib header

250 dict begin
/A /setgray load def
/B /setdash load def
/C /setrgbcolor load def
/D /rlineto load def
/E {dup stringwidth pop} bind def
/F /fill load def
/G /rmoveto load def
/K /setcmykcolor load def
/L /lineto load def 
/M {stroke moveto} bind def
/m {moveto} bind def
/N /newpath load def
/P /closepath load def
/R /rotate load def
/S /stroke load def
/T /translate load def
/U /grestore load def
/V /gsave load def
/W /setlinewidth load def
/X {M dup 0 D dup -0.5 mul dup G 0 exch D S} bind def
/Y {findfont exch scalefont setfont} bind def
/Z /show load def
/a0 {0 0 M D D 0 D D D D D 0 D D P V A F U N} bind def
/a1 {0 0 M D D 0 D D D D D 0 D D P V A F U S} bind def
/a2 {0 0 M D D 0 D D D D D 0 D D P V C F U N} bind def
/a3 {0 0 M D D 0 D D D D D 0 D D P V C F U S} bind def
/a4 {0 0 M D D 0 D D D D D 0 D D P S} bind def
/a5 {0 0 M D D 0 D D D D D 0 D D P V K F U N} bind def
/a6 {0 0 M D D 0 D D D D D 0 D D P V K F U S} bind def
/A0 {0 exch M 0 D D D D D 0 D P V A F U N} bind def
/A1 {0 exch M 0 D D D D D 0 D P V A F U S} bind def
/A2 {0 exch M 0 D D D D D 0 D P V C F U N} bind def
/A3 {0 exch M 0 D D D D D 0 D P V C F U S} bind def
/A4 {0 exch M 0 D D D D D 0 D P S} bind def
/A5 {0 exch M 0 D D D D D 0 D P V K F U N} bind def
/A6 {0 exch M 0 D D D D D 0 D P V K F U S} bind def
/C0 {0 360 arc V A F U N} bind def
/C1 {0 360 arc V A F U S} bind def
/C2 {0 360 arc V C F U N} bind def
/C3 {0 360 arc V C F U S} bind def
/C4 {0 360 arc S} bind def
/C5 {0 360 arc V K F U N} bind def
/C6 {0 360 arc V K F U S} bind def
/D0 {M 5 {dup} repeat D neg exch D neg exch neg D P V A F U N} bind def
/D1 {M 5 {dup} repeat D neg exch D neg exch neg D P V A F U S} bind def
/D2 {M 5 {dup} repeat D neg exch D neg exch neg D P V C F U N} bind def
/D3 {M 5 {dup} repeat D neg exch D neg exch neg D P V C F U S} bind def
/D4 {M 5 {dup} repeat D neg exch D neg exch neg D P S} bind def
/D5 {M 5 {dup} repeat D neg exch D neg exch neg D P V K F U N} bind def
/D6 {M 5 {dup} repeat D neg exch D neg exch neg D P V K F U S} bind def
/R0 {M dup 0 D exch 0 exch D neg 0 D P V A F U N} bind def
/R1 {M dup 0 D exch 0 exch D neg 0 D P V A F U S} bind def
/R2 {M dup 0 D exch 0 exch D neg 0 D P V C F U N} bind def
/R3 {M dup 0 D exch 0 exch D neg 0 D P V C F U S} bind def
/R4 {M dup 0 D exch 0 exch D neg 0 D P S} bind def
/R5 {M dup 0 D exch 0 exch D neg 0 D P V K F U N} bind def
/R6 {M dup 0 D exch 0 exch D neg 0 D P V K F U S} bind def
/S0 {M dup dup 0 D 0 exch D neg 0 D P V A F U N} bind def
/S1 {M dup dup 0 D 0 exch D neg 0 D P V A F U S} bind def
/S2 {M dup dup 0 D 0 exch D neg 0 D P V C F U N} bind def
/S3 {M dup dup 0 D 0 exch D neg 0 D P V C F U S} bind def
/S4 {M dup dup 0 D 0 exch D neg 0 D P S} bind def
/S5 {M dup dup 0 D 0 exch D neg 0 D P V K F U N} bind def
/S6 {M dup dup 0 D 0 exch D neg 0 D P V K F U S} bind def
/T0 {M dup 0 D dup -0.5 mul exch 0.866025 mul D P V A F U N} bind def
/T1 {M dup 0 D dup -0.5 mul exch 0.866025 mul D P V A F U S} bind def
/T2 {M dup 0 D dup -0.5 mul exch 0.866025 mul D P V C F U N} bind def
/T3 {M dup 0 D dup -0.5 mul exch 0.866025 mul D P V C F U S} bind def
/T4 {M dup 0 D dup -0.5 mul exch 0.866025 mul D P S} bind def
/T5 {M dup 0 D dup -0.5 mul exch 0.866025 mul D P V K F U N} bind def
/T6 {M dup 0 D dup -0.5 mul exch 0.866025 mul D P V K F U S} bind def
/I0 {M dup 0 D dup -0.5 mul exch -0.866025 mul D P V A F U N} bind def
/I1 {M dup 0 D dup -0.5 mul exch -0.866025 mul D P V A F U S} bind def
/I2 {M dup 0 D dup -0.5 mul exch -0.866025 mul D P V C F U N} bind def
/I3 {M dup 0 D dup -0.5 mul exch -0.866025 mul D P V C F U S} bind def
/I4 {M dup 0 D dup -0.5 mul exch -0.866025 mul D P S} bind def
/I5 {M dup 0 D dup -0.5 mul exch -0.866025 mul D P V K F U N} bind def
/I6 {M dup 0 D dup -0.5 mul exch -0.866025 mul D P V K F U S} bind def
/E0 {V T dup 0 exch M 0.726542528 mul -72 R dup 0 D 4 {72 R dup 0 D -144 R dup 0 D} repeat pop P V A F U N U} bind def
/E1 {V T dup 0 exch M 0.726542528 mul -72 R dup 0 D 4 {72 R dup 0 D -144 R dup 0 D} repeat pop P V A F U S U} bind def
/E2 {V T dup 0 exch M 0.726542528 mul -72 R dup 0 D 4 {72 R dup 0 D -144 R dup 0 D} repeat pop P V C F U N U} bind def
/E3 {V T dup 0 exch M 0.726542528 mul -72 R dup 0 D 4 {72 R dup 0 D -144 R dup 0 D} repeat pop P V C F U S U} bind def
/E4 {V T dup 0 exch M 0.726542528 mul -72 R dup 0 D 4 {72 R dup 0 D -144 R dup 0 D} repeat pop P S U} bind def
/E5 {V T dup 0 exch M 0.726542528 mul -72 R dup 0 D 4 {72 R dup 0 D -144 R dup 0 D} repeat pop P V K F U N U} bind def
/E6 {V T dup 0 exch M 0.726542528 mul -72 R dup 0 D 4 {72 R dup 0 D -144 R dup 0 D} repeat pop P V K F U S U} bind def
/H0 {V T dup dup 0.5 mul exch 0.866025404 mul M 5 {-60 R dup 0 D} repeat pop P V A F U N U} bind def
/H1 {V T dup dup 0.5 mul exch 0.866025404 mul M 5 {-60 R dup 0 D} repeat pop P V A F U S U} bind def
/H2 {V T dup dup 0.5 mul exch 0.866025404 mul M 5 {-60 R dup 0 D} repeat pop P V C F U N U} bind def
/H3 {V T dup dup 0.5 mul exch 0.866025404 mul M 5 {-60 R dup 0 D} repeat pop P V C F U S U} bind def
/H4 {V T dup dup 0.5 mul exch 0.866025404 mul M 5 {-60 R dup 0 D} repeat pop P S U} bind def
/H5 {V T dup dup 0.5 mul exch 0.866025404 mul M 5 {-60 R dup 0 D} repeat pop P V K F U N U} bind def
/H6 {V T dup dup 0.5 mul exch 0.866025404 mul M 5 {-60 R dup 0 D} repeat pop P V K F U S U} bind def
/N0 {V T dup 1.175570504 mul exch dup 0.587785252 mul exch -0.809016994 mul M 4 {72 R dup 0 D} repeat pop P V A F U N U} bind def
/N1 {V T dup 1.175570504 mul exch dup 0.587785252 mul exch -0.809016994 mul M 4 {72 R dup 0 D} repeat pop P V A F U S U} bind def
/N2 {V T dup 1.175570504 mul exch dup 0.587785252 mul exch -0.809016994 mul M 4 {72 R dup 0 D} repeat pop P V C F U N U} bind def
/N3 {V T dup 1.175570504 mul exch dup 0.587785252 mul exch -0.809016994 mul M 4 {72 R dup 0 D} repeat pop P V C F U S U} bind def
/N4 {V T dup 1.175570504 mul exch dup 0.587785252 mul exch -0.809016994 mul M 4 {72 R dup 0 D} repeat pop P S U} bind def
/N5 {V T dup 1.175570504 mul exch dup 0.587785252 mul exch -0.809016994 mul M 4 {72 R dup 0 D} repeat pop P V K F U N U} bind def
/H6 {V T dup 1.175570504 mul exch dup 0.587785252 mul exch -0.809016994 mul M 4 {72 R dup 0 D} repeat pop P V K F U S U} bind def
/O0 {V T dup dup 0.414213562 mul exch M 0.828427125 mul 7 {-45 R dup 0 D} repeat pop P V A F U N U} bind def
/O1 {V T dup dup 0.414213562 mul exch M 0.828427125 mul 7 {-45 R dup 0 D} repeat pop P V A F U S U} bind def
/O2 {V T dup dup 0.414213562 mul exch M 0.828427125 mul 7 {-45 R dup 0 D} repeat pop P V C F U N U} bind def
/O3 {V T dup dup 0.414213562 mul exch M 0.828427125 mul 7 {-45 R dup 0 D} repeat pop P V C F U S U} bind def
/O4 {V T dup dup 0.414213562 mul exch M 0.828427125 mul 7 {-45 R dup 0 D} repeat pop P S U} bind def
/O5 {V T dup dup 0.414213562 mul exch M 0.828427125 mul 7 {-45 R dup 0 D} repeat pop P V K F U N U} bind def
/O6 {V T dup dup 0.414213562 mul exch M 0.828427125 mul 7 {-45 R dup 0 D} repeat pop P V K F U S U} bind def
/P0 {arc P V A F U N} bind def
/P1 {arc P V A F U S} bind def
/P2 {arc P V C F U N} bind def
/P3 {arc P V C F U S} bind def
/P4 {arc P S} bind def
/P5 {arc P V K F U N} bind def
/P6 {arc P V K F U S} bind def
/a {P V A F U N} def
/b {P V A F U S} def
/c {P V C F U N} def
/d {P V C F U S} def
/k {P V K F U N} def
/l {P V K F U S} def
/p {P S} def
/q {M {D} repeat P V A F U N} def
/r {M {D} repeat P V A F U S} def
/s {M {D} repeat P V C F U N} def
/t {M {D} repeat P V C F U S} def
/u {M {D} repeat P V K F U N} def
/v {M {D} repeat P V K F U S} def
/w {M {D} repeat P S} def
/PSL_get_stringwidth {0 0 M true charpath flattenpath pathbbox N pop exch pop sub abs} def
/PSL_get_stringheight {0 0 M true charpath flattenpath pathbbox N exch pop sub abs exch pop} def

%%EndProlog
/ISOLatin1+_Encoding [
/.notdef	/.notdef	/.notdef	/.notdef	/.notdef	/.notdef	/.notdef	/.notdef
/.notdef	/.notdef	/.notdef	/.notdef	/.notdef	/.notdef	/.notdef	/.notdef
/.notdef	/.notdef	/.notdef	/.notdef	/.notdef	/.notdef	/.notdef	/.notdef
/.notdef	/bullet		/ellipsis	/trademark	/emdash		/endash		/fi		/zcaron
/space		/exclam		/quotedbl	/numbersign	/dollar		/percent	/ampersand	/quoteright
/parenleft	/parenright	/asterisk	/plus		/comma		/minus		/period		/slash
/zero		/one		/two		/three		/four		/five		/six		/seven
/eight		/nine		/colon		/semicolon	/less		/equal		/greater	/question
/at		/A		/B		/C		/D		/E		/F		/G
/H		/I		/J		/K		/L		/M		/N		/O
/P		/Q		/R		/S		/T		/U		/V		/W
/X		/Y		/Z		/bracketleft	/backslash	/bracketright	/asciicircum	/underscore
/quoteleft	/a		/b		/c 		/d		/e		/f		/g
/h		/i		/j		/k		/l		/m		/n		/o
/p		/q		/r		/s		/t		/u		/v		/w
/x		/y		/z		/braceleft	/bar		/braceright	/asciitilde	/scaron
/OE		/dagger		/daggerdbl	/Lslash		/fraction	/guilsinglleft	/Scaron		/guilsinglright
/oe		/Ydieresis	/Zcaron		/lslash		/perthousand	/quotedblbase	/quotedblleft	/quotedblright
/dotlessi	/grave		/acute		/circumflex	/tilde		/macron		/breve		/dotaccent
/dieresis	/quotesinglbase	/ring		/cedilla	/quotesingle	/hungarumlaut	/ogonek		/caron
/space		/exclamdown	/cent		/sterling	/currency	/yen		/brokenbar	/section
/dieresis	/copyright	/ordfeminine	/guillemotleft	/logicalnot	/hyphen		/registered	/macron
/degree		/plusminus	/twosuperior	/threesuperior	/acute		/mu		/paragraph	/periodcentered
/cedilla	/onesuperior	/ordmasculine	/guillemotright	/onequarter	/onehalf	/threequarters	/questiondown
/Agrave		/Aacute		/Acircumflex	/Atilde		/Adieresis	/Aring		/AE		/Ccedilla
/Egrave		/Eacute		/Ecircumflex	/Edieresis	/Igrave		/Iacute		/Icircumflex	/Idieresis
/Eth		/Ntilde		/Ograve		/Oacute		/Ocircumflex	/Otilde		/Odieresis	/multiply
/Oslash		/Ugrave		/Uacute		/Ucircumflex	/Udieresis	/Yacute		/Thorn		/germandbls
/agrave		/aacute		/acircumflex	/atilde		/adieresis	/aring		/ae		/ccedilla
/egrave		/eacute		/ecircumflex	/edieresis	/igrave		/iacute		/icircumflex	/idieresis
/eth		/ntilde		/ograve		/oacute		/ocircumflex	/otilde		/odieresis	/divide
/oslash		/ugrave		/uacute		/ucircumflex	/udieresis	/yacute		/thorn		/ydieresis
] def
/PSL_reencode {	% To reencode one font with the provided encoding vector
	findfont dup length dict begin
	{1 index /FID ne {def} {pop pop} ifelse} forall
	exch /Encoding exch def currentdict end definefont pop
} bind def
/PSL_font_encode 0 0 0 0 0 0 0 0 0 0 0 0 0 0 0 0 0 0 0 0 0 0 0 0 0 0 0 0 0 0 0 0 0 0 0 35 array astore def	% Initially zero
/F0 {/Helvetica Y} bind def
/F1 {/Helvetica-Bold Y} bind def
/F2 {/Helvetica-Oblique Y} bind def
/F3 {/Helvetica-BoldOblique Y} bind def
/F4 {/Times-Roman Y} bind def
/F5 {/Times-Bold Y} bind def
/F6 {/Times-Italic Y} bind def
/F7 {/Times-BoldItalic Y} bind def
/F8 {/Courier Y} bind def
/F9 {/Courier-Bold Y} bind def
/F10 {/Courier-Oblique Y} bind def
/F11 {/Courier-BoldOblique Y} bind def
/F12 {/Symbol Y} bind def
/F13 {/AvantGarde-Book Y} bind def
/F14 {/AvantGarde-BookOblique Y} bind def
/F15 {/AvantGarde-Demi Y} bind def
/F16 {/AvantGarde-DemiOblique Y} bind def
/F17 {/Bookman-Demi Y} bind def
/F18 {/Bookman-DemiItalic Y} bind def
/F19 {/Bookman-Light Y} bind def
/F20 {/Bookman-LightItalic Y} bind def
/F21 {/Helvetica-Narrow Y} bind def
/F22 {/Helvetica-Narrow-Bold Y} bind def
/F23 {/Helvetica-Narrow-Oblique Y} bind def
/F24 {/Helvetica-Narrow-BoldOblique Y} bind def
/F25 {/NewCenturySchlbk-Roman Y} bind def
/F26 {/NewCenturySchlbk-Italic Y} bind def
/F27 {/NewCenturySchlbk-Bold Y} bind def
/F28 {/NewCenturySchlbk-BoldItalic Y} bind def
/F29 {/Palatino-Roman Y} bind def
/F30 {/Palatino-Italic Y} bind def
/F31 {/Palatino-Bold Y} bind def
/F32 {/Palatino-BoldItalic Y} bind def
/F33 {/ZapfChancery-MediumItalic Y} bind def
/F34 {/ZapfDingbats Y} bind def
/#copies 1 def

%%EndProlog

%%BeginSetup

/PSLevel /languagelevel where {pop languagelevel} {1} ifelse def
PSLevel 1 gt { << /PageSize [612 792] /ImagingBBox null >> setpagedevice } if

% Init coordinate system and scales
% Scale is originally set to 0.24, which means that
% 1 inch on the paper equals 300 Postscript units
612 0 T 90 R
0.24 0.24 scale
% End of pslib header
%%EndSetup

%%Page: 1 1

PSL_font_encode 0 get 0 eq { % Set this font
	ISOLatin1+_Encoding /Helvetica /Helvetica PSL_reencode
	PSL_font_encode 0 1 put
} if
295.276 295.276 T
%
% PostScript produced by:
%
%%GMT:  psxy -JX20c/15c -R500/13000/0/1 -M -W0.5p/255/0/0 -B1000/0.2 -V 

S 2 W
S [] 0 B
S 1 0 0 C
76 1681 M
0 -12 D
0 10 D
0 -12 D
0 82 D
0 -4 D
1 2 D
0 -88 D
0 42 D
0 -8 D
1 -8 D
0 32 D
0 -16 D
0 4 D
0 -53 D
0 66 D
0 -8 D
1 -57 D
0 67 D
0 -39 D
0 71 D
1 -3 D
0 -14 D
0 13 D
0 -15 D
0 8 D
1 2 D
0 6 D
0 -205 D
1 -62 D
0 -92 D
0 13 D
0 -181 D
0 118 D
0 -56 D
0 83 D
1 -30 D
0 -6 D
0 297 D
0 -66 D
1 4 D
0 -174 D
0 51 D
0 -116 D
0 174 D
0 -96 D
0 120 D
1 13 D
0 -64 D
0 98 D
0 -215 D
0 236 D
0 -125 D
1 -25 D
0 141 D
0 -79 D
0 29 D
0 -18 D
0 87 D
1 1 D
0 -92 D
0 143 D
0 -59 D
0 46 D
1 20 D
0 -57 D
0 84 D
0 -47 D
0 77 D
1 -2 D
0 28 D
0 -19 D
0 13 D
0 -31 D
1 -18 D
0 4 D
0 -7 D
0 55 D
0 -22 D
1 4 D
0 -5 D
0 38 D
0 -11 D
0 16 D
1 -3 D
0 -2 D
0 12 D
0 -4 D
0 6 D
1 -2 D
0 -1 D
0 3 D
0 -2 D
0 2 D
2 0 D
0 -3 D
0 3 D
0 -1 D
0 1 D
1 0 D
0 -2 D
0 2 D
1 0 D
0 -1 D
0 1 D
1 0 D
0 -1 D
0 1 D
1 0 D
0 -1 D
0 1 D
1 0 D
0 1 D
0 -1 D
1 1 D
0 -1 D
1 0 D
0 1 D
2 0 D
0 -1 D
1 0 D
0 1 D
1 0 D
0 -1 D
1 0 D
0 -1 D
0 1 D
0 -2 D
0 1 D
1 0 D
0 1 D
0 -2 D
0 2 D
0 -1 D
1 -3 D
0 4 D
0 -7 D
0 7 D
1 -2 D
0 -6 D
0 7 D
0 -10 D
0 6 D
1 1 D
0 -18 D
0 19 D
0 -12 D
1 -4 D
0 17 D
0 -31 D
0 24 D
0 -13 D
1 -1 D
0 -7 D
0 21 D
0 -20 D
0 3 D
0 -22 D
0 9 D
1 -1 D
0 1 D
0 -16 D
0 12 D
0 -20 D
0 17 D
0 -5 D
1 -22 D
0 -4 D
0 34 D
0 -52 D
0 41 D
0 -87 D
1 10 D
0 41 D
0 -172 D
0 104 D
0 -214 D
1 -183 D
0 260 D
0 -200 D
0 169 D
0 -119 D
1 -217 D
0 -83 D
0 425 D
0 -432 D
0 385 D
1 -125 D
0 -24 D
0 62 D
0 -92 D
0 392 D
0 -47 D
1 -77 D
0 -739 D
0 854 D
0 -57 D
1 -47 D
0 -22 D
0 127 D
0 -175 D
0 146 D
1 48 D
0 -335 D
0 75 D
0 -162 D
0 306 D
1 30 D
0 -189 D
0 158 D
0 -153 D
0 174 D
1 -67 D
0 104 D
0 -31 D
0 101 D
0 -49 D
0 31 D
1 -15 D
0 21 D
0 -19 D
0 74 D
0 -8 D
0 49 D
0 -6 D
1 9 D
0 -51 D
0 50 D
0 -1 D
0 9 D
1 4 D
0 1 D
0 -9 D
0 12 D
0 -78 D
0 36 D
1 29 D
0 -1 D
0 34 D
0 -79 D
0 57 D
0 -21 D
1 10 D
0 22 D
0 -126 D
0 124 D
0 -62 D
0 9 D
1 39 D
0 17 D
0 -87 D
0 81 D
0 -8 D
1 1 D
0 18 D
0 -29 D
0 24 D
0 -14 D
1 4 D
0 8 D
0 -15 D
0 4 D
0 -34 D
0 38 D
0 -8 D
1 -10 D
0 22 D
0 -87 D
0 93 D
1 -11 D
0 -12 D
0 4 D
0 -3 D
0 23 D
0 -25 D
1 8 D
0 21 D
0 -17 D
0 20 D
0 -5 D
1 5 D
0 -18 D
0 16 D
0 -12 D
1 3 D
0 14 D
0 -9 D
0 5 D
1 7 D
0 2 D
0 -4 D
0 6 D
0 -2 D
1 -2 D
0 5 D
0 -1 D
0 1 D
0 -1 D
0 1 D
1 0 D
0 1 D
0 -1 D
0 1 D
1 0 D
0 -2 D
1 0 D
0 -4 D
0 2 D
0 -6 D
0 5 D
0 -9 D
1 1 D
0 6 D
0 -12 D
0 11 D
0 -18 D
0 12 D
0 -23 D
1 4 D
0 3 D
0 -41 D
0 7 D
0 -46 D
0 4 D
0 -35 D
1 18 D
0 -21 D
0 47 D
0 -332 D
0 169 D
1 136 D
0 61 D
0 -6 D
0 11 D
0 -7 D
0 10 D
1 14 D
0 -7 D
0 22 D
0 -5 D
0 16 D
0 -4 D
1 7 D
0 7 D
0 -7 D
0 9 D
0 -6 D
0 7 D
1 -1 D
0 -2 D
0 2 D
0 -7 D
0 7 D
0 -2 D
1 -6 D
0 -1 D
0 8 D
0 -9 D
0 1 D
1 1 D
0 -10 D
0 15 D
0 -25 D
0 17 D
1 4 D
0 -56 D
0 50 D
0 -41 D
1 -1 D
0 19 D
0 -12 D
0 23 D
0 -60 D
0 70 D
0 -20 D
1 -22 D
0 -56 D
0 70 D
0 -35 D
0 30 D
1 -5 D
0 -89 D
0 57 D
0 -9 D
0 18 D
0 -16 D
1 -36 D
0 70 D
0 -29 D
0 16 D
0 -74 D
1 -66 D
0 -1 D
0 81 D
0 -167 D
0 105 D
1 -32 D
0 -21 D
0 105 D
0 -93 D
0 54 D
0 -96 D
0 111 D
1 -3 D
0 -135 D
0 161 D
0 -318 D
1 -52 D
0 190 D
0 -95 D
0 10 D
0 -491 D
0 244 D
1 137 D
0 -432 D
0 114 D
0 -585 D
1 -58 D
0 357 D
0 -303 D
0 24 D
0 -92 D
1 38 D
0 -288 D
0 501 D
0 -440 D
1 152 D
0 358 D
0 -515 D
0 269 D
0 -88 D
1 -53 D
0 -42 D
0 515 D
0 -113 D
0 232 D
1 -135 D
0 -101 D
0 353 D
0 -430 D
0 232 D
0 -539 D
0 11 D
1 185 D
0 -271 D
0 283 D
0 -110 D
0 132 D
1 174 D
0 198 D
0 -480 D
0 644 D
0 -112 D
0 19 D
0 -60 D
1 -376 D
0 -186 D
0 534 D
0 -668 D
0 125 D
1 280 D
0 544 D
0 -930 D
0 620 D
1 328 D
0 -814 D
0 696 D
0 -577 D
0 97 D
1 383 D
0 -539 D
0 605 D
0 -43 D
0 61 D
1 252 D
0 -806 D
0 913 D
0 -278 D
0 12 D
1 -129 D
0 -387 D
0 806 D
0 -378 D
1 -177 D
0 432 D
0 -207 D
0 346 D
0 -441 D
0 11 D
1 172 D
0 323 D
0 -738 D
0 529 D
1 -159 D
0 -81 D
0 271 D
0 -462 D
0 466 D
1 -183 D
0 240 D
0 -188 D
0 121 D
0 -102 D
0 277 D
0 -46 D
1 -153 D
0 -415 D
0 741 D
0 -107 D
1 -344 D
0 -328 D
0 867 D
0 -295 D
1 -59 D
0 325 D
0 -107 D
0 183 D
0 -242 D
1 -79 D
0 238 D
0 -304 D
0 327 D
0 -360 D
1 41 D
0 -86 D
0 375 D
0 -579 D
1 244 D
0 -88 D
0 515 D
0 -294 D
1 70 D
0 -141 D
0 227 D
0 -279 D
0 173 D
0 -34 D
1 -68 D
0 326 D
0 -165 D
0 94 D
0 -157 D
1 2 D
0 230 D
0 -53 D
0 123 D
0 -172 D
0 59 D
1 52 D
0 51 D
0 -85 D
0 71 D
1 20 D
0 -34 D
0 81 D
0 -44 D
1 -21 D
0 -74 D
0 149 D
0 -43 D
1 -55 D
0 88 D
0 -1 D
0 6 D
0 -20 D
1 -4 D
0 -2 D
0 29 D
0 -22 D
0 12 D
1 -6 D
0 22 D
0 -3 D
0 6 D
0 -2 D
1 -1 D
0 -8 D
0 8 D
0 -1 D
1 0 D
0 -1 D
0 1 D
0 -4 D
0 3 D
0 -10 D
1 -2 D
0 15 D
0 -8 D
1 0 D
0 10 D
1 1 D
0 2 D
0 -1 D
1 0 D
0 -1 D
0 2 D
0 -1 D
0 1 D
1 -1 D
0 1 D
0 -1 D
1 0 D
0 -1 D
0 1 D
1 0 D
0 -115 D
1 -8 D
0 -1 D
0 96 D
0 -37 D
1 -14 D
0 -8 D
0 54 D
1 6 D
0 25 D
1 1 D
0 1 D
1 0 D
0 -1 D
0 1 D
0 -7 D
1 -7 D
0 -108 D
0 2 D
1 8 D
0 85 D
0 -61 D
1 2 D
0 62 D
1 6 D
0 15 D
1 1 D
0 1 D
0 -1 D
0 1 D
0 -1 D
1 1 D
0 -2 D
0 1 D
0 -2 D
0 2 D
1 -2 D
0 -4 D
0 5 D
0 -8 D
0 7 D
0 -7 D
1 -5 D
0 11 D
0 -18 D
0 14 D
0 -24 D
1 -7 D
0 24 D
0 -38 D
0 41 D
0 -43 D
1 21 D
0 26 D
0 -39 D
0 30 D
0 -20 D
1 -18 D
0 49 D
0 -30 D
0 30 D
0 -7 D
1 -8 D
0 20 D
0 -9 D
0 10 D
0 -4 D
1 -5 D
0 -1 D
0 9 D
0 -133 D
0 52 D
1 41 D
0 39 D
0 -5 D
0 5 D
1 2 D
0 -19 D
0 19 D
0 -10 D
1 -15 D
0 25 D
0 -17 D
0 17 D
1 -1 D
0 -31 D
0 32 D
0 -19 D
1 13 D
0 5 D
0 -23 D
0 22 D
1 -5 D
0 -8 D
0 14 D
0 -26 D
0 24 D
1 0 D
0 -15 D
0 10 D
0 -7 D
0 1 D
1 4 D
0 1 D
0 -38 D
0 8 D
1 23 D
0 5 D
0 -3 D
0 10 D
0 -32 D
1 -4 D
0 27 D
0 -10 D
0 22 D
0 -1 D
1 -4 D
0 -61 D
0 50 D
0 -36 D
0 17 D
1 17 D
0 -3 D
0 9 D
0 -19 D
0 26 D
1 -5 D
0 -94 D
0 100 D
0 -40 D
1 -20 D
0 -1 D
0 58 D
0 -37 D
0 8 D
1 -48 D
0 -19 D
0 101 D
0 -71 D
0 65 D
0 -27 D
1 -107 D
0 -73 D
0 212 D
0 -51 D
1 -59 D
0 111 D
0 -109 D
0 74 D
0 -41 D
1 -63 D
0 141 D
0 -81 D
0 40 D
1 -48 D
0 -13 D
0 91 D
0 -389 D
0 367 D
1 18 D
0 -103 D
0 104 D
0 -5 D
1 -7 D
0 -158 D
0 103 D
0 -121 D
0 159 D
1 -70 D
0 -181 D
0 252 D
0 -253 D
0 261 D
1 -37 D
0 -390 D
0 263 D
0 -32 D
0 161 D
0 -14 D
1 -14 D
0 47 D
0 -268 D
0 73 D
0 -213 D
1 28 D
0 181 D
0 -130 D
0 111 D
0 -12 D
0 146 D
1 -253 D
0 -546 D
0 469 D
1 167 D
0 44 D
0 -787 D
0 658 D
0 -101 D
0 69 D
1 -94 D
0 -573 D
0 217 D
0 -218 D
0 667 D
1 -401 D
0 -363 D
0 613 D
0 -409 D
0 144 D
0 -436 D
1 -296 D
0 179 D
0 -65 D
0 1172 D
0 -634 D
1 -384 D
0 -161 D
0 535 D
0 -544 D
0 187 D
0 -123 D
1 -55 D
0 292 D
0 -147 D
0 272 D
0 -642 D
1 9 D
0 58 D
0 -68 D
0 348 D
0 -346 D
0 149 D
1 -113 D
0 -88 D
0 1022 D
0 -875 D
1 -153 D
0 -22 D
0 367 D
0 -141 D
0 674 D
1 -355 D
0 -505 D
0 568 D
0 -538 D
1 168 D
0 439 D
0 -658 D
0 968 D
0 -142 D
1 -206 D
0 20 D
0 -412 D
0 799 D
0 -926 D
1 -78 D
0 138 D
0 -174 D
0 137 D
0 -100 D
1 -38 D
0 143 D
0 -27 D
0 47 D
0 -90 D
0 345 D
1 258 D
0 230 D
0 -613 D
0 736 D
0 -456 D
1 -354 D
0 547 D
0 -200 D
0 713 D
0 -202 D
1 -435 D
0 -434 D
0 305 D
0 -266 D
0 94 D
0 -18 D
0 78 D
1 317 D
0 438 D
0 -1142 D
1 -6 D
0 619 D
0 -491 D
0 411 D
0 -142 D
1 -272 D
0 -108 D
0 891 D
0 -212 D
0 139 D
0 -78 D
1 -270 D
0 -292 D
0 172 D
0 -299 D
0 659 D
1 -277 D
0 -229 D
0 1097 D
0 -1294 D
1 101 D
0 1101 D
0 -861 D
0 915 D
0 -117 D
1 -314 D
0 -415 D
0 198 D
0 -117 D
0 530 D
0 -605 D
1 139 D
0 497 D
0 -334 D
0 604 D
0 -519 D
1 109 D
0 65 D
0 -157 D
0 15 D
0 -338 D
0 545 D
0 -239 D
1 330 D
0 303 D
0 -611 D
0 407 D
0 -88 D
1 -76 D
0 -45 D
0 107 D
0 -15 D
0 115 D
0 -197 D
1 -146 D
0 -71 D
0 18 D
0 -22 D
0 12 D
0 -105 D
0 40 D
1 -13 D
0 33 D
0 -34 D
0 451 D
0 -66 D
0 59 D
0 -265 D
1 -20 D
0 298 D
0 -23 D
1 57 D
0 132 D
0 -145 D
0 249 D
0 -14 D
1 -95 D
0 178 D
0 -5 D
0 98 D
0 -14 D
0 22 D
0 -31 D
1 -185 D
0 -157 D
0 424 D
0 -66 D
0 75 D
1 -17 D
0 -53 D
0 38 D
0 -256 D
0 284 D
0 -74 D
1 -133 D
0 -6 D
0 218 D
0 -115 D
1 33 D
0 -682 D
1 -83 D
0 -321 D
0 18 D
0 -29 D
1 -10 D
0 605 D
0 -334 D
1 -34 D
0 -18 D
0 115 D
S 286 894 M
1 3 D
0 326 D
1 42 D
0 337 D
1 21 D
0 -14 D
0 86 D
0 -4 D
0 15 D
1 3 D
0 -25 D
0 25 D
0 -1 D
1 -2 D
0 -62 D
0 19 D
1 -1 D
0 -2 D
0 31 D
0 -98 D
1 -42 D
0 -316 D
1 -25 D
0 -41 D
0 17 D
0 -12 D
0 102 D
1 45 D
0 254 D
0 -272 D
1 -5 D
0 -3 D
0 90 D
1 14 D
0 154 D
1 13 D
0 68 D
0 -3 D
0 89 D
1 1 D
0 2 D
0 -52 D
1 -3 D
0 51 D
0 -5 D
1 7 D
0 13 D
0 -16 D
0 29 D
1 3 D
0 3 D
0 -33 D
0 26 D
0 -2 D
1 -3 D
0 -23 D
0 41 D
0 -4 D
0 2 D
1 -2 D
0 -14 D
0 7 D
1 -9 D
0 -4 D
0 27 D
0 -6 D
0 1 D
1 2 D
0 -37 D
0 26 D
0 -1 D
0 14 D
1 2 D
0 2 D
0 -25 D
0 27 D
0 -9 D
1 -26 D
0 -1 D
0 39 D
1 0 D
0 -10 D
0 10 D
1 0 D
0 -1 D
0 1 D
0 -3 D
1 1 D
0 1 D
0 -6 D
1 -1 D
0 -33 D
0 21 D
1 3 D
0 -1 D
0 13 D
0 -6 D
1 -9 D
0 5 D
0 -17 D
0 20 D
0 -60 D
0 34 D
1 29 D
0 3 D
0 -24 D
0 11 D
0 -21 D
0 29 D
1 4 D
0 5 D
0 -36 D
0 24 D
0 -12 D
1 8 D
0 6 D
0 -9 D
0 16 D
0 -41 D
0 36 D
1 8 D
0 2 D
0 -69 D
0 16 D
0 -17 D
1 40 D
0 26 D
0 -21 D
0 17 D
0 -13 D
1 10 D
0 11 D
0 -46 D
0 25 D
1 14 D
0 -3 D
0 1 D
0 -63 D
0 2 D
0 -98 D
0 85 D
1 30 D
0 -13 D
0 37 D
0 -43 D
0 58 D
1 -1 D
0 14 D
0 -16 D
0 3 D
1 11 D
0 3 D
0 -63 D
0 30 D
1 24 D
0 2 D
0 -1 D
0 4 D
0 -58 D
0 17 D
1 28 D
0 9 D
0 -47 D
0 17 D
1 19 D
0 11 D
0 -60 D
0 29 D
1 3 D
0 16 D
0 -27 D
0 5 D
0 -8 D
0 2 D
1 23 D
0 11 D
0 -33 D
0 22 D
0 -20 D
1 -21 D
0 48 D
0 -79 D
0 83 D
1 -9 D
0 -29 D
0 23 D
0 -65 D
1 24 D
0 21 D
0 -59 D
0 73 D
1 -1 D
0 -113 D
0 95 D
0 -50 D
1 6 D
0 80 D
0 -158 D
0 112 D
0 -9 D
1 -18 D
0 39 D
0 -60 D
0 78 D
0 -93 D
1 -97 D
0 209 D
0 -100 D
1 -7 D
0 65 D
0 -153 D
0 117 D
0 -10 D
1 52 D
0 12 D
0 -5 D
0 4 D
0 -167 D
0 145 D
1 6 D
0 -53 D
0 38 D
0 -85 D
0 62 D
1 48 D
0 2 D
0 -146 D
0 46 D
0 -42 D
0 111 D
1 -3 D
0 -105 D
0 85 D
0 -16 D
1 -38 D
0 93 D
0 -4 D
0 55 D
0 -34 D
1 9 D
0 30 D
0 -454 D
0 37 D
1 81 D
0 238 D
0 -29 D
0 6 D
1 16 D
0 66 D
0 -61 D
0 77 D
0 -47 D
1 -76 D
0 111 D
0 -90 D
0 68 D
0 -3 D
1 -30 D
0 -16 D
0 16 D
0 -10 D
0 51 D
0 -108 D
1 16 D
0 -120 D
0 159 D
0 -22 D
0 18 D
1 -15 D
0 -42 D
0 31 D
0 -109 D
0 92 D
1 -13 D
0 -106 D
0 47 D
0 -31 D
0 157 D
1 -22 D
0 -173 D
0 193 D
0 -232 D
0 307 D
1 -1 D
0 -121 D
0 108 D
0 -121 D
0 90 D
1 25 D
0 -205 D
0 112 D
0 -518 D
1 -18 D
0 577 D
0 -11 D
0 13 D
1 -50 D
0 -129 D
0 78 D
0 -71 D
0 165 D
0 -79 D
0 86 D
1 54 D
0 -352 D
0 286 D
0 -180 D
1 32 D
0 94 D
0 -106 D
0 196 D
0 -72 D
0 3 D
0 -247 D
1 176 D
0 130 D
0 -53 D
0 29 D
0 -232 D
1 139 D
0 124 D
0 -116 D
0 137 D
0 -12 D
1 6 D
0 -292 D
0 244 D
0 -218 D
0 15 D
1 115 D
0 112 D
0 -231 D
0 236 D
0 -100 D
0 82 D
1 34 D
0 -242 D
0 112 D
0 -473 D
0 565 D
0 -151 D
1 -333 D
0 -180 D
0 713 D
0 -66 D
0 45 D
0 -79 D
1 -150 D
0 167 D
0 -170 D
0 265 D
1 -5 D
0 -12 D
0 18 D
0 -284 D
0 121 D
1 -116 D
0 -702 D
0 982 D
1 4 D
0 -5 D
0 4 D
0 -156 D
0 126 D
0 -3 D
1 -63 D
0 -652 D
0 674 D
0 -107 D
1 -325 D
0 -257 D
0 681 D
0 -435 D
0 124 D
1 280 D
0 79 D
0 -6 D
0 32 D
0 -26 D
0 24 D
1 -17 D
0 -684 D
0 532 D
0 -15 D
0 166 D
1 -6 D
0 -279 D
0 266 D
0 -125 D
1 -311 D
0 -845 D
0 1242 D
0 -54 D
0 54 D
1 35 D
0 -110 D
0 5 D
0 -566 D
1 275 D
0 232 D
0 -784 D
0 792 D
0 -420 D
1 -289 D
0 -253 D
0 847 D
0 -477 D
1 108 D
0 207 D
0 -808 D
0 1043 D
1 -41 D
0 35 D
0 -42 D
0 122 D
0 -445 D
1 -421 D
0 500 D
0 -560 D
0 963 D
0 -21 D
1 -215 D
0 -209 D
0 83 D
0 -744 D
0 507 D
0 -35 D
0 61 D
1 234 D
0 116 D
0 -1125 D
0 851 D
1 -168 D
0 -196 D
0 654 D
0 -432 D
0 100 D
0 -540 D
1 66 D
0 187 D
0 -283 D
0 267 D
0 -99 D
1 -350 D
0 -77 D
0 155 D
0 -289 D
0 90 D
0 -29 D
0 696 D
1 -355 D
0 -425 D
0 568 D
0 -232 D
0 260 D
1 335 D
0 -993 D
0 15 D
1 90 D
0 258 D
0 -369 D
0 314 D
0 -201 D
1 -76 D
0 89 D
0 -108 D
0 587 D
1 158 D
0 63 D
0 -831 D
1 0 D
0 62 D
1 77 D
0 26 D
0 -165 D
0 35 D
1 -8 D
0 -27 D
0 3 D
0 -2 D
1 -1 D
0 52 D
0 -52 D
1 1 D
0 -1 D
0 1 D
0 -1 D
1 0 D
0 5 D
0 -5 D
1 0 D
0 2 D
1 6 D
0 8 D
0 -16 D
2 0 D
0 3 D
0 -3 D
2 0 D
0 19 D
0 -9 D
1 -7 D
0 -3 D
1 0 D
0 13 D
1 26 D
0 313 D
0 -185 D
0 74 D
0 -14 D
1 -133 D
0 -92 D
0 93 D
0 -93 D
1 -2 D
0 297 D
0 -244 D
1 -43 D
0 -10 D
0 3 D
0 -3 D
0 1 D
1 1 D
0 4 D
0 -6 D
10 0 D
0 1 D
1 0 D
0 1 D
0 -2 D
2 0 D
0 62 D
0 -3 D
0 10 D
1 12 D
0 -69 D
0 6 D
0 -18 D
1 0 D
0 1 D
0 -1 D
1 0 D
0 3 D
0 -3 D
0 1 D
1 5 D
0 1 D
0 -7 D
8 0 D
0 2 D
0 -1 D
0 13 D
0 -7 D
1 13 D
0 19 D
0 -32 D
0 21 D
0 -27 D
0 50 D
1 44 D
0 -95 D
1 0 D
0 21 D
0 -11 D
0 57 D
1 26 D
0 -31 D
0 220 D
0 -269 D
1 5 D
0 109 D
0 -106 D
0 37 D
1 -33 D
0 -23 D
0 440 D
0 -136 D
0 31 D
1 176 D
0 34 D
0 -430 D
0 686 D
0 -36 D
1 -46 D
0 -640 D
0 8 D
0 -86 D
0 115 D
1 46 D
0 -142 D
0 491 D
0 -331 D
1 45 D
0 804 D
0 -715 D
1 -17 D
0 -137 D
0 17 D
0 -112 D
0 619 D
0 -324 D
1 -144 D
0 -207 D
0 472 D
1 83 D
0 165 D
0 -543 D
0 692 D
1 86 D
0 6 D
0 -322 D
0 340 D
0 -680 D
0 259 D
1 -69 D
0 186 D
0 -575 D
0 112 D
1 284 D
0 786 D
0 -875 D
0 291 D
1 7 D
0 423 D
0 -356 D
0 279 D
0 -217 D
1 -232 D
0 -100 D
0 646 D
0 -919 D
0 34 D
1 229 D
0 690 D
0 -263 D
0 90 D
0 -220 D
0 237 D
1 350 D
0 88 D
0 -17 D
0 51 D
0 -735 D
1 -436 D
0 -245 D
0 1034 D
0 -891 D
1 384 D
0 274 D
0 -98 D
0 304 D
0 -117 D
0 386 D
1 68 D
0 170 D
0 -634 D
0 78 D
0 -439 D
0 751 D
1 169 D
0 -547 D
0 633 D
0 -310 D
1 -241 D
0 -831 D
0 29 D
0 -109 D
0 1189 D
1 170 D
0 71 D
0 -2 D
0 45 D
0 -505 D
0 556 D
1 7 D
0 -516 D
0 428 D
0 -128 D
0 175 D
1 -136 D
0 -779 D
0 300 D
0 -98 D
0 578 D
0 -135 D
1 -132 D
0 -723 D
0 1049 D
0 -923 D
1 -347 D
0 1355 D
0 -189 D
1 -388 D
0 -493 D
0 1032 D
0 -71 D
1 -221 D
0 61 D
0 -45 D
0 57 D
0 -13 D
0 132 D
0 -268 D
1 42 D
0 394 D
0 -347 D
0 60 D
0 -509 D
1 -1 D
0 -161 D
0 55 D
0 -446 D
0 633 D
1 -259 D
0 -163 D
0 534 D
0 -286 D
0 676 D
0 -657 D
1 29 D
0 -99 D
0 394 D
0 -169 D
0 581 D
0 -254 D
1 147 D
0 120 D
0 -84 D
0 158 D
0 -179 D
0 222 D
1 34 D
0 -366 D
0 110 D
0 -108 D
0 80 D
1 123 D
0 -865 D
0 679 D
0 -329 D
0 609 D
1 23 D
0 30 D
0 -342 D
0 159 D
0 -812 D
1 -56 D
0 580 D
0 -171 D
0 94 D
0 -107 D
0 597 D
1 30 D
0 -42 D
0 19 D
0 -362 D
0 26 D
0 -25 D
0 365 D
0 -8 D
1 -65 D
0 -986 D
0 653 D
0 -129 D
0 16 D
1 -100 D
0 -747 D
0 1407 D
0 -123 D
1 -315 D
0 -108 D
0 526 D
0 -353 D
0 262 D
0 -650 D
1 -356 D
0 1003 D
0 -1191 D
1 151 D
0 895 D
0 -766 D
0 950 D
1 -52 D
0 17 D
0 -648 D
0 628 D
0 -34 D
1 -339 D
0 -429 D
0 612 D
0 -969 D
0 506 D
1 64 D
0 -668 D
0 688 D
0 -6 D
0 582 D
1 105 D
0 21 D
0 -792 D
0 396 D
1 -30 D
0 -80 D
0 367 D
0 -763 D
0 762 D
0 -159 D
1 -365 D
0 -336 D
0 657 D
0 -902 D
0 882 D
1 233 D
0 44 D
0 -9 D
0 80 D
0 -77 D
0 49 D
0 -221 D
1 -24 D
0 -1196 D
0 1148 D
0 -129 D
1 -2 D
0 64 D
0 -410 D
0 672 D
0 -920 D
0 203 D
1 501 D
0 189 D
0 -916 D
0 666 D
0 -402 D
1 -315 D
0 745 D
0 -601 D
0 823 D
1 127 D
0 12 D
0 -794 D
0 202 D
0 -762 D
1 235 D
0 892 D
0 -565 D
0 347 D
0 -838 D
1 11 D
0 1131 D
0 -1132 D
0 847 D
1 267 D
0 192 D
0 -60 D
0 16 D
1 18 D
0 -839 D
0 246 D
0 -697 D
1 149 D
0 224 D
0 -145 D
0 1071 D
0 -63 D
1 -10 D
0 104 D
0 -44 D
1 -60 D
0 -1234 D
0 1132 D
0 -115 D
0 206 D
1 40 D
0 -1347 D
0 1160 D
1 111 D
0 -191 D
0 248 D
0 -36 D
0 109 D
0 -35 D
1 -105 D
0 -538 D
0 413 D
0 -225 D
0 400 D
1 29 D
0 -163 D
0 273 D
1 -2 D
0 -305 D
0 271 D
0 -26 D
0 11 D
1 33 D
0 4 D
0 -416 D
0 343 D
1 -184 D
0 -255 D
0 485 D
0 -14 D
0 31 D
0 -2 D
1 -24 D
0 -643 D
0 577 D
0 -698 D
0 658 D
1 94 D
0 6 D
0 -400 D
1 -419 D
0 -511 D
0 459 D
0 -54 D
0 861 D
0 -127 D
1 -146 D
0 -1003 D
0 994 D
1 -380 D
0 -806 D
0 1242 D
0 -1112 D
1 187 D
0 629 D
0 -789 D
0 243 D
0 -140 D
1 11 D
0 183 D
0 -59 D
0 713 D
0 -599 D
0 482 D
1 -187 D
0 -198 D
0 664 D
0 -922 D
0 193 D
0 -227 D
1 -92 D
0 199 D
0 -263 D
0 291 D
0 -175 D
0 995 D
1 13 D
0 -1363 D
0 1198 D
1 277 D
0 109 D
0 -174 D
0 126 D
0 -48 D
1 -162 D
0 -1038 D
0 1138 D
0 -425 D
1 -358 D
0 71 D
0 -131 D
0 278 D
0 -536 D
0 495 D
0 -387 D
1 41 D
0 -107 D
0 1200 D
0 -65 D
1 56 D
0 27 D
0 -773 D
1 -534 D
0 -203 D
0 757 D
0 -493 D
0 913 D
1 175 D
0 76 D
0 -800 D
0 530 D
0 -653 D
1 -353 D
0 43 D
0 -53 D
0 1246 D
1 17 D
0 -16 D
0 22 D
0 -1377 D
0 73 D
1 508 D
0 909 D
0 -31 D
0 21 D
1 -14 D
0 -9 D
S 527 1640 M
0 38 D
0 -744 D
1 189 D
0 422 D
0 -662 D
0 110 D
0 -442 D
0 570 D
1 160 D
0 -1017 D
0 886 D
0 -240 D
1 112 D
0 532 D
0 -924 D
0 945 D
1 -51 D
0 -582 D
0 102 D
0 -94 D
0 378 D
0 -958 D
1 -308 D
0 -60 D
0 214 D
1 8 D
0 13 D
0 -68 D
0 549 D
0 -272 D
0 418 D
1 19 D
0 482 D
0 -535 D
1 -28 D
0 -85 D
0 944 D
0 -115 D
1 -372 D
0 -227 D
0 737 D
0 -393 D
1 -62 D
0 -217 D
0 389 D
0 -283 D
0 529 D
0 -25 D
1 -169 D
0 -973 D
0 1213 D
1 -46 D
0 -386 D
0 372 D
0 -87 D
0 28 D
0 -277 D
1 -166 D
0 -52 D
0 82 D
0 -785 D
0 1259 D
1 -76 D
0 -374 D
0 230 D
0 -437 D
0 655 D
1 -68 D
0 63 D
0 -1234 D
0 1166 D
1 -219 D
0 -274 D
0 628 D
0 -220 D
1 -233 D
0 408 D
0 -1317 D
0 555 D
1 447 D
0 140 D
0 -47 D
0 109 D
0 -233 D
0 262 D
1 110 D
0 35 D
0 -1067 D
1 -382 D
0 1284 D
0 -117 D
0 260 D
0 -75 D
1 -49 D
0 147 D
0 -44 D
1 -117 D
0 -1127 D
0 981 D
0 -166 D
0 225 D
1 55 D
0 -279 D
0 302 D
0 -44 D
0 153 D
0 -93 D
1 94 D
0 23 D
0 -1188 D
0 1191 D
1 26 D
0 -8 D
0 1 D
0 -2 D
0 4 D
0 -37 D
1 -12 D
0 -251 D
0 52 D
0 -764 D
1 108 D
0 901 D
0 -10 D
0 29 D
0 -60 D
1 6 D
0 6 D
0 -58 D
0 49 D
0 -294 D
1 -206 D
0 -106 D
0 592 D
0 -3 D
0 75 D
1 -13 D
0 -207 D
0 154 D
0 -122 D
0 144 D
1 17 D
0 -475 D
0 336 D
1 -80 D
0 257 D
0 -30 D
0 1 D
1 1 D
0 -70 D
0 43 D
0 -301 D
1 -56 D
0 409 D
0 -12 D
1 -14 D
0 -67 D
0 9 D
0 -93 D
0 89 D
0 -30 D
0 17 D
0 -4 D
1 -54 D
0 -43 D
0 157 D
1 1 D
0 -28 D
0 71 D
0 -134 D
0 58 D
1 -48 D
0 -32 D
0 7 D
0 -62 D
0 71 D
0 -2 D
0 100 D
1 -31 D
0 -41 D
0 112 D
0 -27 D
0 7 D
1 -19 D
0 -82 D
0 45 D
0 -22 D
0 74 D
0 -72 D
1 -84 D
0 -4 D
0 175 D
0 -3 D
0 9 D
0 -29 D
1 20 D
0 -34 D
0 15 D
0 -125 D
0 150 D
0 -13 D
1 -27 D
0 -20 D
0 49 D
0 -3 D
0 6 D
1 -19 D
0 -10 D
0 9 D
0 -14 D
0 42 D
0 -41 D
0 24 D
1 20 D
0 -145 D
0 79 D
0 -3 D
1 44 D
0 19 D
0 -106 D
0 61 D
0 -109 D
0 116 D
1 -117 D
0 -220 D
0 348 D
0 -245 D
0 74 D
1 0 D
0 -45 D
0 98 D
0 -53 D
0 105 D
0 -42 D
1 -15 D
0 48 D
0 -87 D
0 164 D
0 -94 D
0 44 D
1 38 D
0 -60 D
0 22 D
0 -122 D
0 77 D
1 67 D
0 12 D
0 -20 D
0 12 D
0 -118 D
0 136 D
1 18 D
0 -1 D
0 12 D
0 -148 D
0 44 D
0 -36 D
1 -50 D
0 -39 D
0 163 D
0 -180 D
0 188 D
0 -90 D
1 -27 D
0 45 D
0 -155 D
0 206 D
1 3 D
0 -9 D
0 31 D
0 -39 D
0 26 D
0 -198 D
0 44 D
1 102 D
0 70 D
0 -146 D
0 74 D
0 -104 D
1 78 D
0 99 D
0 -61 D
0 21 D
0 -51 D
1 -7 D
0 114 D
0 -12 D
0 8 D
0 -110 D
0 98 D
1 17 D
0 -124 D
0 141 D
0 -4 D
1 -4 D
0 -98 D
0 26 D
0 -213 D
0 185 D
1 74 D
0 11 D
0 -38 D
0 23 D
0 -78 D
0 37 D
0 -65 D
0 30 D
1 80 D
0 38 D
0 -113 D
0 108 D
1 -12 D
0 -8 D
0 12 D
0 -13 D
0 31 D
0 -19 D
0 1 D
0 -2 D
1 -27 D
0 -91 D
0 20 D
0 -134 D
0 254 D
0 -1 D
1 -5 D
0 -127 D
0 114 D
0 -94 D
0 28 D
1 40 D
0 7 D
0 -3 D
0 39 D
0 -29 D
0 9 D
1 8 D
0 2 D
0 -1 D
0 8 D
0 -20 D
0 2 D
0 -45 D
1 -86 D
0 -131 D
0 280 D
0 -96 D
1 17 D
0 51 D
0 -9 D
0 19 D
0 -5 D
0 21 D
1 2 D
0 -13 D
0 13 D
0 -40 D
1 -2 D
0 22 D
0 -30 D
0 45 D
0 -176 D
1 -150 D
0 311 D
0 -176 D
1 17 D
0 -49 D
0 83 D
0 -141 D
0 244 D
1 -44 D
0 -16 D
0 35 D
0 -3 D
0 10 D
0 -13 D
0 17 D
1 -25 D
0 -11 D
0 80 D
0 -167 D
0 24 D
1 38 D
0 100 D
0 -65 D
0 58 D
1 0 D
0 -9 D
0 22 D
0 -33 D
0 36 D
1 -1 D
0 -14 D
0 18 D
0 -6 D
1 -6 D
0 2 D
0 -53 D
0 25 D
0 -58 D
1 -37 D
0 99 D
0 -102 D
0 87 D
1 4 D
0 -14 D
0 40 D
0 -69 D
0 74 D
1 2 D
0 3 D
0 -5 D
0 1 D
0 -13 D
0 2 D
1 4 D
0 -28 D
0 7 D
0 -11 D
0 29 D
0 -150 D
1 88 D
0 71 D
0 -153 D
0 108 D
1 -32 D
0 34 D
0 -33 D
0 62 D
0 -35 D
1 -66 D
0 99 D
0 -1 D
0 8 D
0 -5 D
0 1 D
1 -2 D
0 7 D
0 -142 D
0 120 D
1 -11 D
0 -6 D
0 27 D
0 -118 D
0 129 D
1 -1 D
0 -76 D
0 39 D
0 -20 D
0 49 D
0 -8 D
1 -26 D
0 -40 D
0 50 D
0 -95 D
0 115 D
1 7 D
0 3 D
0 -135 D
0 120 D
1 7 D
0 -135 D
0 135 D
0 -11 D
0 11 D
1 1 D
0 -20 D
0 7 D
0 -68 D
0 72 D
1 -11 D
0 -62 D
0 78 D
0 -21 D
1 -40 D
0 -107 D
0 101 D
0 -43 D
0 99 D
0 -96 D
1 4 D
0 93 D
0 -57 D
0 56 D
1 -1 D
0 -14 D
0 13 D
0 -73 D
1 32 D
0 43 D
0 -56 D
0 5 D
1 16 D
0 2 D
0 -7 D
0 11 D
0 -101 D
0 102 D
1 19 D
0 -59 D
0 49 D
0 -38 D
0 50 D
1 3 D
0 1 D
0 -24 D
0 7 D
1 7 D
0 4 D
0 -38 D
0 37 D
0 -6 D
1 -3 D
0 -15 D
0 1 D
0 -68 D
0 50 D
1 -10 D
0 -8 D
0 25 D
0 -7 D
0 11 D
0 -12 D
0 14 D
1 -4 D
0 -21 D
0 5 D
0 -17 D
0 4 D
0 -14 D
1 -9 D
0 50 D
0 -31 D
0 25 D
1 0 D
0 2 D
0 -59 D
0 41 D
1 -4 D
0 -43 D
0 21 D
0 -33 D
1 -5 D
0 7 D
0 -25 D
0 3 D
0 -39 D
1 -3 D
0 -14 D
0 13 D
0 -18 D
0 4 D
0 -47 D
1 23 D
0 -15 D
0 2 D
0 -5 D
0 12 D
0 -16 D
0 9 D
0 -32 D
0 2 D
0 -28 D
0 36 D
1 -17 D
0 24 D
0 -29 D
0 13 D
0 -24 D
0 19 D
0 -9 D
0 13 D
0 -15 D
0 26 D
1 -34 D
0 34 D
0 -45 D
0 29 D
0 -12 D
0 28 D
0 -24 D
0 35 D
0 -42 D
1 37 D
0 -23 D
0 47 D
0 -37 D
0 36 D
0 -13 D
0 37 D
1 -20 D
0 47 D
0 -19 D
0 42 D
0 -21 D
0 29 D
0 -3 D
0 32 D
1 -8 D
0 31 D
0 -68 D
0 11 D
0 -28 D
1 21 D
0 -54 D
0 42 D
0 -43 D
0 26 D
0 -53 D
0 32 D
0 -66 D
1 -40 D
0 80 D
0 -30 D
0 53 D
0 -63 D
0 49 D
0 -55 D
0 63 D
0 -42 D
1 -24 D
0 62 D
0 -59 D
0 64 D
0 -77 D
0 71 D
0 -75 D
0 62 D
1 -67 D
0 75 D
0 -67 D
0 76 D
0 -75 D
0 67 D
0 -68 D
1 79 D
0 -69 D
0 76 D
0 -71 D
0 83 D
0 -64 D
0 70 D
0 -42 D
1 -26 D
0 69 D
0 -59 D
0 67 D
0 -63 D
0 63 D
0 -57 D
1 55 D
0 -52 D
0 60 D
0 -49 D
0 58 D
0 -54 D
0 34 D
1 -38 D
0 64 D
0 -38 D
0 38 D
0 -38 D
0 38 D
0 -34 D
1 18 D
0 23 D
0 -25 D
0 26 D
0 -29 D
0 23 D
0 -32 D
1 13 D
0 19 D
0 -34 D
0 29 D
0 -9 D
0 16 D
0 -15 D
1 -12 D
0 -10 D
0 32 D
0 -10 D
0 12 D
0 -9 D
1 7 D
0 -10 D
0 7 D
0 -7 D
0 4 D
0 -8 D
0 2 D
1 3 D
0 -6 D
0 2 D
0 -6 D
0 3 D
0 -5 D
1 -1 D
0 -36 D
0 31 D
0 -9 D
1 -9 D
0 -23 D
0 29 D
0 -3 D
1 -1 D
0 -10 D
1 0 D
0 -14 D
0 3 D
0 -4 D
1 -2 D
0 -1 D
0 1 D
0 -10 D
1 -1 D
0 -15 D
1 -2 D
0 -46 D
0 2 D
0 -2 D
0 24 D
1 1 D
0 -21 D
1 1 D
0 -12 D
0 2 D
0 -15 D
0 3 D
1 -9 D
0 2 D
0 -10 D
0 6 D
0 -11 D
0 2 D
0 -13 D
0 7 D
1 -12 D
0 2 D
0 -10 D
0 8 D
0 -12 D
0 3 D
0 -13 D
0 8 D
0 -10 D
1 -7 D
0 9 D
0 -15 D
0 6 D
0 -20 D
0 1 D
0 -21 D
0 20 D
1 -11 D
0 15 D
0 -18 D
0 14 D
0 -19 D
0 7 D
0 -25 D
0 8 D
0 -13 D
1 -2 D
0 18 D
0 -18 D
0 10 D
0 -11 D
0 16 D
0 -16 D
0 12 D
0 -16 D
1 7 D
0 2 D
0 -15 D
0 13 D
0 -14 D
0 11 D
0 -13 D
0 8 D
1 -13 D
0 8 D
0 -10 D
0 7 D
0 -6 D
0 5 D
0 -7 D
0 4 D
1 -5 D
0 2 D
0 -3 D
0 1 D
0 -16 D
1 -5 D
0 -29 D
0 9 D
0 -13 D
0 4 D
0 -16 D
1 2 D
0 -15 D
0 5 D
0 -17 D
0 7 D
0 -19 D
0 10 D
0 -21 D
1 11 D
0 -21 D
0 6 D
0 -21 D
0 8 D
0 -17 D
0 7 D
0 -2 D
1 -23 D
0 14 D
0 -16 D
0 13 D
0 -23 D
0 14 D
0 -21 D
0 12 D
1 -14 D
0 -5 D
0 11 D
0 -20 D
0 10 D
0 -19 D
0 7 D
0 -16 D
1 2 D
0 3 D
0 -17 D
0 9 D
0 -18 D
0 5 D
0 -13 D
0 1 D
0 -9 D
1 -13 D
0 13 D
0 -14 D
0 3 D
0 -12 D
0 4 D
0 -17 D
1 6 D
0 -25 D
0 1 D
0 -15 D
0 2 D
0 -4 D
1 -8 D
0 -42 D
1 -7 D
0 -45 D
1 -8 D
0 -47 D
1 -4 D
0 -54 D
1 -4 D
0 -58 D
1 -7 D
0 -60 D
1 -7 D
0 -56 D
1 -6 D
0 -67 D
1 -5 D
0 -58 D
1 -6 D
0 -62 D
1 -6 D
0 -53 D
1 -5 D
0 -53 D
1 -5 D
0 -43 D
1 -3 D
0 -30 D
1 -2 D
0 -23 D
1 -1 D
0 -6 D
36 0 D
0 3 D
0 -2 D
1 -1 D
0 1 D
0 -1 D
5 0 D
0 1 D
1 1 D
0 -2 D
0 4 D
0 -4 D
1 0 D
0 4 D
0 -4 D
0 4 D
1 1 D
0 -5 D
0 13 D
0 -7 D
1 -5 D
0 42 D
0 -43 D
0 1 D
1 12 D
0 53 D
0 -65 D
0 64 D
0 -19 D
1 -26 D
0 -18 D
0 108 D
0 -87 D
1 -16 D
0 134 D
0 -124 D
0 100 D
1 -28 D
0 32 D
0 -96 D
0 86 D
0 -12 D
1 -9 D
0 -76 D
0 148 D
0 -65 D
1 -74 D
0 -8 D
0 102 D
0 -7 D
0 42 D
0 -136 D
0 12 D
1 51 D
0 31 D
0 -18 D
0 20 D
0 -83 D
0 155 D
1 -42 D
0 -73 D
0 11 D
0 -49 D
0 155 D
0 -60 D
1 69 D
0 -144 D
0 115 D
0 -41 D
0 81 D
1 -63 D
0 -56 D
0 91 D
0 -16 D
0 83 D
0 -104 D
0 101 D
0 -118 D
1 64 D
0 72 D
0 -72 D
0 163 D
0 -73 D
0 159 D
0 -104 D
0 191 D
1 -51 D
0 -136 D
0 198 D
0 -102 D
0 389 D
0 -118 D
1 -59 D
0 -165 D
0 166 D
0 -246 D
0 153 D
0 -214 D
0 175 D
1 -232 D
0 146 D
0 -228 D
0 134 D
0 -149 D
0 135 D
1 26 D
0 -150 D
0 230 D
0 -214 D
0 212 D
0 -192 D
0 197 D
1 -86 D
0 -154 D
0 206 D
S 759 395 M
0 -214 D
0 160 D
0 -155 D
0 148 D
1 -27 D
0 -131 D
0 245 D
0 -230 D
0 293 D
0 -270 D
1 180 D
0 104 D
0 -281 D
0 275 D
0 -227 D
0 246 D
0 -239 D
1 12 D
0 219 D
0 -266 D
0 195 D
0 -163 D
0 152 D
1 27 D
0 -180 D
0 297 D
0 -304 D
0 275 D
0 -211 D
1 303 D
0 102 D
0 -363 D
0 417 D
0 -431 D
0 331 D
1 -248 D
0 -125 D
0 446 D
0 -425 D
0 380 D
0 -304 D
0 86 D
1 182 D
0 -239 D
0 305 D
0 -296 D
0 346 D
1 -279 D
0 -53 D
0 476 D
0 -534 D
0 566 D
0 -393 D
1 182 D
0 322 D
0 -391 D
0 370 D
0 -580 D
0 369 D
1 -55 D
0 -206 D
0 458 D
0 -327 D
0 292 D
0 -110 D
1 -165 D
0 -106 D
0 248 D
0 -27 D
0 168 D
0 -136 D
1 112 D
0 117 D
0 -340 D
0 224 D
0 -84 D
0 268 D
1 99 D
0 -426 D
0 429 D
0 -282 D
0 50 D
0 -143 D
1 17 D
0 429 D
0 -254 D
0 277 D
0 -173 D
1 -39 D
0 71 D
0 -405 D
0 513 D
0 -65 D
1 13 D
0 64 D
0 -506 D
0 419 D
1 92 D
0 -150 D
0 203 D
0 -68 D
1 -41 D
0 -437 D
0 566 D
0 -55 D
1 26 D
0 49 D
0 -526 D
0 525 D
1 -15 D
0 -4 D
0 10 D
0 -107 D
0 65 D
0 -80 D
1 -287 D
0 -341 D
0 770 D
0 -27 D
0 39 D
0 -13 D
1 -8 D
0 29 D
0 -482 D
0 469 D
1 26 D
0 -152 D
0 142 D
0 -9 D
0 15 D
0 -169 D
1 -295 D
0 478 D
0 -367 D
0 97 D
1 206 D
0 53 D
0 -393 D
0 417 D
1 -2 D
0 -6 D
0 10 D
0 -44 D
0 15 D
0 -209 D
1 -145 D
0 379 D
0 -422 D
0 192 D
1 166 D
0 90 D
0 -3 D
0 8 D
0 -1 D
1 -14 D
0 -11 D
0 23 D
0 -10 D
0 6 D
1 -15 D
0 -593 D
0 566 D
0 -154 D
0 96 D
1 -15 D
0 -358 D
0 296 D
0 -467 D
0 205 D
0 -30 D
0 137 D
1 247 D
0 83 D
0 -15 D
0 16 D
0 -23 D
1 -7 D
0 -482 D
0 383 D
1 -15 D
0 -432 D
0 300 D
0 -17 D
0 3 D
1 -23 D
0 -421 D
0 500 D
0 -142 D
0 85 D
1 20 D
0 -360 D
0 163 D
0 -243 D
0 225 D
1 36 D
0 87 D
0 -111 D
0 17 D
0 -57 D
0 50 D
1 74 D
0 -74 D
0 10 D
0 -310 D
0 473 D
1 8 D
0 -165 D
0 206 D
0 -197 D
1 7 D
0 -555 D
0 800 D
1 44 D
0 10 D
0 -36 D
0 162 D
0 -455 D
1 -76 D
0 481 D
0 -306 D
0 68 D
0 -67 D
1 -5 D
0 -7 D
0 54 D
0 -495 D
0 453 D
1 -72 D
0 -137 D
0 197 D
0 -13 D
0 174 D
0 -13 D
1 -4 D
0 13 D
0 -429 D
0 475 D
1 -28 D
0 -45 D
0 1 D
0 -381 D
0 369 D
1 4 D
0 -373 D
0 438 D
0 -296 D
1 -126 D
0 441 D
0 -43 D
0 13 D
0 -289 D
1 -100 D
0 306 D
0 -465 D
0 421 D
1 114 D
0 53 D
0 -145 D
0 135 D
0 -651 D
1 -209 D
0 -205 D
0 1041 D
0 -281 D
0 118 D
1 145 D
0 -572 D
0 511 D
0 -165 D
0 187 D
1 -44 D
0 -161 D
0 353 D
0 -349 D
0 2 D
1 163 D
0 181 D
0 -603 D
0 548 D
1 -101 D
0 -271 D
0 347 D
0 -504 D
1 -139 D
0 -708 D
0 247 D
1 465 D
0 645 D
0 -42 D
0 30 D
0 -347 D
1 -305 D
0 641 D
0 -426 D
1 42 D
0 474 D
0 -579 D
0 557 D
1 30 D
0 -647 D
0 683 D
0 -670 D
1 28 D
0 586 D
0 -1146 D
0 496 D
1 -103 D
0 -552 D
0 1338 D
0 -364 D
1 -380 D
0 763 D
0 -735 D
0 289 D
1 -118 D
0 -412 D
0 320 D
0 -132 D
0 826 D
0 -108 D
1 -348 D
0 -311 D
0 804 D
0 -727 D
0 124 D
1 419 D
0 201 D
0 -686 D
0 663 D
0 -10 D
1 -126 D
0 -546 D
0 688 D
0 -630 D
0 206 D
1 327 D
0 131 D
0 -580 D
0 526 D
0 -4 D
1 -19 D
0 -441 D
0 533 D
0 -506 D
1 216 D
0 191 D
0 -560 D
0 170 D
0 -11 D
0 477 D
1 6 D
0 -1166 D
0 985 D
0 -95 D
1 -63 D
0 225 D
0 -1343 D
0 904 D
1 283 D
0 121 D
0 -82 D
0 250 D
0 -22 D
1 -88 D
0 -30 D
0 38 D
0 -693 D
0 814 D
1 11 D
0 5 D
0 -82 D
0 69 D
0 -91 D
1 -190 D
0 -42 D
0 343 D
0 -45 D
0 29 D
1 14 D
0 2 D
0 -36 D
0 21 D
0 -37 D
1 13 D
0 18 D
0 -15 D
0 31 D
0 -85 D
1 -49 D
0 -1022 D
0 1121 D
1 6 D
0 3 D
0 -37 D
0 23 D
0 -255 D
1 -430 D
0 -398 D
0 1074 D
0 -37 D
0 16 D
1 12 D
0 -1256 D
1 -100 D
0 149 D
0 -219 D
0 769 D
0 -852 D
1 -12 D
0 1486 D
1 5 D
0 56 D
0 -14 D
0 27 D
0 -9 D
0 6 D
1 11 D
0 -22 D
0 26 D
0 -34 D
0 13 D
0 -10 D
1 -9 D
0 -949 D
0 871 D
0 -4 D
1 -117 D
0 -894 D
0 1136 D
1 -16 D
0 -137 D
0 169 D
0 -9 D
1 -1 D
0 3 D
0 -15 D
0 17 D
0 -1 D
1 -3 D
0 -42 D
0 8 D
0 -197 D
1 -57 D
0 -1108 D
0 1299 D
1 23 D
0 25 D
0 -34 D
1 -12 D
0 -683 D
1 -427 D
0 -429 D
0 209 D
1 273 D
0 810 D
0 -161 D
1 -214 D
0 -869 D
0 1049 D
1 197 D
0 240 D
0 -23 D
0 99 D
1 -9 D
0 -111 D
0 144 D
0 -61 D
1 -12 D
0 69 D
0 -23 D
0 16 D
0 -129 D
1 -147 D
0 305 D
0 -6 D
1 3 D
0 -102 D
0 69 D
0 -36 D
1 -98 D
0 -775 D
0 928 D
1 2 D
0 2 D
0 -10 D
0 2 D
0 -2 D
1 -3 D
0 -21 D
0 2 D
0 -35 D
1 -26 D
0 -378 D
1 -156 D
0 -1005 D
0 205 D
0 -69 D
1 -98 D
0 1440 D
1 19 D
0 18 D
0 -6 D
0 45 D
0 -20 D
1 -33 D
0 -1338 D
0 1206 D
1 98 D
0 45 D
0 -71 D
0 136 D
0 -22 D
0 25 D
1 -1 D
0 -466 D
0 243 D
0 -79 D
0 58 D
0 -607 D
1 -167 D
0 521 D
0 -993 D
0 905 D
1 254 D
0 329 D
0 -21 D
1 5 D
0 15 D
0 -353 D
0 297 D
0 -59 D
1 -37 D
0 45 D
0 -486 D
0 477 D
0 -14 D
1 -25 D
0 -1407 D
1 66 D
0 79 D
0 -150 D
0 726 D
1 -22 D
0 -720 D
0 1 D
1 4 D
0 1059 D
1 131 D
0 128 D
0 -108 D
0 248 D
1 -34 D
0 -81 D
0 125 D
0 -223 D
0 260 D
0 -3 D
0 5 D
1 28 D
0 8 D
0 -64 D
0 1 D
0 -79 D
1 -57 D
0 -1248 D
0 684 D
1 152 D
0 610 D
0 -19 D
0 24 D
1 9 D
0 1 D
0 -80 D
0 58 D
0 -11 D
1 -20 D
0 -238 D
0 195 D
0 -212 D
1 -46 D
0 100 D
0 -574 D
1 -66 D
0 -668 D
1 1 D
0 773 D
1 3 D
0 -767 D
1 -9 D
0 -1 D
0 390 D
1 145 D
0 297 D
0 -85 D
0 334 D
0 -49 D
1 -136 D
0 122 D
0 -208 D
0 489 D
0 -178 D
1 -240 D
0 243 D
0 -660 D
1 -122 D
0 -341 D
0 425 D
1 7 D
0 -427 D
0 764 D
1 168 D
0 64 D
0 -20 D
0 310 D
0 -317 D
1 -262 D
0 -660 D
0 1310 D
1 5 D
0 -184 D
0 95 D
0 -540 D
0 671 D
1 65 D
0 8 D
0 -88 D
0 107 D
0 -63 D
1 -49 D
0 28 D
0 -5 D
0 8 D
0 -516 D
1 67 D
0 204 D
0 -1147 D
1 -26 D
0 -3 D
0 637 D
0 -139 D
0 154 D
1 256 D
0 134 D
0 -284 D
0 209 D
0 -114 D
1 -81 D
0 -772 D
1 0 D
0 500 D
1 121 D
0 484 D
0 -51 D
1 -142 D
0 -894 D
0 100 D
1 246 D
0 1039 D
1 12 D
0 32 D
0 -21 D
0 13 D
0 -42 D
1 -101 D
0 -701 D
0 831 D
1 11 D
0 -94 D
0 46 D
0 -807 D
1 62 D
0 692 D
0 -47 D
1 -14 D
0 -282 D
1 -48 D
0 -868 D
1 -60 D
0 -14 D
0 2 D
0 -5 D
1 0 D
1 2 D
0 1 D
0 -3 D
0 131 D
1 116 D
0 468 D
0 -163 D
0 420 D
1 80 D
0 44 D
0 -81 D
0 142 D
0 -101 D
1 -173 D
0 -508 D
0 431 D
0 -188 D
0 553 D
0 -277 D
1 -427 D
0 -225 D
0 685 D
0 -886 D
0 233 D
1 357 D
0 636 D
0 -349 D
1 -365 D
0 782 D
0 -38 D
1 -94 D
0 -371 D
0 416 D
0 -191 D
1 -271 D
0 -537 D
0 870 D
0 -32 D
1 -21 D
0 -556 D
1 -183 D
0 -327 D
0 7 D
1 21 D
0 69 D
0 -97 D
2 0 D
0 10 D
0 -5 D
0 27 D
1 66 D
0 455 D
1 63 D
0 57 D
0 -321 D
0 250 D
0 -158 D
1 -25 D
0 -419 D
0 161 D
1 112 D
0 41 D
0 -133 D
0 454 D
0 -476 D
1 -8 D
0 451 D
0 -420 D
0 128 D
1 52 D
0 -353 D
1 -6 D
0 -3 D
1 0 D
0 62 D
1 20 D
0 17 D
0 -97 D
1 -2 D
0 24 D
1 32 D
0 174 D
0 -196 D
0 156 D
1 111 D
0 -105 D
0 748 D
1 -54 D
0 -20 D
0 261 D
0 -7 D
1 -1 D
0 1 D
0 -1054 D
0 254 D
1 325 D
0 392 D
0 -508 D
0 494 D
1 56 D
0 -197 D
0 108 D
0 -127 D
1 -72 D
0 -793 D
0 24 D
1 15 D
0 -41 D
1 2 D
0 345 D
0 -103 D
0 25 D
1 -13 D
0 -252 D
0 645 D
1 35 D
0 55 D
0 -710 D
0 7 D
1 114 D
0 460 D
0 -396 D
1 -105 D
0 -109 D
0 6 D
0 -2 D
1 -3 D
0 13 D
0 -14 D
1 0 D
0 51 D
1 30 D
0 73 D
0 -147 D
0 2 D
0 -5 D
1 -3 D
0 -1 D
0 11 D
1 -1 D
0 -10 D
2 0 D
0 37 D
1 43 D
0 120 D
0 -166 D
0 196 D
1 134 D
0 144 D
0 -61 D
0 32 D
0 -71 D
1 -81 D
0 -173 D
 S
%
% >

%
S [] 0 B
1039 4 M
1 0 D
1 -3 D
1 0 D
1 2 D
1 3 D
1 -2 D
1 -3 D
1 -1 D
7 0 D
1 1 D
1 2 D
1 0 D
1 -2 D
1 -1 D
2 0 D
1 1 D
1 4 D
1 8 D
1 1 D
1 -9 D
1 -4 D
1 -1 D
6 0 D
1 1 D
1 6 D
1 23 D
1 25 D
1 -14 D
1 -15 D
1 23 D
1 103 D
1 98 D
1 -84 D
1 -69 D
1 89 D
1 245 D
1 148 D
1 -142 D
0 -250 D
1 -85 D
1 85 D
1 43 D
1 -37 D
1 51 D
1 192 D
1 107 D
1 -16 D
1 -89 D
1 -156 D
1 -126 D
1 -69 D
1 -55 D
1 -26 D
1 -6 D
20 0 D
1 1 D
2 0 D
1 -1 D
11 0 D
1 1 D
1 0 D
1 -1 D
27 0 D
2 4 D
1 0 D
1 -3 D
1 -1 D
1 0 D
1 3 D
1 19 D
1 50 D
1 58 D
1 -21 D
1 -59 D
1 29 D
1 49 D
1 -42 D
1 -62 D
1 -21 D
1 -3 D
3 0 D
1 5 D
0 14 D
1 10 D
1 -12 D
1 -13 D
1 -3 D
1 1 D
1 6 D
1 5 D
1 -4 D
1 -7 D
1 -2 D
3 0 D
1 3 D
1 6 D
1 10 D
1 30 D
1 28 D
0 -26 D
1 -37 D
1 13 D
1 98 D
1 184 D
1 165 D
1 19 D
1 -62 D
1 -111 D
1 -133 D
1 -118 D
1 -56 D
1 -12 D
1 2 D
1 10 D
1 14 D
1 18 D
1 -7 D
0 -22 D
1 -1 D
1 62 D
1 133 D
1 54 D
1 -89 D
1 -117 D
1 -41 D
1 10 D
1 -5 D
1 -16 D
1 -5 D
1 0 D
1 5 D
1 35 D
1 106 D
1 202 D
1 156 D
0 -117 D
1 -78 D
1 89 D
1 125 D
1 120 D
1 -61 D
1 -253 D
1 -231 D
1 -35 D
1 134 D
1 146 D
1 -42 D
1 -175 D
1 -104 D
1 -19 D
1 7 D
1 2 D
1 -8 D
0 1 D
1 44 D
1 126 D
1 94 D
1 -31 D
1 -9 D
1 -71 D
1 -113 D
1 -9 D
1 164 D
1 318 D
1 195 D
1 55 D
1 70 D
1 -13 D
1 -277 D
1 -207 D
1 -15 D
0 63 D
1 -79 D
1 -206 D
1 -90 D
1 9 D
1 108 D
1 239 D
1 163 D
1 -128 D
1 -196 D
1 162 D
1 333 D
1 48 D
1 -172 D
1 -298 D
1 -219 D
1 -45 D
1 36 D
0 178 D
1 282 D
1 118 D
1 108 D
1 -6 D
1 -271 D
1 -132 D
1 275 D
1 219 D
1 5 D
1 -107 D
1 -129 D
1 -168 D
1 80 D
1 91 D
1 21 D
1 280 D
1 213 D
0 -96 D
1 -321 D
1 -339 D
1 -202 D
1 -110 D
1 -36 D
1 11 D
1 52 D
1 125 D
1 350 D
1 416 D
1 100 D
1 -255 D
1 -171 D
1 347 D
1 160 D
1 -129 D
1 50 D
1 -208 D
0 -138 D
1 335 D
1 249 D
1 -74 D
1 -231 D
1 -143 D
1 -100 D
1 -204 D
1 -311 D
1 -116 D
1 115 D
1 79 D
1 106 D
1 240 D
1 -54 D
1 -221 D
1 -147 D
1 106 D
0 324 D
1 283 D
1 45 D
1 -214 D
1 -209 D
1 -47 D
1 -259 D
1 -200 D
1 -18 D
1 39 D
1 88 D
1 92 D
1 124 D
1 73 D
1 71 D
1 81 D
1 -167 D
1 -113 D
0 104 D
1 83 D
1 39 D
1 101 D
1 61 D
1 119 D
1 30 D
1 -87 D
1 -119 D
1 -272 D
1 -82 D
1 322 D
1 373 D
1 168 D
1 -193 D
1 -331 D
1 -81 D
1 155 D
0 74 D
1 -27 D
1 70 D
1 106 D
1 -138 D
1 -161 D
1 59 D
1 -14 D
1 37 D
1 93 D
1 -116 D
1 -292 D
1 -177 D
1 63 D
1 59 D
1 15 D
1 25 D
1 219 D
0 97 D
1 -90 D
1 129 D
1 131 D
1 -44 D
1 -7 D
1 -81 D
1 -242 D
1 -191 D
1 256 D
1 387 D
1 230 D
1 20 D
1 1 D
1 -4 D
1 -116 D
1 -127 D
1 96 D
0 213 D
1 103 D
1 24 D
1 -67 D
1 15 D
1 -41 D
1 -68 D
1 68 D
1 -52 D
1 -126 D
1 -183 D
1 12 D
1 239 D
1 146 D
1 63 D
1 57 D
1 45 D
1 -48 D
0 -22 D
1 -53 D
1 -60 D
1 72 D
1 177 D
1 89 D
1 -26 D
1 1 D
1 42 D
1 2 D
1 -85 D
1 -115 D
1 -3 D
1 98 D
1 82 D
1 -26 D
1 -188 D
1 -329 D
1 41 D
0 320 D
1 106 D
1 -13 D
1 -18 D
1 -9 D
1 2 D
1 -59 D
1 -156 D
1 71 D
1 196 D
1 39 D
1 -2 D
1 18 D
1 19 D
1 -62 D
1 -292 D
1 -271 D
1 118 D
0 277 D
1 184 D
1 52 D
1 13 D
1 6 D
1 -7 D
1 -22 D
1 12 D
1 22 D
1 -2 D
1 -7 D
1 -3 D
1 -1 D
1 1 D
1 4 D
1 -24 D
1 -147 D
1 -218 D
0 118 D
1 205 D
1 50 D
1 8 D
1 2 D
1 -11 D
1 -13 D
1 0 D
1 -11 D
1 -16 D
1 9 D
1 14 D
1 -4 D
1 -60 D
1 -233 D
1 -175 D
1 226 D
1 185 D
0 37 D
2 10 D
1 1 D
1 -6 D
1 -19 D
1 -8 D
1 16 D
1 3 D
1 -6 D
1 2 D
1 0 D
1 -9 D
1 -69 D
1 -274 D
1 -196 D
1 232 D
1 243 D
0 85 D
1 17 D
1 7 D
2 10 D
1 9 D
1 8 D
1 -5 D
1 -35 D
1 -116 D
1 -138 D
1 61 D
1 142 D
1 44 D
1 3 D
1 -2 D
1 -1 D
1 -4 D
0 -3 D
1 -2 D
1 -1 D
1 0 D
3 -6 D
1 2 D
2 -4 D
1 -23 D
1 -68 D
1 -26 D
1 40 D
1 42 D
1 -50 D
1 -58 D
1 81 D
0 65 D
1 14 D
1 2 D
1 7 D
1 3 D
2 -4 D
1 -3 D
1 12 D
1 5 D
1 -2 D
1 5 D
1 2 D
1 0 D
1 -13 D
1 -50 D
1 -108 D
1 -21 D
1 -78 D
0 -142 D
1 183 D
1 172 D
1 35 D
1 10 D
1 0 D
1 -7 D
1 -13 D
1 1 D
1 12 D
1 3 D
1 6 D
1 -3 D
1 -5 D
1 9 D
2 -22 D
1 -6 D
0 -8 D
1 21 D
1 11 D
1 -33 D
1 -95 D
1 -75 D
1 115 D
1 78 D
1 -13 D
1 9 D
1 17 D
1 -4 D
1 0 D
1 17 D
1 -5 D
1 -2 D
1 6 D
1 -2 D
0 -1 D
1 -34 D
1 -97 D
1 12 D
1 97 D
1 38 D
1 5 D
1 -8 D
1 -15 D
1 -62 D
1 -79 D
1 62 D
1 74 D
1 18 D
1 -1 D
1 -2 D
1 5 D
1 -21 D
0 -65 D
1 -20 D
1 51 D
1 -9 D
1 -11 D
1 41 D
1 21 D
1 9 D
1 1 D
1 -2 D
1 -1 D
2 -30 D
1 6 D
1 8 D
1 2 D
1 -4 D
1 -37 D
0 -27 D
1 40 D
1 21 D
1 0 D
1 -5 D
1 -14 D
1 -11 D
2 20 D
1 -4 D
1 4 D
1 0 D
1 3 D
2 -2 D
1 -14 D
1 -34 D
1 -20 D
0 36 D
2 28 D
1 -7 D
1 1 D
1 -8 D
1 1 D
1 0 D
1 -20 D
1 -45 D
1 -60 D
1 55 D
1 52 D
1 14 D
1 4 D
1 -14 D
1 2 D
1 -25 D
0 -10 D
1 -33 D
1 -82 D
1 -20 D
1 -13 D
1 -52 D
1 -109 D
1 -104 D
1 18 D
1 -19 D
1 -61 D
1 -75 D
1 -70 D
1 -65 D
1 -72 D
1 -54 D
1 -50 D
1 -47 D
1 -6 D
0 24 D
1 -20 D
1 -9 D
1 -3 D
1 -41 D
1 -54 D
1 -33 D
1 47 D
1 -13 D
1 -22 D
1 -48 D
1 -3 D
1 10 D
1 19 D
1 59 D
1 -53 D
1 -1 D
1 104 D
0 17 D
1 28 D
1 -26 D
1 8 D
1 127 D
1 65 D
1 103 D
1 151 D
1 43 D
1 114 D
1 153 D
1 25 D
1 -50 D
1 -240 D
1 -428 D
1 -233 D
1 -29 D
1 3 D
0 -2 D
1 24 D
1 32 D
1 54 D
1 17 D
1 10 D
1 49 D
1 42 D
1 -22 D
1 9 D
1 92 D
1 36 D
1 -31 D
1 43 D
1 31 D
1 -35 D
1 10 D
1 60 D
0 -12 D
1 -60 D
1 -15 D
1 36 D
1 11 D
1 -34 D
1 7 D
1 42 D
1 0 D
1 -41 D
1 3 D
1 36 D
1 8 D
1 -27 D
1 21 D
1 38 D
1 -10 D
1 -37 D
0 17 D
1 51 D
1 21 D
1 -48 D
1 14 D
1 38 D
1 48 D
1 -16 D
1 24 D
1 41 D
1 7 D
1 -39 D
1 -9 D
1 66 D
1 36 D
1 0 D
1 -42 D
1 38 D
0 36 D
1 4 D
1 -4 D
1 7 D
1 77 D
1 29 D
1 -12 D
1 -10 D
1 7 D
1 45 D
1 4 D
1 10 D
1 3 D
1 14 D
1 51 D
1 1 D
1 7 D
1 13 D
0 12 D
1 59 D
1 -12 D
1 -14 D
1 2 D
1 4 D
1 68 D
1 0 D
1 -10 D
1 20 D
1 1 D
1 49 D
1 -1 D
1 -23 D
1 21 D
1 -10 D
1 30 D
1 23 D
1 -21 D
0 12 D
1 0 D
1 8 D
1 33 D
1 -5 D
1 -6 D
1 12 D
1 -1 D
1 17 D
1 14 D
1 -11 D
1 0 D
1 7 D
1 3 D
1 12 D
1 6 D
1 -9 D
1 0 D
0 6 D
1 2 D
1 11 D
1 -3 D
1 -5 D
1 5 D
1 -1 D
1 7 D
1 0 D
1 1 D
1 -3 D
1 -5 D
1 6 D
1 -13 D
1 4 D
1 9 D
1 -25 D
1 12 D
0 18 D
1 -15 D
1 -2 D
1 -7 D
1 -1 D
1 27 D
1 -5 D
1 -17 D
1 10 D
1 2 D
1 1 D
1 18 D
1 -7 D
1 -6 D
1 17 D
1 -6 D
1 -9 D
1 10 D
0 -4 D
1 -5 D
1 15 D
1 4 D
1 -8 D
1 9 D
1 6 D
1 -6 D
1 3 D
1 6 D
2 -2 D
1 3 D
1 1 D
1 -3 D
1 -9 D
1 0 D
1 8 D
0 -3 D
1 -8 D
1 6 D
1 4 D
1 -13 D
1 -11 D
1 -5 D
1 -6 D
1 3 D
1 14 D
1 5 D
1 -17 D
1 -3 D
1 23 D
1 7 D
1 -18 D
1 -5 D
1 20 D
0 1 D
1 -22 D
1 -1 D
1 -16 D
1 -56 D
1 15 D
1 54 D
1 24 D
1 -6 D
1 -17 D
1 11 D
1 15 D
1 -8 D
1 -16 D
1 12 D
1 16 D
1 -5 D
1 -17 D
0 6 D
1 14 D
1 -5 D
1 -14 D
1 5 D
1 15 D
1 1 D
1 -12 D
1 -3 D
1 13 D
1 4 D
1 -8 D
1 -7 D
1 9 D
1 7 D
1 -4 D
1 -8 D
1 3 D
1 8 D
1 -6 D
1 -3 D
1 7 D
1 3 D
1 -2 D
1 -6 D
1 3 D
1 4 D
1 1 D
1 -5 D
1 -4 D
1 5 D
1 4 D
1 -1 D
1 -3 D
1 0 D
1 3 D
0 -4 D
1 -29 D
1 -44 D
1 26 D
1 42 D
1 9 D
1 -1 D
1 -9 D
1 -34 D
1 -27 D
1 36 D
1 26 D
1 6 D
1 2 D
1 1 D
1 0 D
1 -2 D
1 -7 D
1 7 D
1 2 D
5 0 D
1 -1 D
1 -2 D
1 -4 D
1 2 D
1 4 D
1 1 D
1 -1 D
3 0 D
0 -2 D
1 -2 D
1 -3 D
1 -35 D
1 -80 D
1 23 D
1 76 D
1 20 D
1 2 D
1 -2 D
1 -6 D
1 -4 D
1 6 D
1 4 D
1 2 D
1 1 D
1 -1 D
12 0 D
1 -1 D
1 -2 D
1 -1 D
2 2 D
1 0 D
1 1 D
8 0 D
1 -1 D
1 -6 D
1 -5 D
1 5 D
1 1 D
1 -3 D
1 4 D
1 0 D
0 -12 D
1 -4 D
1 6 D
1 -46 D
1 -88 D
1 43 D
1 82 D
1 20 D
1 2 D
1 0 D
1 -1 D
1 -6 D
1 -31 D
1 -22 D
1 31 D
1 21 D
1 6 D
1 1 D
1 -2 D
0 -12 D
1 -11 D
1 13 D
1 10 D
1 2 D
1 -1 D
1 -13 D
1 -34 D
1 -2 D
1 35 D
1 13 D
2 2 D
2 -2 D
1 0 D
1 1 D
5 0 D
1 -1 D
1 -2 D
1 -25 D
1 -77 D
1 -7 D
1 78 D
1 29 D
1 3 D
1 1 D
4 0 D
1 -1 D
2 0 D
1 -5 D
1 -24 D
1 -26 D
1 14 D
1 24 D
1 13 D
1 3 D
8 0 D
2 -2 D
2 0 D
1 -4 D
1 0 D
1 4 D
1 1 D
1 -1 D
3 0 D
1 -1 D
1 -5 D
1 -34 D
1 -70 D
0 21 D
1 63 D
1 4 D
1 -40 D
1 -109 D
S 2121 1548 M
1 -113 D
1 98 D
1 142 D
1 36 D
1 3 D
1 0 D
1 -8 D
1 -61 D
1 -83 D
1 60 D
1 77 D
1 15 D
1 2 D
4 0 D
1 -1 D
1 0 D
1 1 D
1 0 D
1 -1 D
4 0 D
1 -1 D
1 -7 D
1 -21 D
1 -3 D
0 20 D
1 7 D
1 -8 D
1 -42 D
1 -60 D
1 35 D
1 61 D
1 15 D
1 1 D
1 -1 D
1 0 D
1 1 D
3 0 D
1 -2 D
1 -5 D
1 -1 D
1 5 D
0 2 D
4 0 D
1 -1 D
4 0 D
1 -1 D
3 0 D
1 -1 D
1 0 D
1 -1 D
1 -2 D
0 -8 D
1 -38 D
1 -78 D
1 15 D
1 72 D
1 28 D
1 7 D
1 1 D
1 -12 D
1 -51 D
1 -26 D
1 55 D
1 31 D
1 4 D
1 -1 D
1 -2 D
1 1 D
1 0 D
1 -2 D
1 -1 D
1 3 D
1 0 D
1 -2 D
1 -3 D
1 1 D
1 4 D
1 -1 D
2 -8 D
2 8 D
1 -3 D
1 -7 D
1 -1 D
1 6 D
0 1 D
1 -5 D
1 -10 D
1 1 D
1 -15 D
1 -62 D
1 -30 D
1 -18 D
1 34 D
1 77 D
1 19 D
1 -10 D
1 -2 D
1 14 D
1 5 D
1 -8 D
1 -16 D
1 5 D
0 14 D
1 2 D
1 -13 D
1 -17 D
1 5 D
1 -38 D
1 -122 D
1 -16 D
1 106 D
1 70 D
1 18 D
1 -6 D
1 -25 D
1 -9 D
1 23 D
1 16 D
1 -8 D
1 -25 D
0 4 D
1 2 D
1 -94 D
1 -124 D
1 20 D
1 82 D
1 101 D
1 35 D
1 -13 D
1 -21 D
1 17 D
1 18 D
1 -1 D
1 -21 D
1 -20 D
1 8 D
1 -55 D
1 -214 D
0 -320 D
1 64 D
1 350 D
1 101 D
1 5 D
1 36 D
1 10 D
1 -42 D
1 -250 D
1 -194 D
1 245 D
1 214 D
1 60 D
1 2 D
1 -68 D
1 -115 D
1 53 D
1 97 D
1 10 D
0 -35 D
1 -94 D
1 -173 D
1 -163 D
1 98 D
1 270 D
1 112 D
1 15 D
1 1 D
1 -4 D
1 5 D
1 1 D
1 -1 D
1 -2 D
1 -7 D
1 4 D
1 3 D
1 0 D
0 -6 D
1 -11 D
1 6 D
1 5 D
1 -7 D
1 -13 D
1 -36 D
1 -118 D
1 -285 D
1 -18 D
1 293 D
1 121 D
1 32 D
1 20 D
1 0 D
1 -3 D
1 -19 D
1 4 D
0 18 D
1 0 D
1 -5 D
1 -14 D
1 -2 D
1 13 D
1 -40 D
1 -106 D
1 -2 D
1 83 D
1 47 D
1 13 D
1 -6 D
1 -42 D
1 -167 D
1 -152 D
1 158 D
1 160 D
0 -1 D
1 -133 D
1 -58 D
1 141 D
1 79 D
1 6 D
1 -21 D
1 6 D
1 23 D
1 -4 D
1 -9 D
1 -10 D
1 -2 D
1 17 D
1 -9 D
1 -21 D
1 -14 D
1 -6 D
0 19 D
1 -41 D
1 -69 D
1 41 D
1 17 D
1 -77 D
 S
S 0 A
%
% Start of basemap
%
S [] 0 B
%
% Map boundaries
%
%
% Start of left y-axis
%
-3.25261e-15 0 T 90 R
/PSL_sign 1 def
/PSL_TL1 24 def
/PSL_AO0 24 def
/PSL_AO1 0 def
/PSL_LO 35 def
/PSL_HO 56 def
/PSL_AH0 0 def
/PSL_AH1 0 def
/PSL_AF0 58 def
/PSL_AF1 67 def
/PSL_LF 100 def
%
% Axis tick marks
%
S 4 W
S [] 0 B
0 0 M 1772 0 D S
S 2 W
S [] 0 B
0 0 M 0 24 D S
354 0 M 0 24 D S
709 0 M 0 24 D S
1063 0 M 0 24 D S
1417 0 M 0 24 D S
1772 0 M 0 24 D S
0 0 M 58 F0 (0.0) true charpath flattenpath pathbbox N exch 2 {3 1 roll sub abs} repeat /PSL_dimx exch def /PSL_dimy exch def
PSL_dimx PSL_AH0 gt {/PSL_AH0 PSL_dimx def} if
0 0 M 58 F0 (0.2) true charpath flattenpath pathbbox N exch 2 {3 1 roll sub abs} repeat /PSL_dimx exch def /PSL_dimy exch def
PSL_dimx PSL_AH0 gt {/PSL_AH0 PSL_dimx def} if
0 0 M 58 F0 (0.4) true charpath flattenpath pathbbox N exch 2 {3 1 roll sub abs} repeat /PSL_dimx exch def /PSL_dimy exch def
PSL_dimx PSL_AH0 gt {/PSL_AH0 PSL_dimx def} if
0 0 M 58 F0 (0.6) true charpath flattenpath pathbbox N exch 2 {3 1 roll sub abs} repeat /PSL_dimx exch def /PSL_dimy exch def
PSL_dimx PSL_AH0 gt {/PSL_AH0 PSL_dimx def} if
0 0 M 58 F0 (0.8) true charpath flattenpath pathbbox N exch 2 {3 1 roll sub abs} repeat /PSL_dimx exch def /PSL_dimy exch def
PSL_dimx PSL_AH0 gt {/PSL_AH0 PSL_dimx def} if
0 0 M 58 F0 (1.0) true charpath flattenpath pathbbox N exch 2 {3 1 roll sub abs} repeat /PSL_dimx exch def /PSL_dimy exch def
PSL_dimx PSL_AH0 gt {/PSL_AH0 PSL_dimx def} if
0 0 M 0 12 D S
354 0 M 0 12 D S
709 0 M 0 12 D S
1063 0 M 0 12 D S
1417 0 M 0 12 D S
1772 0 M 0 12 D S
/PSL_LH 0 def
/PSL_A0_y PSL_AO0 PSL_TL1 PSL_AO0 mul 0 gt {PSL_TL1 add} if PSL_AO0 0 gt {PSL_sign 0 lt {PSL_AH0} {0} ifelse add} if PSL_sign mul def
/PSL_A1_y PSL_A0_y abs PSL_AO1 add PSL_sign 0 lt {PSL_AH1} {PSL_AH0} ifelse add PSL_sign mul def
/PSL_L_y PSL_A1_y abs PSL_LO add PSL_sign 0 lt {PSL_LH} {PSL_AH1} ifelse add PSL_sign mul def
/PSL_x 0 def
0 0 M 58 F0 (0.0) true charpath flattenpath pathbbox N exch 2 {3 1 roll sub abs} repeat /PSL_dimx exch def /PSL_dimy exch def
/PSL_y_off PSL_dimy 0.5 mul neg def
PSL_x PSL_A0_y M
currentpoint /PSL_save_y exch def /PSL_save_x exch def
0 0 M 58 F0 (0.0) true charpath flattenpath pathbbox N exch 2 {3 1 roll sub abs} repeat /PSL_dimx exch def /PSL_dimy exch def
PSL_save_x PSL_save_y m
V -90 R 0 PSL_dimx -1.0 mul PSL_dimy -0.5 mul G 58 F0 (0.0) Z U
/PSL_x 354 def
0 0 M 58 F0 (0.2) true charpath flattenpath pathbbox N exch 2 {3 1 roll sub abs} repeat /PSL_dimx exch def /PSL_dimy exch def
/PSL_y_off PSL_dimy 0.5 mul neg def
PSL_x PSL_A0_y M
currentpoint /PSL_save_y exch def /PSL_save_x exch def
0 0 M 58 F0 (0.2) true charpath flattenpath pathbbox N exch 2 {3 1 roll sub abs} repeat /PSL_dimx exch def /PSL_dimy exch def
PSL_save_x PSL_save_y m
V -90 R 0 PSL_dimx -1.0 mul PSL_dimy -0.5 mul G 58 F0 (0.2) Z U
/PSL_x 709 def
0 0 M 58 F0 (0.4) true charpath flattenpath pathbbox N exch 2 {3 1 roll sub abs} repeat /PSL_dimx exch def /PSL_dimy exch def
/PSL_y_off PSL_dimy 0.5 mul neg def
PSL_x PSL_A0_y M
currentpoint /PSL_save_y exch def /PSL_save_x exch def
0 0 M 58 F0 (0.4) true charpath flattenpath pathbbox N exch 2 {3 1 roll sub abs} repeat /PSL_dimx exch def /PSL_dimy exch def
PSL_save_x PSL_save_y m
V -90 R 0 PSL_dimx -1.0 mul PSL_dimy -0.5 mul G 58 F0 (0.4) Z U
/PSL_x 1063 def
0 0 M 58 F0 (0.6) true charpath flattenpath pathbbox N exch 2 {3 1 roll sub abs} repeat /PSL_dimx exch def /PSL_dimy exch def
/PSL_y_off PSL_dimy 0.5 mul neg def
PSL_x PSL_A0_y M
currentpoint /PSL_save_y exch def /PSL_save_x exch def
0 0 M 58 F0 (0.6) true charpath flattenpath pathbbox N exch 2 {3 1 roll sub abs} repeat /PSL_dimx exch def /PSL_dimy exch def
PSL_save_x PSL_save_y m
V -90 R 0 PSL_dimx -1.0 mul PSL_dimy -0.5 mul G 58 F0 (0.6) Z U
/PSL_x 1417 def
0 0 M 58 F0 (0.8) true charpath flattenpath pathbbox N exch 2 {3 1 roll sub abs} repeat /PSL_dimx exch def /PSL_dimy exch def
/PSL_y_off PSL_dimy 0.5 mul neg def
PSL_x PSL_A0_y M
currentpoint /PSL_save_y exch def /PSL_save_x exch def
0 0 M 58 F0 (0.8) true charpath flattenpath pathbbox N exch 2 {3 1 roll sub abs} repeat /PSL_dimx exch def /PSL_dimy exch def
PSL_save_x PSL_save_y m
V -90 R 0 PSL_dimx -1.0 mul PSL_dimy -0.5 mul G 58 F0 (0.8) Z U
/PSL_x 1772 def
0 0 M 58 F0 (1.0) true charpath flattenpath pathbbox N exch 2 {3 1 roll sub abs} repeat /PSL_dimx exch def /PSL_dimy exch def
/PSL_y_off PSL_dimy 0.5 mul neg def
PSL_x PSL_A0_y M
currentpoint /PSL_save_y exch def /PSL_save_x exch def
0 0 M 58 F0 (1.0) true charpath flattenpath pathbbox N exch 2 {3 1 roll sub abs} repeat /PSL_dimx exch def /PSL_dimy exch def
PSL_save_x PSL_save_y m
V -90 R 0 PSL_dimx -1.0 mul PSL_dimy -0.5 mul G 58 F0 (1.0) Z U
-90 R 3.25261e-15 -0 T
%
% End of left y-axis
%
%
% Start of right y-axis
%
2362.2 0 T 90 R
/PSL_sign -1 def
/PSL_TL1 24 def
/PSL_AO0 24 def
/PSL_AO1 0 def
/PSL_LO 35 def
/PSL_HO 56 def
/PSL_AH0 0 def
/PSL_AH1 0 def
/PSL_AF0 58 def
/PSL_AF1 67 def
/PSL_LF 100 def
%
% Axis tick marks
%
S 4 W
S [] 0 B
0 0 M 1772 0 D S
S 2 W
S [] 0 B
0 0 M 0 -24 D S
354 0 M 0 -24 D S
709 0 M 0 -24 D S
1063 0 M 0 -24 D S
1417 0 M 0 -24 D S
1772 0 M 0 -24 D S
0 0 M 58 F0 (0.0) true charpath flattenpath pathbbox N exch 2 {3 1 roll sub abs} repeat /PSL_dimx exch def /PSL_dimy exch def
PSL_dimx PSL_AH0 gt {/PSL_AH0 PSL_dimx def} if
0 0 M 58 F0 (0.2) true charpath flattenpath pathbbox N exch 2 {3 1 roll sub abs} repeat /PSL_dimx exch def /PSL_dimy exch def
PSL_dimx PSL_AH0 gt {/PSL_AH0 PSL_dimx def} if
0 0 M 58 F0 (0.4) true charpath flattenpath pathbbox N exch 2 {3 1 roll sub abs} repeat /PSL_dimx exch def /PSL_dimy exch def
PSL_dimx PSL_AH0 gt {/PSL_AH0 PSL_dimx def} if
0 0 M 58 F0 (0.6) true charpath flattenpath pathbbox N exch 2 {3 1 roll sub abs} repeat /PSL_dimx exch def /PSL_dimy exch def
PSL_dimx PSL_AH0 gt {/PSL_AH0 PSL_dimx def} if
0 0 M 58 F0 (0.8) true charpath flattenpath pathbbox N exch 2 {3 1 roll sub abs} repeat /PSL_dimx exch def /PSL_dimy exch def
PSL_dimx PSL_AH0 gt {/PSL_AH0 PSL_dimx def} if
0 0 M 58 F0 (1.0) true charpath flattenpath pathbbox N exch 2 {3 1 roll sub abs} repeat /PSL_dimx exch def /PSL_dimy exch def
PSL_dimx PSL_AH0 gt {/PSL_AH0 PSL_dimx def} if
0 0 M 0 -12 D S
354 0 M 0 -12 D S
709 0 M 0 -12 D S
1063 0 M 0 -12 D S
1417 0 M 0 -12 D S
1772 0 M 0 -12 D S
/PSL_LH 0 def
/PSL_A0_y PSL_AO0 PSL_TL1 PSL_AO0 mul 0 gt {PSL_TL1 add} if PSL_AO0 0 gt {PSL_sign 0 lt {PSL_AH0} {0} ifelse add} if PSL_sign mul def
/PSL_A1_y PSL_A0_y abs PSL_AO1 add PSL_sign 0 lt {PSL_AH1} {PSL_AH0} ifelse add PSL_sign mul def
/PSL_L_y PSL_A1_y abs PSL_LO add PSL_sign 0 lt {PSL_LH} {PSL_AH1} ifelse add PSL_sign mul def
/PSL_x 0 def
0 0 M 58 F0 (0.0) true charpath flattenpath pathbbox N exch 2 {3 1 roll sub abs} repeat /PSL_dimx exch def /PSL_dimy exch def
/PSL_y_off PSL_dimy 0.5 mul neg def
PSL_x PSL_A0_y M
currentpoint /PSL_save_y exch def /PSL_save_x exch def
0 0 M 58 F0 (0.0) true charpath flattenpath pathbbox N exch 2 {3 1 roll sub abs} repeat /PSL_dimx exch def /PSL_dimy exch def
PSL_save_x PSL_save_y m
V -90 R 0 PSL_dimx -1.0 mul PSL_dimy -0.5 mul G 58 F0 (0.0) Z U
/PSL_x 354 def
0 0 M 58 F0 (0.2) true charpath flattenpath pathbbox N exch 2 {3 1 roll sub abs} repeat /PSL_dimx exch def /PSL_dimy exch def
/PSL_y_off PSL_dimy 0.5 mul neg def
PSL_x PSL_A0_y M
currentpoint /PSL_save_y exch def /PSL_save_x exch def
0 0 M 58 F0 (0.2) true charpath flattenpath pathbbox N exch 2 {3 1 roll sub abs} repeat /PSL_dimx exch def /PSL_dimy exch def
PSL_save_x PSL_save_y m
V -90 R 0 PSL_dimx -1.0 mul PSL_dimy -0.5 mul G 58 F0 (0.2) Z U
/PSL_x 709 def
0 0 M 58 F0 (0.4) true charpath flattenpath pathbbox N exch 2 {3 1 roll sub abs} repeat /PSL_dimx exch def /PSL_dimy exch def
/PSL_y_off PSL_dimy 0.5 mul neg def
PSL_x PSL_A0_y M
currentpoint /PSL_save_y exch def /PSL_save_x exch def
0 0 M 58 F0 (0.4) true charpath flattenpath pathbbox N exch 2 {3 1 roll sub abs} repeat /PSL_dimx exch def /PSL_dimy exch def
PSL_save_x PSL_save_y m
V -90 R 0 PSL_dimx -1.0 mul PSL_dimy -0.5 mul G 58 F0 (0.4) Z U
/PSL_x 1063 def
0 0 M 58 F0 (0.6) true charpath flattenpath pathbbox N exch 2 {3 1 roll sub abs} repeat /PSL_dimx exch def /PSL_dimy exch def
/PSL_y_off PSL_dimy 0.5 mul neg def
PSL_x PSL_A0_y M
currentpoint /PSL_save_y exch def /PSL_save_x exch def
0 0 M 58 F0 (0.6) true charpath flattenpath pathbbox N exch 2 {3 1 roll sub abs} repeat /PSL_dimx exch def /PSL_dimy exch def
PSL_save_x PSL_save_y m
V -90 R 0 PSL_dimx -1.0 mul PSL_dimy -0.5 mul G 58 F0 (0.6) Z U
/PSL_x 1417 def
0 0 M 58 F0 (0.8) true charpath flattenpath pathbbox N exch 2 {3 1 roll sub abs} repeat /PSL_dimx exch def /PSL_dimy exch def
/PSL_y_off PSL_dimy 0.5 mul neg def
PSL_x PSL_A0_y M
currentpoint /PSL_save_y exch def /PSL_save_x exch def
0 0 M 58 F0 (0.8) true charpath flattenpath pathbbox N exch 2 {3 1 roll sub abs} repeat /PSL_dimx exch def /PSL_dimy exch def
PSL_save_x PSL_save_y m
V -90 R 0 PSL_dimx -1.0 mul PSL_dimy -0.5 mul G 58 F0 (0.8) Z U
/PSL_x 1772 def
0 0 M 58 F0 (1.0) true charpath flattenpath pathbbox N exch 2 {3 1 roll sub abs} repeat /PSL_dimx exch def /PSL_dimy exch def
/PSL_y_off PSL_dimy 0.5 mul neg def
PSL_x PSL_A0_y M
currentpoint /PSL_save_y exch def /PSL_save_x exch def
0 0 M 58 F0 (1.0) true charpath flattenpath pathbbox N exch 2 {3 1 roll sub abs} repeat /PSL_dimx exch def /PSL_dimy exch def
PSL_save_x PSL_save_y m
V -90 R 0 PSL_dimx -1.0 mul PSL_dimy -0.5 mul G 58 F0 (1.0) Z U
-90 R -2362.2 -0 T
%
% End of right y-axis
%
%
% Start of lower x-axis
%
-3.25261e-15 0 T
/PSL_sign -1 def
/PSL_TL1 24 def
/PSL_AO0 24 def
/PSL_AO1 0 def
/PSL_LO 35 def
/PSL_HO 56 def
/PSL_AH0 0 def
/PSL_AH1 0 def
/PSL_AF0 58 def
/PSL_AF1 67 def
/PSL_LF 100 def
%
% Axis tick marks
%
S 4 W
S [] 0 B
0 0 M 2362 0 D S
S 2 W
S [] 0 B
94 0 M 0 -24 D S
283 0 M 0 -24 D S
472 0 M 0 -24 D S
661 0 M 0 -24 D S
850 0 M 0 -24 D S
1039 0 M 0 -24 D S
1228 0 M 0 -24 D S
1417 0 M 0 -24 D S
1606 0 M 0 -24 D S
1795 0 M 0 -24 D S
1984 0 M 0 -24 D S
2173 0 M 0 -24 D S
2362 0 M 0 -24 D S
0 0 M 58 F0 (1000) true charpath flattenpath pathbbox N exch 2 {3 1 roll sub abs} repeat /PSL_dimx exch def /PSL_dimy exch def
PSL_dimy PSL_AH0 gt {/PSL_AH0 PSL_dimy def} if
0 0 M 58 F0 (2000) true charpath flattenpath pathbbox N exch 2 {3 1 roll sub abs} repeat /PSL_dimx exch def /PSL_dimy exch def
PSL_dimy PSL_AH0 gt {/PSL_AH0 PSL_dimy def} if
0 0 M 58 F0 (3000) true charpath flattenpath pathbbox N exch 2 {3 1 roll sub abs} repeat /PSL_dimx exch def /PSL_dimy exch def
PSL_dimy PSL_AH0 gt {/PSL_AH0 PSL_dimy def} if
0 0 M 58 F0 (4000) true charpath flattenpath pathbbox N exch 2 {3 1 roll sub abs} repeat /PSL_dimx exch def /PSL_dimy exch def
PSL_dimy PSL_AH0 gt {/PSL_AH0 PSL_dimy def} if
0 0 M 58 F0 (5000) true charpath flattenpath pathbbox N exch 2 {3 1 roll sub abs} repeat /PSL_dimx exch def /PSL_dimy exch def
PSL_dimy PSL_AH0 gt {/PSL_AH0 PSL_dimy def} if
0 0 M 58 F0 (6000) true charpath flattenpath pathbbox N exch 2 {3 1 roll sub abs} repeat /PSL_dimx exch def /PSL_dimy exch def
PSL_dimy PSL_AH0 gt {/PSL_AH0 PSL_dimy def} if
0 0 M 58 F0 (7000) true charpath flattenpath pathbbox N exch 2 {3 1 roll sub abs} repeat /PSL_dimx exch def /PSL_dimy exch def
PSL_dimy PSL_AH0 gt {/PSL_AH0 PSL_dimy def} if
0 0 M 58 F0 (8000) true charpath flattenpath pathbbox N exch 2 {3 1 roll sub abs} repeat /PSL_dimx exch def /PSL_dimy exch def
PSL_dimy PSL_AH0 gt {/PSL_AH0 PSL_dimy def} if
0 0 M 58 F0 (9000) true charpath flattenpath pathbbox N exch 2 {3 1 roll sub abs} repeat /PSL_dimx exch def /PSL_dimy exch def
PSL_dimy PSL_AH0 gt {/PSL_AH0 PSL_dimy def} if
0 0 M 58 F0 (10000) true charpath flattenpath pathbbox N exch 2 {3 1 roll sub abs} repeat /PSL_dimx exch def /PSL_dimy exch def
PSL_dimy PSL_AH0 gt {/PSL_AH0 PSL_dimy def} if
0 0 M 58 F0 (11000) true charpath flattenpath pathbbox N exch 2 {3 1 roll sub abs} repeat /PSL_dimx exch def /PSL_dimy exch def
PSL_dimy PSL_AH0 gt {/PSL_AH0 PSL_dimy def} if
0 0 M 58 F0 (12000) true charpath flattenpath pathbbox N exch 2 {3 1 roll sub abs} repeat /PSL_dimx exch def /PSL_dimy exch def
PSL_dimy PSL_AH0 gt {/PSL_AH0 PSL_dimy def} if
0 0 M 58 F0 (13000) true charpath flattenpath pathbbox N exch 2 {3 1 roll sub abs} repeat /PSL_dimx exch def /PSL_dimy exch def
PSL_dimy PSL_AH0 gt {/PSL_AH0 PSL_dimy def} if
94 0 M 0 -12 D S
283 0 M 0 -12 D S
472 0 M 0 -12 D S
661 0 M 0 -12 D S
850 0 M 0 -12 D S
1039 0 M 0 -12 D S
1228 0 M 0 -12 D S
1417 0 M 0 -12 D S
1606 0 M 0 -12 D S
1795 0 M 0 -12 D S
1984 0 M 0 -12 D S
2173 0 M 0 -12 D S
2362 0 M 0 -12 D S
/PSL_LH 0 def
/PSL_A0_y PSL_AO0 PSL_TL1 PSL_AO0 mul 0 gt {PSL_TL1 add} if PSL_AO0 0 gt {PSL_sign 0 lt {PSL_AH0} {0} ifelse add} if PSL_sign mul def
/PSL_A1_y PSL_A0_y abs PSL_AO1 add PSL_sign 0 lt {PSL_AH1} {PSL_AH0} ifelse add PSL_sign mul def
/PSL_L_y PSL_A1_y abs PSL_LO add PSL_sign 0 lt {PSL_LH} {PSL_AH1} ifelse add PSL_sign mul def
/PSL_x 94 def
0 0 M 58 F0 (1000) true charpath flattenpath pathbbox N exch 2 {3 1 roll sub abs} repeat /PSL_dimx exch def /PSL_dimy exch def
PSL_x PSL_A0_y M
currentpoint /PSL_save_y exch def /PSL_save_x exch def
0 0 M 58 F0 (1000) true charpath flattenpath pathbbox N exch 2 {3 1 roll sub abs} repeat /PSL_dimx exch def /PSL_dimy exch def
PSL_save_x PSL_save_y m
0 PSL_dimx -0.5 mul 0 G 58 F0 (1000) Z
/PSL_x 283 def
0 0 M 58 F0 (2000) true charpath flattenpath pathbbox N exch 2 {3 1 roll sub abs} repeat /PSL_dimx exch def /PSL_dimy exch def
PSL_x PSL_A0_y M
currentpoint /PSL_save_y exch def /PSL_save_x exch def
0 0 M 58 F0 (2000) true charpath flattenpath pathbbox N exch 2 {3 1 roll sub abs} repeat /PSL_dimx exch def /PSL_dimy exch def
PSL_save_x PSL_save_y m
0 PSL_dimx -0.5 mul 0 G 58 F0 (2000) Z
/PSL_x 472 def
0 0 M 58 F0 (3000) true charpath flattenpath pathbbox N exch 2 {3 1 roll sub abs} repeat /PSL_dimx exch def /PSL_dimy exch def
PSL_x PSL_A0_y M
currentpoint /PSL_save_y exch def /PSL_save_x exch def
0 0 M 58 F0 (3000) true charpath flattenpath pathbbox N exch 2 {3 1 roll sub abs} repeat /PSL_dimx exch def /PSL_dimy exch def
PSL_save_x PSL_save_y m
0 PSL_dimx -0.5 mul 0 G 58 F0 (3000) Z
/PSL_x 661 def
0 0 M 58 F0 (4000) true charpath flattenpath pathbbox N exch 2 {3 1 roll sub abs} repeat /PSL_dimx exch def /PSL_dimy exch def
PSL_x PSL_A0_y M
currentpoint /PSL_save_y exch def /PSL_save_x exch def
0 0 M 58 F0 (4000) true charpath flattenpath pathbbox N exch 2 {3 1 roll sub abs} repeat /PSL_dimx exch def /PSL_dimy exch def
PSL_save_x PSL_save_y m
0 PSL_dimx -0.5 mul 0 G 58 F0 (4000) Z
/PSL_x 850 def
0 0 M 58 F0 (5000) true charpath flattenpath pathbbox N exch 2 {3 1 roll sub abs} repeat /PSL_dimx exch def /PSL_dimy exch def
PSL_x PSL_A0_y M
currentpoint /PSL_save_y exch def /PSL_save_x exch def
0 0 M 58 F0 (5000) true charpath flattenpath pathbbox N exch 2 {3 1 roll sub abs} repeat /PSL_dimx exch def /PSL_dimy exch def
PSL_save_x PSL_save_y m
0 PSL_dimx -0.5 mul 0 G 58 F0 (5000) Z
/PSL_x 1039 def
0 0 M 58 F0 (6000) true charpath flattenpath pathbbox N exch 2 {3 1 roll sub abs} repeat /PSL_dimx exch def /PSL_dimy exch def
PSL_x PSL_A0_y M
currentpoint /PSL_save_y exch def /PSL_save_x exch def
0 0 M 58 F0 (6000) true charpath flattenpath pathbbox N exch 2 {3 1 roll sub abs} repeat /PSL_dimx exch def /PSL_dimy exch def
PSL_save_x PSL_save_y m
0 PSL_dimx -0.5 mul 0 G 58 F0 (6000) Z
/PSL_x 1228 def
0 0 M 58 F0 (7000) true charpath flattenpath pathbbox N exch 2 {3 1 roll sub abs} repeat /PSL_dimx exch def /PSL_dimy exch def
PSL_x PSL_A0_y M
currentpoint /PSL_save_y exch def /PSL_save_x exch def
0 0 M 58 F0 (7000) true charpath flattenpath pathbbox N exch 2 {3 1 roll sub abs} repeat /PSL_dimx exch def /PSL_dimy exch def
PSL_save_x PSL_save_y m
0 PSL_dimx -0.5 mul 0 G 58 F0 (7000) Z
/PSL_x 1417 def
0 0 M 58 F0 (8000) true charpath flattenpath pathbbox N exch 2 {3 1 roll sub abs} repeat /PSL_dimx exch def /PSL_dimy exch def
PSL_x PSL_A0_y M
currentpoint /PSL_save_y exch def /PSL_save_x exch def
0 0 M 58 F0 (8000) true charpath flattenpath pathbbox N exch 2 {3 1 roll sub abs} repeat /PSL_dimx exch def /PSL_dimy exch def
PSL_save_x PSL_save_y m
0 PSL_dimx -0.5 mul 0 G 58 F0 (8000) Z
/PSL_x 1606 def
0 0 M 58 F0 (9000) true charpath flattenpath pathbbox N exch 2 {3 1 roll sub abs} repeat /PSL_dimx exch def /PSL_dimy exch def
PSL_x PSL_A0_y M
currentpoint /PSL_save_y exch def /PSL_save_x exch def
0 0 M 58 F0 (9000) true charpath flattenpath pathbbox N exch 2 {3 1 roll sub abs} repeat /PSL_dimx exch def /PSL_dimy exch def
PSL_save_x PSL_save_y m
0 PSL_dimx -0.5 mul 0 G 58 F0 (9000) Z
/PSL_x 1795 def
0 0 M 58 F0 (10000) true charpath flattenpath pathbbox N exch 2 {3 1 roll sub abs} repeat /PSL_dimx exch def /PSL_dimy exch def
PSL_x PSL_A0_y M
currentpoint /PSL_save_y exch def /PSL_save_x exch def
0 0 M 58 F0 (10000) true charpath flattenpath pathbbox N exch 2 {3 1 roll sub abs} repeat /PSL_dimx exch def /PSL_dimy exch def
PSL_save_x PSL_save_y m
0 PSL_dimx -0.5 mul 0 G 58 F0 (10000) Z
/PSL_x 1984 def
0 0 M 58 F0 (11000) true charpath flattenpath pathbbox N exch 2 {3 1 roll sub abs} repeat /PSL_dimx exch def /PSL_dimy exch def
PSL_x PSL_A0_y M
currentpoint /PSL_save_y exch def /PSL_save_x exch def
0 0 M 58 F0 (11000) true charpath flattenpath pathbbox N exch 2 {3 1 roll sub abs} repeat /PSL_dimx exch def /PSL_dimy exch def
PSL_save_x PSL_save_y m
0 PSL_dimx -0.5 mul 0 G 58 F0 (11000) Z
/PSL_x 2173 def
0 0 M 58 F0 (12000) true charpath flattenpath pathbbox N exch 2 {3 1 roll sub abs} repeat /PSL_dimx exch def /PSL_dimy exch def
PSL_x PSL_A0_y M
currentpoint /PSL_save_y exch def /PSL_save_x exch def
0 0 M 58 F0 (12000) true charpath flattenpath pathbbox N exch 2 {3 1 roll sub abs} repeat /PSL_dimx exch def /PSL_dimy exch def
PSL_save_x PSL_save_y m
0 PSL_dimx -0.5 mul 0 G 58 F0 (12000) Z
/PSL_x 2362 def
0 0 M 58 F0 (13000) true charpath flattenpath pathbbox N exch 2 {3 1 roll sub abs} repeat /PSL_dimx exch def /PSL_dimy exch def
PSL_x PSL_A0_y M
currentpoint /PSL_save_y exch def /PSL_save_x exch def
0 0 M 58 F0 (13000) true charpath flattenpath pathbbox N exch 2 {3 1 roll sub abs} repeat /PSL_dimx exch def /PSL_dimy exch def
PSL_save_x PSL_save_y m
0 PSL_dimx -0.5 mul 0 G 58 F0 (13000) Z
3.25261e-15 -0 T
%
% End of lower x-axis
%
%
% Start of upper x-axis
%
-3.25261e-15 1771.65 T
/PSL_sign 1 def
/PSL_TL1 24 def
/PSL_AO0 24 def
/PSL_AO1 0 def
/PSL_LO 35 def
/PSL_HO 56 def
/PSL_AH0 0 def
/PSL_AH1 0 def
/PSL_AF0 58 def
/PSL_AF1 67 def
/PSL_LF 100 def
%
% Axis tick marks
%
S 4 W
S [] 0 B
0 0 M 2362 0 D S
S 2 W
S [] 0 B
94 0 M 0 24 D S
283 0 M 0 24 D S
472 0 M 0 24 D S
661 0 M 0 24 D S
850 0 M 0 24 D S
1039 0 M 0 24 D S
1228 0 M 0 24 D S
1417 0 M 0 24 D S
1606 0 M 0 24 D S
1795 0 M 0 24 D S
1984 0 M 0 24 D S
2173 0 M 0 24 D S
2362 0 M 0 24 D S
0 0 M 58 F0 (1000) true charpath flattenpath pathbbox N exch 2 {3 1 roll sub abs} repeat /PSL_dimx exch def /PSL_dimy exch def
PSL_dimy PSL_AH0 gt {/PSL_AH0 PSL_dimy def} if
0 0 M 58 F0 (2000) true charpath flattenpath pathbbox N exch 2 {3 1 roll sub abs} repeat /PSL_dimx exch def /PSL_dimy exch def
PSL_dimy PSL_AH0 gt {/PSL_AH0 PSL_dimy def} if
0 0 M 58 F0 (3000) true charpath flattenpath pathbbox N exch 2 {3 1 roll sub abs} repeat /PSL_dimx exch def /PSL_dimy exch def
PSL_dimy PSL_AH0 gt {/PSL_AH0 PSL_dimy def} if
0 0 M 58 F0 (4000) true charpath flattenpath pathbbox N exch 2 {3 1 roll sub abs} repeat /PSL_dimx exch def /PSL_dimy exch def
PSL_dimy PSL_AH0 gt {/PSL_AH0 PSL_dimy def} if
0 0 M 58 F0 (5000) true charpath flattenpath pathbbox N exch 2 {3 1 roll sub abs} repeat /PSL_dimx exch def /PSL_dimy exch def
PSL_dimy PSL_AH0 gt {/PSL_AH0 PSL_dimy def} if
0 0 M 58 F0 (6000) true charpath flattenpath pathbbox N exch 2 {3 1 roll sub abs} repeat /PSL_dimx exch def /PSL_dimy exch def
PSL_dimy PSL_AH0 gt {/PSL_AH0 PSL_dimy def} if
0 0 M 58 F0 (7000) true charpath flattenpath pathbbox N exch 2 {3 1 roll sub abs} repeat /PSL_dimx exch def /PSL_dimy exch def
PSL_dimy PSL_AH0 gt {/PSL_AH0 PSL_dimy def} if
0 0 M 58 F0 (8000) true charpath flattenpath pathbbox N exch 2 {3 1 roll sub abs} repeat /PSL_dimx exch def /PSL_dimy exch def
PSL_dimy PSL_AH0 gt {/PSL_AH0 PSL_dimy def} if
0 0 M 58 F0 (9000) true charpath flattenpath pathbbox N exch 2 {3 1 roll sub abs} repeat /PSL_dimx exch def /PSL_dimy exch def
PSL_dimy PSL_AH0 gt {/PSL_AH0 PSL_dimy def} if
0 0 M 58 F0 (10000) true charpath flattenpath pathbbox N exch 2 {3 1 roll sub abs} repeat /PSL_dimx exch def /PSL_dimy exch def
PSL_dimy PSL_AH0 gt {/PSL_AH0 PSL_dimy def} if
0 0 M 58 F0 (11000) true charpath flattenpath pathbbox N exch 2 {3 1 roll sub abs} repeat /PSL_dimx exch def /PSL_dimy exch def
PSL_dimy PSL_AH0 gt {/PSL_AH0 PSL_dimy def} if
0 0 M 58 F0 (12000) true charpath flattenpath pathbbox N exch 2 {3 1 roll sub abs} repeat /PSL_dimx exch def /PSL_dimy exch def
PSL_dimy PSL_AH0 gt {/PSL_AH0 PSL_dimy def} if
0 0 M 58 F0 (13000) true charpath flattenpath pathbbox N exch 2 {3 1 roll sub abs} repeat /PSL_dimx exch def /PSL_dimy exch def
PSL_dimy PSL_AH0 gt {/PSL_AH0 PSL_dimy def} if
94 0 M 0 12 D S
283 0 M 0 12 D S
472 0 M 0 12 D S
661 0 M 0 12 D S
850 0 M 0 12 D S
1039 0 M 0 12 D S
1228 0 M 0 12 D S
1417 0 M 0 12 D S
1606 0 M 0 12 D S
1795 0 M 0 12 D S
1984 0 M 0 12 D S
2173 0 M 0 12 D S
2362 0 M 0 12 D S
/PSL_LH 0 def
/PSL_A0_y PSL_AO0 PSL_TL1 PSL_AO0 mul 0 gt {PSL_TL1 add} if PSL_AO0 0 gt {PSL_sign 0 lt {PSL_AH0} {0} ifelse add} if PSL_sign mul def
/PSL_A1_y PSL_A0_y abs PSL_AO1 add PSL_sign 0 lt {PSL_AH1} {PSL_AH0} ifelse add PSL_sign mul def
/PSL_L_y PSL_A1_y abs PSL_LO add PSL_sign 0 lt {PSL_LH} {PSL_AH1} ifelse add PSL_sign mul def
/PSL_H_y PSL_L_y PSL_LH add PSL_HO add def
/PSL_x 94 def
0 0 M 58 F0 (1000) true charpath flattenpath pathbbox N exch 2 {3 1 roll sub abs} repeat /PSL_dimx exch def /PSL_dimy exch def
PSL_x PSL_A0_y M
currentpoint /PSL_save_y exch def /PSL_save_x exch def
0 0 M 58 F0 (1000) true charpath flattenpath pathbbox N exch 2 {3 1 roll sub abs} repeat /PSL_dimx exch def /PSL_dimy exch def
PSL_save_x PSL_save_y m
0 PSL_dimx -0.5 mul 0 G 58 F0 (1000) Z
/PSL_x 283 def
0 0 M 58 F0 (2000) true charpath flattenpath pathbbox N exch 2 {3 1 roll sub abs} repeat /PSL_dimx exch def /PSL_dimy exch def
PSL_x PSL_A0_y M
currentpoint /PSL_save_y exch def /PSL_save_x exch def
0 0 M 58 F0 (2000) true charpath flattenpath pathbbox N exch 2 {3 1 roll sub abs} repeat /PSL_dimx exch def /PSL_dimy exch def
PSL_save_x PSL_save_y m
0 PSL_dimx -0.5 mul 0 G 58 F0 (2000) Z
/PSL_x 472 def
0 0 M 58 F0 (3000) true charpath flattenpath pathbbox N exch 2 {3 1 roll sub abs} repeat /PSL_dimx exch def /PSL_dimy exch def
PSL_x PSL_A0_y M
currentpoint /PSL_save_y exch def /PSL_save_x exch def
0 0 M 58 F0 (3000) true charpath flattenpath pathbbox N exch 2 {3 1 roll sub abs} repeat /PSL_dimx exch def /PSL_dimy exch def
PSL_save_x PSL_save_y m
0 PSL_dimx -0.5 mul 0 G 58 F0 (3000) Z
/PSL_x 661 def
0 0 M 58 F0 (4000) true charpath flattenpath pathbbox N exch 2 {3 1 roll sub abs} repeat /PSL_dimx exch def /PSL_dimy exch def
PSL_x PSL_A0_y M
currentpoint /PSL_save_y exch def /PSL_save_x exch def
0 0 M 58 F0 (4000) true charpath flattenpath pathbbox N exch 2 {3 1 roll sub abs} repeat /PSL_dimx exch def /PSL_dimy exch def
PSL_save_x PSL_save_y m
0 PSL_dimx -0.5 mul 0 G 58 F0 (4000) Z
/PSL_x 850 def
0 0 M 58 F0 (5000) true charpath flattenpath pathbbox N exch 2 {3 1 roll sub abs} repeat /PSL_dimx exch def /PSL_dimy exch def
PSL_x PSL_A0_y M
currentpoint /PSL_save_y exch def /PSL_save_x exch def
0 0 M 58 F0 (5000) true charpath flattenpath pathbbox N exch 2 {3 1 roll sub abs} repeat /PSL_dimx exch def /PSL_dimy exch def
PSL_save_x PSL_save_y m
0 PSL_dimx -0.5 mul 0 G 58 F0 (5000) Z
/PSL_x 1039 def
0 0 M 58 F0 (6000) true charpath flattenpath pathbbox N exch 2 {3 1 roll sub abs} repeat /PSL_dimx exch def /PSL_dimy exch def
PSL_x PSL_A0_y M
currentpoint /PSL_save_y exch def /PSL_save_x exch def
0 0 M 58 F0 (6000) true charpath flattenpath pathbbox N exch 2 {3 1 roll sub abs} repeat /PSL_dimx exch def /PSL_dimy exch def
PSL_save_x PSL_save_y m
0 PSL_dimx -0.5 mul 0 G 58 F0 (6000) Z
/PSL_x 1228 def
0 0 M 58 F0 (7000) true charpath flattenpath pathbbox N exch 2 {3 1 roll sub abs} repeat /PSL_dimx exch def /PSL_dimy exch def
PSL_x PSL_A0_y M
currentpoint /PSL_save_y exch def /PSL_save_x exch def
0 0 M 58 F0 (7000) true charpath flattenpath pathbbox N exch 2 {3 1 roll sub abs} repeat /PSL_dimx exch def /PSL_dimy exch def
PSL_save_x PSL_save_y m
0 PSL_dimx -0.5 mul 0 G 58 F0 (7000) Z
/PSL_x 1417 def
0 0 M 58 F0 (8000) true charpath flattenpath pathbbox N exch 2 {3 1 roll sub abs} repeat /PSL_dimx exch def /PSL_dimy exch def
PSL_x PSL_A0_y M
currentpoint /PSL_save_y exch def /PSL_save_x exch def
0 0 M 58 F0 (8000) true charpath flattenpath pathbbox N exch 2 {3 1 roll sub abs} repeat /PSL_dimx exch def /PSL_dimy exch def
PSL_save_x PSL_save_y m
0 PSL_dimx -0.5 mul 0 G 58 F0 (8000) Z
/PSL_x 1606 def
0 0 M 58 F0 (9000) true charpath flattenpath pathbbox N exch 2 {3 1 roll sub abs} repeat /PSL_dimx exch def /PSL_dimy exch def
PSL_x PSL_A0_y M
currentpoint /PSL_save_y exch def /PSL_save_x exch def
0 0 M 58 F0 (9000) true charpath flattenpath pathbbox N exch 2 {3 1 roll sub abs} repeat /PSL_dimx exch def /PSL_dimy exch def
PSL_save_x PSL_save_y m
0 PSL_dimx -0.5 mul 0 G 58 F0 (9000) Z
/PSL_x 1795 def
0 0 M 58 F0 (10000) true charpath flattenpath pathbbox N exch 2 {3 1 roll sub abs} repeat /PSL_dimx exch def /PSL_dimy exch def
PSL_x PSL_A0_y M
currentpoint /PSL_save_y exch def /PSL_save_x exch def
0 0 M 58 F0 (10000) true charpath flattenpath pathbbox N exch 2 {3 1 roll sub abs} repeat /PSL_dimx exch def /PSL_dimy exch def
PSL_save_x PSL_save_y m
0 PSL_dimx -0.5 mul 0 G 58 F0 (10000) Z
/PSL_x 1984 def
0 0 M 58 F0 (11000) true charpath flattenpath pathbbox N exch 2 {3 1 roll sub abs} repeat /PSL_dimx exch def /PSL_dimy exch def
PSL_x PSL_A0_y M
currentpoint /PSL_save_y exch def /PSL_save_x exch def
0 0 M 58 F0 (11000) true charpath flattenpath pathbbox N exch 2 {3 1 roll sub abs} repeat /PSL_dimx exch def /PSL_dimy exch def
PSL_save_x PSL_save_y m
0 PSL_dimx -0.5 mul 0 G 58 F0 (11000) Z
/PSL_x 2173 def
0 0 M 58 F0 (12000) true charpath flattenpath pathbbox N exch 2 {3 1 roll sub abs} repeat /PSL_dimx exch def /PSL_dimy exch def
PSL_x PSL_A0_y M
currentpoint /PSL_save_y exch def /PSL_save_x exch def
0 0 M 58 F0 (12000) true charpath flattenpath pathbbox N exch 2 {3 1 roll sub abs} repeat /PSL_dimx exch def /PSL_dimy exch def
PSL_save_x PSL_save_y m
0 PSL_dimx -0.5 mul 0 G 58 F0 (12000) Z
/PSL_x 2362 def
0 0 M 58 F0 (13000) true charpath flattenpath pathbbox N exch 2 {3 1 roll sub abs} repeat /PSL_dimx exch def /PSL_dimy exch def
PSL_x PSL_A0_y M
currentpoint /PSL_save_y exch def /PSL_save_x exch def
0 0 M 58 F0 (13000) true charpath flattenpath pathbbox N exch 2 {3 1 roll sub abs} repeat /PSL_dimx exch def /PSL_dimy exch def
PSL_save_x PSL_save_y m
0 PSL_dimx -0.5 mul 0 G 58 F0 (13000) Z
3.25261e-15 -1771.65 T
%
% End of upper x-axis
%
S [] 0 B
%
% End of basemap
%
S [] 0 B
%%PageTrailer
% Reset translations and scale and call showpage
S -295.276 -295.276 T 4.16667 4.16667 scale -90 R -612 0 T 0 A
showpage

%%Trailer

end
%%EOF
